LSRF_task_2/task2/histogram_system_tb.vcd
$date
	Wed Apr 02 17:49:30 2025
$end
$version
	Icarus Verilog
$end
$timescale
	1ps
$end
$scope module histogram_system_tb $end
$var wire 1 ! s_axi_wready $end
$var wire 1 " s_axi_rvalid $end
$var wire 2 # s_axi_rresp [1:0] $end
$var wire 32 $ s_axi_rdata [31:0] $end
$var wire 1 % s_axi_bvalid $end
$var wire 2 & s_axi_bresp [1:0] $end
$var wire 1 ' s_axi_awready $end
$var wire 1 ( s_axi_arready $end
$var wire 32 ) debug_rdata [31:0] $end
$var parameter 32 * AXIL_ADDR_WIDTH $end
$var parameter 32 + AXIL_DATA_WIDTH $end
$var parameter 32 , CLK_PERIOD $end
$var parameter 32 - NUM_CYCLE $end
$var parameter 32 . RAM_ADDR_WIDTH $end
$var parameter 32 / RAM_DATA_WIDTH $end
$var reg 1 0 aclk $end
$var reg 1 1 aresetn $end
$var reg 8 2 debug_addr [7:0] $end
$var reg 1 3 debug_rd_en $end
$var reg 8 4 mem_data [7:0] $end
$var reg 4 5 s_axi_araddr [3:0] $end
$var reg 1 6 s_axi_arvalid $end
$var reg 4 7 s_axi_awaddr [3:0] $end
$var reg 1 8 s_axi_awvalid $end
$var reg 1 9 s_axi_bready $end
$var reg 1 : s_axi_rready $end
$var reg 32 ; s_axi_wdata [31:0] $end
$var reg 1 < s_axi_wvalid $end
$var integer 32 = i [31:0] $end
$var integer 32 > seed [31:0] $end
$var integer 32 ? total_samples [31:0] $end
$scope function get_bin $end
$var reg 8 @ value [7:0] $end
$upscope $end
$scope module dut $end
$var wire 1 0 aclk $end
$var wire 1 1 aresetn $end
$var wire 8 A debug_addr [7:0] $end
$var wire 1 3 debug_rd_en $end
$var wire 8 B hist_rd_addr [7:0] $end
$var wire 1 C hist_rd_en $end
$var wire 4 D s_axi_araddr [3:0] $end
$var wire 1 6 s_axi_arvalid $end
$var wire 4 E s_axi_awaddr [3:0] $end
$var wire 1 8 s_axi_awvalid $end
$var wire 1 9 s_axi_bready $end
$var wire 1 : s_axi_rready $end
$var wire 32 F s_axi_wdata [31:0] $end
$var wire 1 < s_axi_wvalid $end
$var wire 1 ! s_axi_wready $end
$var wire 1 " s_axi_rvalid $end
$var wire 2 G s_axi_rresp [1:0] $end
$var wire 32 H s_axi_rdata [31:0] $end
$var wire 1 % s_axi_bvalid $end
$var wire 2 I s_axi_bresp [1:0] $end
$var wire 1 ' s_axi_awready $end
$var wire 1 ( s_axi_arready $end
$var wire 1 J ram_to_nowhere_tvalid $end
$var wire 32 K ram_to_nowhere_tdata [31:0] $end
$var wire 1 L lfsr_to_hist_tvalid $end
$var wire 1 M lfsr_to_hist_tready $end
$var wire 32 N lfsr_to_hist_tdata [31:0] $end
$var wire 1 O hist_wr_en $end
$var wire 32 P hist_wr_data [31:0] $end
$var wire 8 Q hist_wr_addr [7:0] $end
$var wire 1 R hist_to_ram_tvalid $end
$var wire 1 S hist_to_ram_tready $end
$var wire 32 T hist_to_ram_tdata [31:0] $end
$var wire 32 U hist_rd_data [31:0] $end
$var wire 32 V debug_rdata [31:0] $end
$var parameter 32 W AXIL_ADDR_WIDTH $end
$var parameter 32 X AXIL_DATA_WIDTH $end
$var parameter 32 Y RAM_ADDR_WIDTH $end
$var parameter 32 Z RAM_DATA_WIDTH $end
$scope module hist_inst $end
$var wire 1 0 aclk $end
$var wire 1 1 aresetn $end
$var wire 8 [ rd_addr [7:0] $end
$var wire 1 C rd_en $end
$var wire 1 L s_axis_tvalid $end
$var wire 32 \ s_axis_tdata [31:0] $end
$var wire 1 S m_axis_tready $end
$var parameter 8 ] CMD_COUNT $end
$var parameter 8 ^ CMD_DATA $end
$var parameter 32 _ FIFO_ADDR_WIDTH $end
$var parameter 32 ` FIFO_DEPTH $end
$var parameter 3 a IDLE $end
$var parameter 32 b NUM_BINS $end
$var parameter 3 c PROCESS $end
$var parameter 3 d QUEUE_COUNT $end
$var parameter 3 e QUEUE_DATA $end
$var parameter 3 f WAIT_RAM_ACK $end
$var parameter 3 g WRITE_TO_RAM $end
$var reg 8 h bin_count_addr [7:0] $end
$var reg 8 i bin_storage_addr [7:0] $end
$var reg 3 j current_bin [2:0] $end
$var reg 40 k current_fifo_entry [39:0] $end
$var reg 8 l current_value [7:0] $end
$var reg 1 m fifo_empty $end
$var reg 1 n fifo_full $end
$var reg 4 o fifo_rd_ptr [3:0] $end
$var reg 4 p fifo_wr_ptr [3:0] $end
$var reg 32 q m_axis_tdata [31:0] $end
$var reg 1 R m_axis_tvalid $end
$var reg 32 r rd_data [31:0] $end
$var reg 1 M s_axis_tready $end
$var reg 3 s state [2:0] $end
$var reg 8 t wr_addr [7:0] $end
$var reg 32 u wr_data [31:0] $end
$var reg 1 O wr_en $end
$var integer 32 v i [31:0] $end
$scope function get_bin $end
$var reg 8 w value [7:0] $end
$upscope $end
$scope function get_bin_base_addr $end
$var reg 3 x bin_num [2:0] $end
$upscope $end
$scope function get_bin_count_addr $end
$var reg 3 y bin_num [2:0] $end
$upscope $end
$upscope $end
$scope module lfsr_inst $end
$var wire 1 0 aclk $end
$var wire 1 1 aresetn $end
$var wire 1 M m_axis_tready $end
$var wire 4 z s_axi_araddr [3:0] $end
$var wire 1 6 s_axi_arvalid $end
$var wire 4 { s_axi_awaddr [3:0] $end
$var wire 1 8 s_axi_awvalid $end
$var wire 1 9 s_axi_bready $end
$var wire 1 : s_axi_rready $end
$var wire 32 | s_axi_wdata [31:0] $end
$var wire 1 < s_axi_wvalid $end
$var parameter 32 } C_AXIL_ADDR_WIDTH $end
$var parameter 32 ~ C_AXIL_DATA_WIDTH $end
$var reg 4 !" axi_araddr [3:0] $end
$var reg 1 "" feedback $end
$var reg 1 #" lfsr_active $end
$var reg 1 $" lfsr_output_valid $end
$var reg 8 %" lfsr_reg [7:0] $end
$var reg 32 &" m_axis_tdata [31:0] $end
$var reg 1 L m_axis_tvalid $end
$var reg 1 ( s_axi_arready $end
$var reg 1 ' s_axi_awready $end
$var reg 2 '" s_axi_bresp [1:0] $end
$var reg 1 % s_axi_bvalid $end
$var reg 32 (" s_axi_rdata [31:0] $end
$var reg 2 )" s_axi_rresp [1:0] $end
$var reg 1 " s_axi_rvalid $end
$var reg 1 ! s_axi_wready $end
$var reg 8 *" seed_reg [7:0] $end
$var reg 1 +" start_reg $end
$var reg 1 ," stop_reg $end
$var reg 8 -" taps_reg [7:0] $end
$upscope $end
$scope module ram_inst $end
$var wire 1 0 aclk $end
$var wire 1 1 aresetn $end
$var wire 8 ." debug_addr [7:0] $end
$var wire 1 3 debug_rd_en $end
$var wire 1 /" m_axis_tready $end
$var wire 32 0" s_axis_tdata [31:0] $end
$var wire 1 R s_axis_tvalid $end
$var parameter 2 1" IDLE $end
$var parameter 32 2" MEM_ADDR_WIDTH $end
$var parameter 32 3" MEM_SIZE $end
$var parameter 2 4" READ $end
$var parameter 2 5" WRITE $end
$var reg 32 6" debug_rdata [31:0] $end
$var reg 32 7" m_axis_tdata [31:0] $end
$var reg 1 J m_axis_tvalid $end
$var reg 8 8" read_addr [7:0] $end
$var reg 32 9" read_operations [31:0] $end
$var reg 1 S s_axis_tready $end
$var reg 2 :" state [1:0] $end
$var reg 32 ;" write_operations [31:0] $end
$var integer 32 <" i [31:0] $end
$upscope $end
$upscope $end
$scope task axi_lite_read $end
$var reg 4 =" addr [3:0] $end
$var reg 32 >" data [31:0] $end
$upscope $end
$scope task axi_lite_write $end
$var reg 4 ?" addr [3:0] $end
$var reg 32 @" data [31:0] $end
$upscope $end
$scope task check_memory $end
$var reg 8 A" addr [7:0] $end
$var reg 8 B" data [7:0] $end
$upscope $end
$scope task display_bin_data $end
$var reg 8 C" data_val [7:0] $end
$var integer 32 D" bin_num [31:0] $end
$var integer 32 E" count [31:0] $end
$var integer 32 F" i [31:0] $end
$var integer 32 G" max_display [31:0] $end
$upscope $end
$upscope $end
$enddefinitions $end
$comment Show the parameter values. $end
$dumpall
b1 5"
b10 4"
b100100000 3"
b1000 2"
b0 1"
b100000 ~
b100 }
b100 g
b101 f
b11 e
b10 d
b1 c
b1000 b
b0 a
b10000 `
b100 _
b10 ^
b1 ]
b100000 Z
b1000 Y
b100000 X
b100 W
b100000 /
b1000 .
b111110100 -
b1010 ,
b100000 +
b100 *
$end
#0
$dumpvars
bx G"
bx F"
bx E"
bx D"
bx C"
bx B"
bx A"
bx @"
bx ?"
bx >"
bx ="
b100100000 <"
b0 ;"
b0 :"
b0 9"
b0 8"
bx 7"
b0 6"
bx 0"
1/"
b0 ."
b10001110 -"
0,"
0+"
b1 *"
b0 )"
b0 ("
b0 '"
b0 &"
b0 %"
0$"
0#"
x""
b0 !"
bx |
bx {
bx z
bx y
bx x
bx w
b10000 v
bx u
bx t
b0 s
b0 r
bx q
b0 p
b0 o
0n
1m
bx l
b0 k
bx j
bx i
bx h
b0 \
bz [
b0 V
b0 U
bx T
1S
0R
bx Q
bx P
0O
b0 N
1M
0L
bx K
0J
b0 I
b0 H
b0 G
bx F
bx E
bx D
zC
bz B
b0 A
bx @
b0 ?
bx >
b1000 =
0<
bx ;
0:
09
08
bx 7
06
bx 5
bx 4
03
b0 2
01
00
b0 )
1(
1'
b0 &
0%
b0 $
b0 #
0"
1!
$end
#5000
b100100000 <"
b10000 v
10
#10000
00
#15000
b10000 v
b100100000 <"
10
#20000
00
#25000
b100100000 <"
b10000 v
10
#30000
00
#35000
b10000 v
b100100000 <"
10
#40000
00
#45000
b100100000 <"
b10000 v
10
#50000
00
#55000
b10000 v
b100100000 <"
10
#60000
00
#65000
b100100000 <"
b10000 v
10
#70000
00
#75000
b10000 v
b100100000 <"
10
#80000
00
#85000
b100100000 <"
b10000 v
10
#90000
00
#95000
b10000 v
b100100000 <"
10
#100000
00
11
#105000
10
#110000
00
#115000
10
#120000
00
#125000
10
#130000
00
#135000
10
#140000
00
#145000
10
#150000
00
19
1<
b1 ;
b1 F
b1 |
18
b1000 7
b1000 E
b1000 {
b1 @"
b1000 ?"
#155000
0'
0!
10
#160000
00
#165000
1%
1!
1'
0<
08
10
#170000
00
#175000
0'
0!
0%
1<
b10001110 ;
b10001110 F
b10001110 |
18
b1100 7
b1100 E
b1100 {
b10001110 @"
b1100 ?"
19
10
#180000
00
#185000
1%
1!
1'
10
#190000
00
#195000
0%
0<
08
10
#200000
00
#205000
1+"
0!
0'
1<
b1 ;
b1 F
b1 |
18
b0 7
b0 E
b0 {
b1 @"
b0 ?"
19
10
#210000
00
#215000
1'
1!
1%
0$"
1#"
b1 %"
10
#220000
00
#225000
1$"
b10 %"
0%
0""
0<
08
10
#230000
00
#235000
b101 %"
1L
b10 N
b10 \
b10 &"
1""
09
10
#240000
00
#245000
0M
b1 s
b10 l
b101 N
b101 \
b101 &"
b1011 %"
10
#250000
00
#255000
b10 s
b0xxx00 h
b0 j
b10 w
10
#260000
00
#265000
b1000xxx00000000000000000000000000 k
b11 s
b1 p
10
#270000
00
#275000
0m
1M
b0 s
b10 p
10
#280000
00
#285000
b100 s
b1011 N
b1011 \
b1011 &"
b10110 %"
0""
10
#290000
00
#295000
b101100 %"
b10110 N
b10110 \
b10110 &"
b101 s
1O
b0 P
b0 u
b0xxx00 Q
b0xxx00 t
1R
b0xxx000000000000000000 T
b0xxx000000000000000000 q
b0xxx000000000000000000 0"
10
#300000
00
#305000
bx00000000000000000000000000000010 k
0S
b1 :"
b0 s
b1 o
0O
0R
b101100 N
b101100 \
b101100 &"
b1011000 %"
10
#310000
00
#315000
b10110001 %"
b1011000 N
b1011000 \
b1011000 &"
b100 s
1S
b0 :"
1""
10
#320000
00
#325000
b101 s
1O
b10 P
b10 u
b0 Q
b0 t
1R
b0 T
b0 q
b0 0"
b10110001 N
b10110001 \
b10110001 &"
b1100011 %"
10
#330000
00
#335000
b0 k
b11000111 %"
b1100011 N
b1100011 \
b1100011 &"
b0 s
b10 o
0O
0R
0S
b1 :"
10
#340000
00
#345000
1S
b0 :"
b1 ;"
b100 s
1m
b11000111 N
b11000111 \
b11000111 &"
b10001111 %"
10
#350000
00
#355000
b11110 %"
b10001111 N
b10001111 \
b10001111 &"
b101 s
1O
b0 P
b0 u
1R
0""
10
#360000
00
#365000
0S
b1 :"
b0 s
b11 o
0O
0R
b11110 N
b11110 \
b11110 &"
b111101 %"
1""
10
#370000
00
#375000
b1111010 %"
b111101 N
b111101 \
b111101 &"
1n
0m
0M
b1 s
b11110 l
1S
b0 :"
b10 ;"
0""
10
#380000
00
#385000
b10 s
b100000 i
b0 h
b0 x
b0 y
b11110 w
10
#390000
00
#395000
b11 s
b11 p
10
#400000
00
#405000
b10000000000000000000000000000000011110 k
b0 s
b100 p
0n
1m
10
#410000
00
#415000
0m
1M
10
#420000
00
#425000
b100 s
b1111010 N
b1111010 \
b1111010 &"
b11110100 %"
10
#430000
00
#435000
b11101000 %"
b11110100 N
b11110100 \
b11110100 &"
b101 s
1O
b11110 P
b11110 u
1R
10
#440000
00
#445000
b0 k
0S
b1 :"
b0 s
b100 o
0O
0R
b11101000 N
b11101000 \
b11101000 &"
b11010000 %"
10
#450000
00
#455000
b10100001 %"
b11010000 N
b11010000 \
b11010000 &"
1m
b100 s
1S
b0 :"
b11 ;"
1""
10
#460000
00
#465000
b101 s
1O
b0 P
b0 u
1R
b10100001 N
b10100001 \
b10100001 &"
b1000011 %"
10
#470000
00
#475000
b10000111 %"
b1000011 N
b1000011 \
b1000011 &"
b0 s
b101 o
0O
0R
0S
b1 :"
10
#480000
00
#485000
1S
b0 :"
b100 ;"
0M
b1 s
b1000011 l
1n
0m
b10000111 N
b10000111 \
b10000111 &"
b1111 %"
10
#490000
00
#495000
b10 s
b100001 i
b10 j
b1000011 w
10
#500000
00
#505000
b11 s
b101 p
10
#510000
00
#515000
b10000100000000000000000000000001000011 k
0n
1m
b0 s
b110 p
10
#520000
00
#525000
1M
0m
10
#530000
00
#535000
b11111 %"
b1111 N
b1111 \
b1111 &"
b100 s
10
#540000
00
#545000
b101 s
1O
b1000011 P
b1000011 u
1R
b11111 N
b11111 \
b11111 &"
b111111 %"
10
#550000
00
#555000
b0 k
b1111111 %"
b111111 N
b111111 \
b111111 &"
b0 s
b110 o
0O
0R
0S
b1 :"
10
#560000
00
#565000
1S
b0 :"
b101 ;"
b100 s
1m
b1111111 N
b1111111 \
b1111111 &"
b11111111 %"
10
#570000
00
#575000
b11111110 %"
b11111111 N
b11111111 \
b11111111 &"
b101 s
1O
b0 P
b0 u
1R
0""
10
#580000
00
#585000
0S
b1 :"
b0 s
b111 o
0O
0R
b11111110 N
b11111110 \
b11111110 &"
b11111100 %"
10
#590000
00
#595000
b11111001 %"
b11111100 N
b11111100 \
b11111100 &"
1n
0m
0M
b1 s
b11111110 l
1S
b0 :"
b110 ;"
1""
10
#600000
00
#605000
b10 s
b1100000 i
b1000 h
b111 j
b10 x
b10 y
b11111110 w
10
#610000
00
#615000
b11 s
b111 p
10
#620000
00
#625000
b110000000000000000000000000000011111110 k
b0 s
b1000 p
0n
1m
10
#630000
00
#635000
0m
1M
10
#640000
00
#645000
b100 s
b11111001 N
b11111001 \
b11111001 &"
b11110010 %"
0""
10
#650000
00
#655000
b11100100 %"
b11110010 N
b11110010 \
b11110010 &"
b101 s
1O
b11111110 P
b11111110 u
1R
10
#660000
00
#665000
b0 k
0S
b1 :"
b0 s
b1000 o
0O
0R
b11100100 N
b11100100 \
b11100100 &"
b11001000 %"
10
#670000
00
#675000
b10010000 %"
b11001000 N
b11001000 \
b11001000 &"
1m
b100 s
1S
b0 :"
b111 ;"
10
#680000
00
#685000
b101 s
1O
b0 P
b0 u
1R
b10010000 N
b10010000 \
b10010000 &"
b100001 %"
1""
10
#690000
00
#695000
b1000010 %"
b100001 N
b100001 \
b100001 &"
b0 s
b1001 o
0O
0R
0S
b1 :"
0""
10
#700000
00
#705000
1S
b0 :"
b1000 ;"
0M
b1 s
b100001 l
1n
0m
b1000010 N
b1000010 \
b1000010 &"
b10000101 %"
1""
10
#710000
00
#715000
b10 s
b0 i
b11100 h
b1 j
b111 x
b111 y
b100001 w
10
#720000
00
#725000
b11 s
b1001 p
10
#730000
00
#735000
b100001 k
0n
1m
b0 s
b1010 p
10
#740000
00
#745000
1M
0m
10
#750000
00
#755000
b1010 %"
b10000101 N
b10000101 \
b10000101 &"
b100 s
0""
10
#760000
00
#765000
b101 s
1O
b100001 P
b100001 u
1R
b1010 N
b1010 \
b1010 &"
b10100 %"
10
#770000
00
#775000
b0 k
b101001 %"
b10100 N
b10100 \
b10100 &"
b0 s
b1010 o
0O
0R
0S
b1 :"
1""
10
#780000
00
#785000
1S
b0 :"
b1001 ;"
b100 s
1m
b101001 N
b101001 \
b101001 &"
b1010011 %"
10
#790000
00
#795000
b10100111 %"
b1010011 N
b1010011 \
b1010011 &"
b101 s
1O
b0 P
b0 u
1R
10
#800000
00
#805000
0S
b1 :"
b0 s
b1011 o
0O
0R
b10100111 N
b10100111 \
b10100111 &"
b1001111 %"
10
#810000
00
#815000
b10011111 %"
b1001111 N
b1001111 \
b1001111 &"
1n
0m
0M
b1 s
b10100111 l
1S
b0 :"
b1010 ;"
10
#820000
00
#825000
b10 s
b1000000 i
b100 h
b101 j
b1 x
b1 y
b10100111 w
10
#830000
00
#835000
b11 s
b1011 p
10
#840000
00
#845000
b100000000000000000000000000000010100111 k
b0 s
b1100 p
0n
1m
10
#850000
00
#855000
0m
1M
10
#860000
00
#865000
b100 s
b10011111 N
b10011111 \
b10011111 &"
b111110 %"
0""
10
#870000
00
#875000
b1111101 %"
b111110 N
b111110 \
b111110 &"
b101 s
1O
b10100111 P
b10100111 u
1R
1""
10
#880000
00
#885000
b0 k
0S
b1 :"
b0 s
b1100 o
0O
0R
b1111101 N
b1111101 \
b1111101 &"
b11111010 %"
0""
10
#890000
00
#895000
b11110101 %"
b11111010 N
b11111010 \
b11111010 &"
1m
b100 s
1S
b0 :"
b1011 ;"
1""
10
#900000
00
#905000
b101 s
1O
b0 P
b0 u
1R
b11110101 N
b11110101 \
b11110101 &"
b11101010 %"
0""
10
#910000
00
#915000
b11010101 %"
b11101010 N
b11101010 \
b11101010 &"
b0 s
b1101 o
0O
0R
0S
b1 :"
1""
10
#920000
00
#925000
1S
b0 :"
b1100 ;"
0M
b1 s
b11101010 l
1n
0m
b11010101 N
b11010101 \
b11010101 &"
b10101010 %"
0""
10
#930000
00
#935000
b10 s
b11000000 i
b10100 h
b111 j
b101 x
b101 y
b11101010 w
10
#940000
00
#945000
b11 s
b1101 p
10
#950000
00
#955000
b1100000000000000000000000000000011101010 k
0n
1m
b0 s
b1110 p
10
#960000
00
#965000
1M
0m
10
#970000
00
#975000
b1010101 %"
b10101010 N
b10101010 \
b10101010 &"
b100 s
1""
10
#980000
00
#985000
b101 s
1O
b11101010 P
b11101010 u
1R
b1010101 N
b1010101 \
b1010101 &"
b10101011 %"
10
#990000
00
#995000
b0 k
b1010111 %"
b10101011 N
b10101011 \
b10101011 &"
b0 s
b1110 o
0O
0R
0S
b1 :"
10
#1000000
00
#1005000
1S
b0 :"
b1101 ;"
b100 s
1m
b1010111 N
b1010111 \
b1010111 &"
b10101110 %"
0""
10
#1010000
00
#1015000
b1011100 %"
b10101110 N
b10101110 \
b10101110 &"
b101 s
1O
b0 P
b0 u
1R
10
#1020000
00
#1025000
0S
b1 :"
b0 s
b1111 o
0O
0R
b1011100 N
b1011100 \
b1011100 &"
b10111000 %"
10
#1030000
00
#1035000
b1110000 %"
b10111000 N
b10111000 \
b10111000 &"
1n
0m
0M
b1 s
b1011100 l
1S
b0 :"
b1110 ;"
10
#1040000
00
#1045000
b10 s
b1 i
b11100 h
b10 j
b111 x
b111 y
b1011100 w
10
#1050000
00
#1055000
b11 s
b1111 p
10
#1060000
00
#1065000
b100000000000000000000000001011100 k
b0 s
b0 p
0n
1m
10
#1070000
00
#1075000
0m
1M
10
#1080000
00
#1085000
b100 s
b1110000 N
b1110000 \
b1110000 &"
b11100000 %"
10
#1090000
00
#1095000
b11000001 %"
b11100000 N
b11100000 \
b11100000 &"
b101 s
1O
b1011100 P
b1011100 u
1R
b1011100 T
b1011100 q
b1011100 0"
1""
10
#1100000
00
#1105000
b1000xxx00000000000000000000000000 k
0S
b1 :"
b0 s
b0 o
0O
0R
b11000001 N
b11000001 \
b11000001 &"
b10000011 %"
10
#1110000
00
#1115000
b110 %"
b10000011 N
b10000011 \
b10000011 &"
1m
b100 s
1S
b0 :"
b1111 ;"
0""
10
#1120000
00
#1125000
b101 s
1O
b0 P
b0 u
b0xxx00 Q
b0xxx00 t
1R
b0xxx000000000000000000 T
b0xxx000000000000000000 q
b0xxx000000000000000000 0"
b110 N
b110 \
b110 &"
b1100 %"
10
#1130000
00
#1135000
bx00000000000000000000000000000010 k
b11000 %"
b1100 N
b1100 \
b1100 &"
b0 s
b1 o
0O
0R
0S
b1 :"
10
#1140000
00
#1145000
1S
b0 :"
0M
b1 s
b1100 l
1n
0m
b11000 N
b11000 \
b11000 &"
b110001 %"
1""
10
#1150000
00
#1155000
b10 s
b1100001 i
b1000 h
b0 j
b10 x
b10 y
b1100 w
10
#1160000
00
#1165000
b11 s
b1 p
10
#1170000
00
#1175000
b110000100000000000000000000000000001100 k
0n
1m
b0 s
b10 p
10
#1180000
00
#1185000
1M
0m
10
#1190000
00
#1195000
b1100010 %"
b110001 N
b110001 \
b110001 &"
b100 s
0""
10
#1200000
00
#1205000
b101 s
1O
b1100 P
b1100 u
b0 Q
b0 t
1R
b0 T
b0 q
b0 0"
b1100010 N
b1100010 \
b1100010 &"
b11000101 %"
1""
10
#1210000
00
#1215000
b100000000000000000000000000000001 k
b10001010 %"
b11000101 N
b11000101 \
b11000101 &"
b0 s
b10 o
0O
0R
0S
b1 :"
0""
10
#1220000
00
#1225000
1S
b0 :"
b10000 ;"
b100 s
1m
b10001010 N
b10001010 \
b10001010 &"
b10101 %"
1""
10
#1230000
00
#1235000
b101011 %"
b10101 N
b10101 \
b10101 &"
b101 s
1O
b1 P
b1 u
1R
b1 T
b1 q
b1 0"
10
#1240000
00
#1245000
b10000000000000000000000000000000011110 k
0S
b1 :"
b0 s
b11 o
0O
0R
b101011 N
b101011 \
b101011 &"
b1010110 %"
0""
10
#1250000
00
#1255000
b10101100 %"
b1010110 N
b1010110 \
b1010110 &"
1n
0m
0M
b1 s
b101011 l
1S
b0 :"
b10001 ;"
10
#1260000
00
#1265000
b10 s
b100010 i
b0 h
b1 j
b0 x
b0 y
b101011 w
10
#1270000
00
#1275000
b11 s
b11 p
10
#1280000
00
#1285000
b10001000000000000000000000000000101011 k
b0 s
b100 p
0n
1m
10
#1290000
00
#1295000
0m
1M
10
#1300000
00
#1305000
b100 s
b10101100 N
b10101100 \
b10101100 &"
b1011001 %"
1""
10
#1310000
00
#1315000
b10110011 %"
b1011001 N
b1011001 \
b1011001 &"
b101 s
1O
b101011 P
b101011 u
1R
b0 T
b0 q
b0 0"
10
#1320000
00
#1325000
b100000000000000000000000000000000 k
0S
b1 :"
b0 s
b100 o
0O
0R
b10110011 N
b10110011 \
b10110011 &"
b1100110 %"
0""
10
#1330000
00
#1335000
b11001100 %"
b1100110 N
b1100110 \
b1100110 &"
1m
b100 s
1S
b0 :"
b10010 ;"
10
#1340000
00
#1345000
b101 s
1O
b0 P
b0 u
1R
b11001100 N
b11001100 \
b11001100 &"
b10011001 %"
1""
10
#1350000
00
#1355000
b10000100000000000000000000000001000011 k
b110010 %"
b10011001 N
b10011001 \
b10011001 &"
b0 s
b101 o
0O
0R
0S
b1 :"
0""
10
#1360000
00
#1365000
1S
b0 :"
b10011 ;"
0M
b1 s
b10011001 l
1n
0m
b110010 N
b110010 \
b110010 &"
b1100101 %"
1""
10
#1370000
00
#1375000
b10 s
b1000001 i
b100 h
b100 j
b1 x
b1 y
b10011001 w
10
#1380000
00
#1385000
b11 s
b101 p
10
#1390000
00
#1395000
b100000100000000000000000000000010011001 k
0n
1m
b0 s
b110 p
10
#1400000
00
#1405000
1M
0m
10
#1410000
00
#1415000
b11001011 %"
b1100101 N
b1100101 \
b1100101 &"
b100 s
10
#1420000
00
#1425000
b101 s
1O
b10011001 P
b10011001 u
1R
b11001011 N
b11001011 \
b11001011 &"
b10010111 %"
10
#1430000
00
#1435000
b100001000000000000000000000000000 k
b101111 %"
b10010111 N
b10010111 \
b10010111 &"
b0 s
b110 o
0O
0R
0S
b1 :"
10
#1440000
00
#1445000
1S
b0 :"
b10100 ;"
b100 s
1m
b101111 N
b101111 \
b101111 &"
b1011111 %"
10
#1450000
00
#1455000
b10111111 %"
b1011111 N
b1011111 \
b1011111 &"
b101 s
1O
b0 P
b0 u
b1000 Q
b1000 t
1R
b10000000000000000000 T
b10000000000000000000 q
b10000000000000000000 0"
10
#1460000
00
#1465000
b110000000000000000000000000000011111110 k
0S
b1 :"
b0 s
b111 o
0O
0R
b10111111 N
b10111111 \
b10111111 &"
b1111110 %"
0""
10
#1470000
00
#1475000
b11111101 %"
b1111110 N
b1111110 \
b1111110 &"
1n
0m
0M
b1 s
b10111111 l
1S
b0 :"
b10101 ;"
1""
10
#1480000
00
#1485000
b10 s
b10100000 i
b10000 h
b101 j
b100 x
b100 y
b10111111 w
10
#1490000
00
#1495000
b11 s
b111 p
10
#1500000
00
#1505000
b1010000000000000000000000000000010111111 k
b0 s
b1000 p
0n
1m
10
#1510000
00
#1515000
0m
1M
10
#1520000
00
#1525000
b100 s
b11111101 N
b11111101 \
b11111101 &"
b11111011 %"
10
#1530000
00
#1535000
b11110111 %"
b11111011 N
b11111011 \
b11111011 &"
b101 s
1O
b10111111 P
b10111111 u
b0 Q
b0 t
1R
b0 T
b0 q
b0 0"
10
#1540000
00
#1545000
b100011100000000000000000000000000 k
0S
b1 :"
b0 s
b1000 o
0O
0R
b11110111 N
b11110111 \
b11110111 &"
b11101111 %"
10
#1550000
00
#1555000
b11011110 %"
b11101111 N
b11101111 \
b11101111 &"
1m
b100 s
1S
b0 :"
b10110 ;"
0""
10
#1560000
00
#1565000
b101 s
1O
b0 P
b0 u
b11100 Q
b11100 t
1R
b111000000000000000000 T
b111000000000000000000 q
b111000000000000000000 0"
b11011110 N
b11011110 \
b11011110 &"
b10111100 %"
10
#1570000
00
#1575000
b100001 k
b1111001 %"
b10111100 N
b10111100 \
b10111100 &"
b0 s
b1001 o
0O
0R
0S
b1 :"
1""
10
#1580000
00
#1585000
1S
b0 :"
b10111 ;"
0M
b1 s
b10111100 l
1n
0m
b1111001 N
b1111001 \
b1111001 &"
b11110011 %"
10
#1590000
00
#1595000
b10 s
b11000001 i
b10100 h
b101 x
b101 y
b10111100 w
10
#1600000
00
#1605000
b11 s
b1001 p
10
#1610000
00
#1615000
b1100000100000000000000000000000010111100 k
0n
1m
b0 s
b1010 p
10
#1620000
00
#1625000
1M
0m
10
#1630000
00
#1635000
b11100110 %"
b11110011 N
b11110011 \
b11110011 &"
b100 s
0""
10
#1640000
00
#1645000
b101 s
1O
b10111100 P
b10111100 u
b0 Q
b0 t
1R
b0 T
b0 q
b0 0"
b11100110 N
b11100110 \
b11100110 &"
b11001101 %"
1""
10
#1650000
00
#1655000
b100000100000000000000000000000000 k
b10011011 %"
b11001101 N
b11001101 \
b11001101 &"
b0 s
b1010 o
0O
0R
0S
b1 :"
10
#1660000
00
#1665000
1S
b0 :"
b11000 ;"
b100 s
1m
b10011011 N
b10011011 \
b10011011 &"
b110111 %"
10
#1670000
00
#1675000
b1101110 %"
b110111 N
b110111 \
b110111 &"
b101 s
1O
b0 P
b0 u
b100 Q
b100 t
1R
b1000000000000000000 T
b1000000000000000000 q
b1000000000000000000 0"
0""
10
#1680000
00
#1685000
b100000000000000000000000000000010100111 k
0S
b1 :"
b0 s
b1011 o
0O
0R
b1101110 N
b1101110 \
b1101110 &"
b11011101 %"
1""
10
#1690000
00
#1695000
b10111011 %"
b11011101 N
b11011101 \
b11011101 &"
1n
0m
0M
b1 s
b1101110 l
1S
b0 :"
b11001 ;"
10
#1700000
00
#1705000
b10 s
b11000010 i
b11 j
b1101110 w
10
#1710000
00
#1715000
b11 s
b1011 p
10
#1720000
00
#1725000
b1100001000000000000000000000000001101110 k
b0 s
b1100 p
0n
1m
10
#1730000
00
#1735000
0m
1M
10
#1740000
00
#1745000
b100 s
b10111011 N
b10111011 \
b10111011 &"
b1110111 %"
10
#1750000
00
#1755000
b11101110 %"
b1110111 N
b1110111 \
b1110111 &"
b101 s
1O
b1101110 P
b1101110 u
b0 Q
b0 t
1R
b0 T
b0 q
b0 0"
0""
10
#1760000
00
#1765000
b100010100000000000000000000000001 k
0S
b1 :"
b0 s
b1100 o
0O
0R
b11101110 N
b11101110 \
b11101110 &"
b11011100 %"
10
#1770000
00
#1775000
b10111001 %"
b11011100 N
b11011100 \
b11011100 &"
1m
b100 s
1S
b0 :"
b11010 ;"
1""
10
#1780000
00
#1785000
b101 s
1O
b1 P
b1 u
b10100 Q
b10100 t
1R
b101000000000000000001 T
b101000000000000000001 q
b101000000000000000001 0"
b10111001 N
b10111001 \
b10111001 &"
b1110010 %"
0""
10
#1790000
00
#1795000
b1100000000000000000000000000000011101010 k
b11100101 %"
b1110010 N
b1110010 \
b1110010 &"
b0 s
b1101 o
0O
0R
0S
b1 :"
1""
10
#1800000
00
#1805000
1S
b0 :"
b11011 ;"
0M
b1 s
b1110010 l
1n
0m
b11100101 N
b11100101 \
b11100101 &"
b11001010 %"
0""
10
#1810000
00
#1815000
b10 s
b10000000 i
b1100 h
b11 x
b11 y
b1110010 w
10
#1820000
00
#1825000
b11 s
b1101 p
10
#1830000
00
#1835000
b1000000000000000000000000000000001110010 k
0n
1m
b0 s
b1110 p
10
#1840000
00
#1845000
1M
0m
10
#1850000
00
