RISC-V_singlecycle/riscv_sc_tb.vcd
$date
	Mon Mar 24 23:43:49 2025
$end
$version
	Icarus Verilog
$end
$timescale
	1ps
$end
$scope module tb_riscv_sc $end
$var reg 1 ! clk $end
$var reg 1 " start $end
$scope module riscv_DUT $end
$var wire 1 # PC_Src $end
$var wire 1 ! clk $end
$var wire 1 " start $end
$var wire 1 $ zero $end
$var wire 32 % shifted_imm [31:0] $end
$var wire 32 & pcPlus4 [31:0] $end
$var wire 1 ' memwrite $end
$var wire 1 ( memToReg $end
$var wire 1 ) memRead $end
$var wire 1 * is_branch $end
$var wire 3 + funct3 [2:0] $end
$var wire 32 , branchTarget [31:0] $end
$var wire 1 - branch $end
$var wire 32 . WB_data [31:0] $end
$var wire 1 / Regwrite $end
$var wire 32 0 Read_data [31:0] $end
$var wire 32 1 RD_Inst [31:0] $end
$var wire 32 2 RD2_Top [31:0] $end
$var wire 32 3 RD1_Top [31:0] $end
$var wire 32 4 PC_Top [31:0] $end
$var wire 32 5 IMM_top [31:0] $end
$var wire 32 6 ALU_result [31:0] $end
$var wire 2 7 ALU_OP_top [1:0] $end
$var wire 32 8 ALU_B_input [31:0] $end
$var wire 1 9 ALUSrc $end
$var wire 4 : ALUControl_Top [3:0] $end
$var reg 1 ; branch_taken $end
$scope module m_ALU $end
$var wire 1 $ Zero $end
$var wire 32 < B [31:0] $end
$var wire 4 = ALUControl [3:0] $end
$var wire 32 > A [31:0] $end
$var reg 32 ? Result [31:0] $end
$upscope $end
$scope module m_ALUCtrl $end
$var wire 3 @ funct3 [2:0] $end
$var wire 7 A funct7 [6:0] $end
$var wire 2 B ALUOp [1:0] $end
$var reg 4 C ALUControl [3:0] $end
$upscope $end
$scope module m_Adder_1 $end
$var wire 32 D b [31:0] $end
$var wire 32 E sum [31:0] $end
$var wire 32 F a [31:0] $end
$upscope $end
$scope module m_Adder_2 $end
$var wire 32 G sum [31:0] $end
$var wire 32 H b [31:0] $end
$var wire 32 I a [31:0] $end
$upscope $end
$scope module m_Control $end
$var wire 7 J opcode [6:0] $end
$var reg 2 K ALUOp [1:0] $end
$var reg 1 9 ALUSrc $end
$var reg 1 - branch $end
$var reg 1 ) memRead $end
$var reg 1 ' memWrite $end
$var reg 1 ( memtoReg $end
$var reg 1 / regWrite $end
$upscope $end
$scope module m_DataMemory $end
$var wire 32 L address [31:0] $end
$var wire 1 ! clk $end
$var wire 1 ) memRead $end
$var wire 1 ' memWrite $end
$var wire 1 " rst $end
$var wire 32 M writeData [31:0] $end
$var reg 32 N readData [31:0] $end
$upscope $end
$scope module m_ImmGen $end
$var wire 7 O opcode [6:0] $end
$var wire 32 P In [31:0] $end
$var reg 32 Q Imm_Ext [31:0] $end
$upscope $end
$scope module m_InstMem $end
$var wire 32 R readAddr [31:0] $end
$var wire 32 S inst [31:0] $end
$upscope $end
$scope module m_Mux_ALU $end
$var wire 32 T s1 [31:0] $end
$var wire 1 9 sel $end
$var wire 32 U s0 [31:0] $end
$var wire 32 V out [31:0] $end
$var parameter 32 W size $end
$upscope $end
$scope module m_PC $end
$var wire 1 ! clk $end
$var wire 32 X pc_i [31:0] $end
$var wire 1 " rst $end
$var reg 32 Y pc_o [31:0] $end
$upscope $end
$scope module m_Register $end
$var wire 1 ! clk $end
$var wire 5 Z readReg1 [4:0] $end
$var wire 5 [ readReg2 [4:0] $end
$var wire 1 / regWrite $end
$var wire 1 " rst $end
$var wire 5 \ writeReg [4:0] $end
$var wire 32 ] writeData [31:0] $end
$var wire 32 ^ readData2 [31:0] $end
$var wire 32 _ readData1 [31:0] $end
$upscope $end
$scope module m_ShiftLeftOne $end
$var wire 32 ` i [31:0] $end
$var wire 32 a o [31:0] $end
$upscope $end
$scope module m_WB_Mux $end
$var wire 32 b s0 [31:0] $end
$var wire 32 c s1 [31:0] $end
$var wire 1 ( sel $end
$var wire 32 d out [31:0] $end
$var parameter 32 e size $end
$upscope $end
$upscope $end
$upscope $end
$enddefinitions $end
$comment Show the parameter values. $end
$dumpall
b100000 e
b100000 W
$end
#0
$dumpvars
bx d
bx c
bx b
bx0 a
bx `
bx _
bx ^
bx ]
bx \
bx [
bx Z
bx Y
bx X
bx V
bx U
bx T
bx S
bx R
bx Q
bx P
bx O
bx N
bx M
bx L
bx K
bx J
bx I
bx0 H
bx G
bx F
bx E
b100 D
bx C
bx B
bx A
bx @
bx ?
bx >
bx =
bx <
x;
bx :
x9
bx 8
bx 7
bx 6
bx 5
bx 4
bx 3
bx 2
bx 1
bx 0
x/
bx .
x-
bx ,
bx +
x*
x)
x(
x'
bx &
bx0 %
x$
x#
0"
0!
$end
#5000
b10100011 .
b10100011 ]
b10100011 d
0$
b10100011 6
b10100011 ?
b10100011 L
b10100011 b
b10100011 8
b10100011 <
b10100011 V
0#
b100 X
b10 :
b10 =
b10 C
0;
b0 2
b0 M
b0 U
b0 ^
b0 3
b0 >
b0 _
1/
19
0'
b10 7
b10 B
b10 K
0(
0)
0-
b101000110 ,
b101000110 G
b101000110 %
b101000110 H
b101000110 a
b10011 O
b0 @
b101 A
b0 +
0*
b1000 \
b11 [
b0 Z
b10011 J
b10100011 5
b10100011 Q
b10100011 T
b10100011 `
b0 0
b0 N
b0 c
b1010001100000000010000010011 1
b1010001100000000010000010011 P
b1010001100000000010000010011 S
b100 &
b100 E
b0 4
b0 F
b0 I
b0 R
b0 Y
1!
#10000
b1111100 .
b1111100 ]
b1111100 d
b1111100 6
b1111100 ?
b1111100 L
b1111100 b
b10000000 3
b10000000 >
b10000000 _
b11111111111111111111111111111100 8
b11111111111111111111111111111100 <
b11111111111111111111111111111100 V
b11111111111111111111111111111000 %
b11111111111111111111111111111000 H
b11111111111111111111111111111000 a
b1111111 A
b10 \
b11100 [
b10 Z
b11111111111111111111111111111100 5
b11111111111111111111111111111100 Q
b11111111111111111111111111111100 T
b11111111111111111111111111111100 `
b11111111110000010000000100010011 1
b11111111110000010000000100010011 P
b11111111110000010000000100010011 S
b1000 X
b11111111111111111111111111111100 ,
b11111111111111111111111111111100 G
b1000 &
b1000 E
b100 4
b100 F
b100 I
b100 R
b100 Y
0!
1"
#15000
b1111100 .
b1111100 ]
b1111100 d
1'
0/
19
b0 7
b0 B
b0 K
b0 8
b0 <
b0 V
b0 %
b0 H
b0 a
b1111100 6
b1111100 ?
b1111100 L
b1111100 b
b100011 O
b10 @
b0 A
b10 +
b0 \
b1000 [
b100011 J
b0 5
b0 Q
b0 T
b0 `
b1111100 3
b1111100 >
b1111100 _
b100000010010000000100011 1
b100000010010000000100011 P
b100000010010000000100011 S
b1100 X
b1000 ,
b1000 G
b1100 &
b1100 E
b1000 4
b1000 F
b1000 I
b1000 R
b1000 Y
1!
#20000
0!
#25000
1$
b0 .
b0 ]
b0 d
b0 6
b0 ?
b0 L
b0 b
b0 3
b0 >
b0 _
b10 7
b10 B
b10 K
1/
09
0'
b0 8
b0 <
b0 V
b0 %
b0 H
b0 a
b110011 O
b0 @
b0 +
b1000 \
b0 [
b0 Z
b110011 J
b0 5
b0 Q
b0 T
b0 `
b10000110011 1
b10000110011 P
b10000110011 S
b10000 X
b1100 ,
b1100 G
b10000 &
b10000 E
b1100 4
b1100 F
b1100 I
b1100 R
b1100 Y
1!
#30000
0!
#35000
19
1/
b10 7
b10 B
b10 K
b10011 O
b101 \
b10011 J
b1010010011 1
b1010010011 P
b1010010011 S
b10100 X
b10000 ,
b10000 G
b10100 &
b10100 E
b10000 4
b10000 F
b10000 I
b10000 R
b10000 Y
1!
#40000
0!
#45000
b1 .
b1 ]
b1 d
0$
b1 6
b1 ?
b1 L
b1 b
b111 :
b111 =
b111 C
b111 8
b111 <
b111 V
b1110 %
b1110 H
b1110 a
b10 @
b10 +
b110 \
b111 [
b101 Z
b111 5
b111 Q
b111 T
b111 `
b11100101010001100010011 1
b11100101010001100010011 P
b11100101010001100010011 S
b11000 X
b100010 ,
b100010 G
b11000 &
b11000 E
b10100 4
b10100 F
b10100 I
b10100 R
b10100 Y
1!
#50000
0!
#55000
b110 :
b110 =
b110 C
b1 3
b1 >
b1 _
1-
0/
09
b1 7
b1 B
b1 K
b0 8
b0 <
b0 V
b1100 %
b1100 H
b1100 a
b1100011 O
b0 @
b0 +
1*
b1100 \
b0 [
b110 Z
b1100011 J
b110 5
b110 Q
b110 T
b110 `
b110000011001100011 1
b110000011001100011 P
b110000011001100011 S
b11100 X
b100100 ,
b100100 G
b11100 &
b11100 E
b11000 4
b11000 F
b11000 I
b11000 R
b11000 Y
1!
#60000
0!
#65000
b1 8
b1 <
b1 V
b10 :
b10 =
b10 C
b0 3
b0 >
b0 _
19
1/
b10 7
b10 B
b10 K
0-
b10 %
b10 H
b10 a
b10011 O
0*
b101 \
b1 [
b101 Z
b10011 J
b1 5
b1 Q
b1 T
b1 `
b100101000001010010011 1
b100101000001010010011 P
b100101000001010010011 S
b100000 X
b11110 ,
b11110 G
b100000 &
b100000 E
b11100 4
b11100 F
b11100 I
b11100 R
b11100 Y
1!
#70000
0!
#75000
1#
1;
1$
b0 .
b0 ]
b0 d
b110 :
b110 =
b110 C
1-
0/
09
b1 7
b1 B
b1 K
b0 8
b0 <
b0 V
b11111111111111111111111111110100 %
b11111111111111111111111111110100 H
b11111111111111111111111111110100 a
b0 6
b0 ?
b0 L
b0 b
b1100011 O
b1111111 A
1*
b10101 \
b0 [
b0 Z
b1100011 J
b11111111111111111111111111111010 5
b11111111111111111111111111111010 Q
b11111111111111111111111111111010 T
b11111111111111111111111111111010 `
b0 3
b0 >
b0 _
b11111110000000000000101011100011 1
b11111110000000000000101011100011 P
b11111110000000000000101011100011 S
b10100 X
b10100 ,
b10100 G
b100100 &
b100100 E
b100000 4
b100000 F
b100000 I
b100000 R
b100000 Y
1!
#80000
0!
#85000
b1 .
b1 ]
b1 d
0$
b1 6
b1 ?
b1 L
b1 b
b111 8
b111 <
b111 V
0#
b111 :
b111 =
b111 C
0;
b1 3
b1 >
b1 _
19
1/
b10 7
b10 B
b10 K
0-
b1110 %
b1110 H
b1110 a
b10011 O
b10 @
b0 A
b10 +
0*
b110 \
b111 [
b101 Z
b10011 J
b111 5
b111 Q
b111 T
b111 `
b11100101010001100010011 1
b11100101010001100010011 P
b11100101010001100010011 S
b11000 X
b100010 ,
b100010 G
b11000 &
b11000 E
b10100 4
b10100 F
b10100 I
b10100 R
b10100 Y
1!
#90000
0!
#95000
b110 :
b110 =
b110 C
1-
0/
09
b1 7
b1 B
b1 K
b0 8
b0 <
b0 V
b1100 %
b1100 H
b1100 a
b1100011 O
b0 @
b0 +
1*
b1100 \
b0 [
b110 Z
b1100011 J
b110 5
b110 Q
b110 T
b110 `
b110000011001100011 1
b110000011001100011 P
b110000011001100011 S
b11100 X
b100100 ,
b100100 G
b11100 &
b11100 E
b11000 4
b11000 F
b11000 I
b11000 R
b11000 Y
1!
#100000
0!
#105000
b10 .
b10 ]
b10 d
b10 6
b10 ?
b10 L
b10 b
b1 8
b1 <
b1 V
b10 :
b10 =
b10 C
19
1/
b10 7
b10 B
b10 K
0-
b10 %
b10 H
b10 a
b10011 O
0*
b101 \
b1 [
b101 Z
b10011 J
b1 5
b1 Q
b1 T
b1 `
b100101000001010010011 1
b100101000001010010011 P
b100101000001010010011 S
b100000 X
b11110 ,
b11110 G
b100000 &
b100000 E
b11100 4
b11100 F
b11100 I
b11100 R
b11100 Y
1!
#110000
0!
#115000
1#
1;
1$
b0 .
b0 ]
b0 d
b110 :
b110 =
b110 C
1-
0/
09
b1 7
b1 B
b1 K
b0 8
b0 <
b0 V
b11111111111111111111111111110100 %
b11111111111111111111111111110100 H
b11111111111111111111111111110100 a
b0 6
b0 ?
b0 L
b0 b
b1100011 O
b1111111 A
1*
b10101 \
b0 [
b0 Z
b1100011 J
b11111111111111111111111111111010 5
b11111111111111111111111111111010 Q
b11111111111111111111111111111010 T
b11111111111111111111111111111010 `
b0 3
b0 >
b0 _
b11111110000000000000101011100011 1
b11111110000000000000101011100011 P
b11111110000000000000101011100011 S
b10100 X
b10100 ,
b10100 G
b100100 &
b100100 E
b100000 4
b100000 F
b100000 I
b100000 R
b100000 Y
1!
#120000
0!
#125000
b1 .
b1 ]
b1 d
0$
b1 6
b1 ?
b1 L
b1 b
b111 8
b111 <
b111 V
0#
b111 :
b111 =
b111 C
0;
b10 3
b10 >
b10 _
19
1/
b10 7
b10 B
b10 K
0-
b1110 %
b1110 H
b1110 a
b10011 O
b10 @
b0 A
b10 +
0*
b110 \
b111 [
b101 Z
b10011 J
b111 5
b111 Q
b111 T
b111 `
b11100101010001100010011 1
b11100101010001100010011 P
b11100101010001100010011 S
b11000 X
b100010 ,
b100010 G
b11000 &
b11000 E
b10100 4
b10100 F
b10100 I
b10100 R
b10100 Y
1!
#130000
0!
#135000
b110 :
b110 =
b110 C
b1 3
b1 >
b1 _
1-
0/
09
b1 7
b1 B
b1 K
b0 8
b0 <
b0 V
b1100 %
b1100 H
b1100 a
b1100011 O
b0 @
b0 +
1*
b1100 \
b0 [
b110 Z
b1100011 J
b110 5
b110 Q
b110 T
b110 `
b110000011001100011 1
b110000011001100011 P
b110000011001100011 S
b11100 X
b100100 ,
b100100 G
b11100 &
b11100 E
b11000 4
b11000 F
b11000 I
b11000 R
b11000 Y
1!
#140000
0!
#145000
b11 .
b11 ]
b11 d
b11 6
b11 ?
b11 L
b11 b
b1 8
b1 <
b1 V
b10 :
b10 =
b10 C
b10 3
b10 >
b10 _
19
1/
b10 7
b10 B
b10 K
0-
b10 %
b10 H
b10 a
b10011 O
0*
b101 \
b1 [
b101 Z
b10011 J
b1 5
b1 Q
b1 T
b1 `
b100101000001010010011 1
b100101000001010010011 P
b100101000001010010011 S
b100000 X
b11110 ,
b11110 G
b100000 &
b100000 E
b11100 4
b11100 F
b11100 I
b11100 R
b11100 Y
1!
#150000
0!
#155000
1#
1;
1$
b0 .
b0 ]
b0 d
b110 :
b110 =
b110 C
1-
0/
09
b1 7
b1 B
b1 K
b0 8
b0 <
b0 V
b11111111111111111111111111110100 %
b11111111111111111111111111110100 H
b11111111111111111111111111110100 a
b0 6
b0 ?
b0 L
b0 b
b1100011 O
b1111111 A
1*
b10101 \
b0 [
b0 Z
b1100011 J
b11111111111111111111111111111010 5
b11111111111111111111111111111010 Q
b11111111111111111111111111111010 T
b11111111111111111111111111111010 `
b0 3
b0 >
b0 _
b11111110000000000000101011100011 1
b11111110000000000000101011100011 P
b11111110000000000000101011100011 S
b10100 X
b10100 ,
b10100 G
b100100 &
b100100 E
b100000 4
b100000 F
b100000 I
b100000 R
b100000 Y
1!
#160000
0!
#165000
b1 .
b1 ]
b1 d
0$
b1 6
b1 ?
b1 L
b1 b
b111 8
b111 <
b111 V
0#
b111 :
b111 =
b111 C
0;
b11 3
b11 >
b11 _
19
1/
b10 7
b10 B
b10 K
0-
b1110 %
b1110 H
b1110 a
b10011 O
b10 @
b0 A
b10 +
0*
b110 \
b111 [
b101 Z
b10011 J
b111 5
b111 Q
b111 T
b111 `
b11100101010001100010011 1
b11100101010001100010011 P
b11100101010001100010011 S
b11000 X
b100010 ,
b100010 G
b11000 &
b11000 E
b10100 4
b10100 F
b10100 I
b10100 R
b10100 Y
1!
#170000
0!
#175000
b110 :
b110 =
b110 C
b1 3
b1 >
b1 _
1-
0/
09
b1 7
b1 B
b1 K
b0 8
b0 <
b0 V
b1100 %
b1100 H
b1100 a
b1100011 O
b0 @
b0 +
1*
b1100 \
b0 [
b110 Z
b1100011 J
b110 5
b110 Q
b110 T
b110 `
b110000011001100011 1
b110000011001100011 P
b110000011001100011 S
b11100 X
b100100 ,
b100100 G
b11100 &
b11100 E
b11000 4
b11000 F
b11000 I
b11000 R
b11000 Y
1!
#180000
0!
#185000
b100 .
b100 ]
b100 d
b100 6
b100 ?
b100 L
b100 b
b1 8
b1 <
b1 V
b10 :
b10 =
b10 C
b11 3
b11 >
b11 _
19
1/
b10 7
b10 B
b10 K
0-
b10 %
b10 H
b10 a
b10011 O
0*
b101 \
b1 [
b101 Z
b10011 J
b1 5
b1 Q
b1 T
b1 `
b100101000001010010011 1
b100101000001010010011 P
b100101000001010010011 S
b100000 X
b11110 ,
b11110 G
b100000 &
b100000 E
b11100 4
b11100 F
b11100 I
b11100 R
b11100 Y
1!
#190000
0!
#195000
1#
1;
1$
b0 .
b0 ]
b0 d
b110 :
b110 =
b110 C
1-
0/
09
b1 7
b1 B
b1 K
b0 8
b0 <
b0 V
b11111111111111111111111111110100 %
b11111111111111111111111111110100 H
b11111111111111111111111111110100 a
b0 6
b0 ?
b0 L
b0 b
b1100011 O
b1111111 A
1*
b10101 \
b0 [
b0 Z
b1100011 J
b11111111111111111111111111111010 5
b11111111111111111111111111111010 Q
b11111111111111111111111111111010 T
b11111111111111111111111111111010 `
b0 3
b0 >
b0 _
b11111110000000000000101011100011 1
b11111110000000000000101011100011 P
b11111110000000000000101011100011 S
b10100 X
b10100 ,
b10100 G
b100100 &
b100100 E
b100000 4
b100000 F
b100000 I
b100000 R
b100000 Y
1!
#200000
0!
#205000
b1 .
b1 ]
b1 d
0$
b1 6
b1 ?
b1 L
b1 b
b111 8
b111 <
b111 V
0#
b111 :
b111 =
b111 C
0;
b100 3
b100 >
b100 _
19
1/
b10 7
b10 B
b10 K
0-
b1110 %
b1110 H
b1110 a
b10011 O
b10 @
b0 A
b10 +
0*
b110 \
b111 [
b101 Z
b10011 J
b111 5
b111 Q
b111 T
b111 `
b11100101010001100010011 1
b11100101010001100010011 P
b11100101010001100010011 S
b11000 X
b100010 ,
b100010 G
b11000 &
b11000 E
b10100 4
b10100 F
b10100 I
b10100 R
b10100 Y
1!
#210000
0!
#215000
b110 :
b110 =
b110 C
b1 3
b1 >
b1 _
1-
0/
09
b1 7
b1 B
b1 K
b0 8
b0 <
b0 V
b1100 %
b1100 H
b1100 a
b1100011 O
b0 @
b0 +
1*
b1100 \
b0 [
b110 Z
b1100011 J
b110 5
b110 Q
b110 T
b110 `
b110000011001100011 1
b110000011001100011 P
b110000011001100011 S
b11100 X
b100100 ,
b100100 G
b11100 &
b11100 E
b11000 4
b11000 F
b11000 I
b11000 R
b11000 Y
1!
#220000
0!
#225000
b101 .
b101 ]
b101 d
b101 6
b101 ?
b101 L
b101 b
b1 8
b1 <
b1 V
b10 :
b10 =
b10 C
b100 3
b100 >
b100 _
19
1/
b10 7
b10 B
b10 K
0-
b10 %
b10 H
b10 a
b10011 O
0*
b101 \
b1 [
b101 Z
b10011 J
b1 5
b1 Q
b1 T
b1 `
b100101000001010010011 1
b100101000001010010011 P
b100101000001010010011 S
b100000 X
b11110 ,
b11110 G
b100000 &
b100000 E
b11100 4
b11100 F
b11100 I
b11100 R
b11100 Y
1!
#230000
0!
#235000
1#
1;
1$
b0 .
b0 ]
b0 d
b110 :
b110 =
b110 C
1-
0/
09
b1 7
b1 B
b1 K
b0 8
b0 <
b0 V
b11111111111111111111111111110100 %
b11111111111111111111111111110100 H
b11111111111111111111111111110100 a
b0 6
b0 ?
b0 L
b0 b
b1100011 O
b1111111 A
1*
b10101 \
b0 [
b0 Z
b1100011 J
b11111111111111111111111111111010 5
b11111111111111111111111111111010 Q
b11111111111111111111111111111010 T
b11111111111111111111111111111010 `
b0 3
b0 >
b0 _
b11111110000000000000101011100011 1
b11111110000000000000101011100011 P
b11111110000000000000101011100011 S
b10100 X
b10100 ,
b10100 G
b100100 &
b100100 E
b100000 4
b100000 F
b100000 I
b100000 R
b100000 Y
1!
#240000
0!
#245000
b1 .
b1 ]
b1 d
0$
b1 6
b1 ?
b1 L
b1 b
b111 8
b111 <
b111 V
0#
b111 :
b111 =
b111 C
0;
b101 3
b101 >
b101 _
19
1/
b10 7
b10 B
b10 K
0-
b1110 %
b1110 H
b1110 a
b10011 O
b10 @
b0 A
b10 +
0*
b110 \
b111 [
b101 Z
b10011 J
b111 5
b111 Q
b111 T
b111 `
b11100101010001100010011 1
b11100101010001100010011 P
b11100101010001100010011 S
b11000 X
b100010 ,
b100010 G
b11000 &
b11000 E
b10100 4
b10100 F
b10100 I
b10100 R
b10100 Y
1!
#250000
0!
#255000
b110 :
b110 =
b110 C
b1 3
b1 >
b1 _
1-
0/
09
b1 7
b1 B
b1 K
b0 8
b0 <
b0 V
b1100 %
b1100 H
b1100 a
b1100011 O
b0 @
b0 +
1*
b1100 \
b0 [
b110 Z
b1100011 J
b110 5
b110 Q
b110 T
b110 `
b110000011001100011 1
b110000011001100011 P
b110000011001100011 S
b11100 X
b100100 ,
b100100 G
b11100 &
b11100 E
b11000 4
b11000 F
b11000 I
b11000 R
b11000 Y
1!
#260000
0!
#265000
b110 .
b110 ]
b110 d
b110 6
b110 ?
b110 L
b110 b
b1 8
b1 <
b1 V
b10 :
b10 =
b10 C
b101 3
b101 >
b101 _
19
1/
b10 7
b10 B
b10 K
0-
b10 %
b10 H
b10 a
b10011 O
0*
b101 \
b1 [
b101 Z
b10011 J
b1 5
b1 Q
b1 T
b1 `
b100101000001010010011 1
b100101000001010010011 P
b100101000001010010011 S
b100000 X
b11110 ,
b11110 G
b100000 &
b100000 E
b11100 4
b11100 F
b11100 I
b11100 R
b11100 Y
1!
#270000
0!
#275000
1#
1;
1$
b0 .
b0 ]
b0 d
b110 :
b110 =
b110 C
1-
0/
09
b1 7
b1 B
b1 K
b0 8
b0 <
b0 V
b11111111111111111111111111110100 %
b11111111111111111111111111110100 H
b11111111111111111111111111110100 a
b0 6
b0 ?
b0 L
b0 b
b1100011 O
b1111111 A
1*
b10101 \
b0 [
b0 Z
b1100011 J
b11111111111111111111111111111010 5
b11111111111111111111111111111010 Q
b11111111111111111111111111111010 T
b11111111111111111111111111111010 `
b0 3
b0 >
b0 _
b11111110000000000000101011100011 1
b11111110000000000000101011100011 P
b11111110000000000000101011100011 S
b10100 X
b10100 ,
b10100 G
b100100 &
b100100 E
b100000 4
b100000 F
b100000 I
b100000 R
b100000 Y
1!
#280000
0!
#285000
b1 .
b1 ]
b1 d
0$
b1 6
b1 ?
b1 L
b1 b
b111 8
b111 <
b111 V
0#
b111 :
b111 =
b111 C
0;
b110 3
b110 >
b110 _
19
1/
b10 7
b10 B
b10 K
0-
b1110 %
b1110 H
b1110 a
b10011 O
b10 @
b0 A
b10 +
0*
b110 \
b111 [
b101 Z
b10011 J
b111 5
b111 Q
b111 T
b111 `
b11100101010001100010011 1
b11100101010001100010011 P
b11100101010001100010011 S
b11000 X
b100010 ,
b100010 G
b11000 &
b11000 E
b10100 4
b10100 F
b10100 I
b10100 R
b10100 Y
1!
#290000
0!
#295000
b110 :
b110 =
b110 C
b1 3
b1 >
b1 _
1-
0/
09
b1 7
b1 B
b1 K
b0 8
b0 <
b0 V
b1100 %
b1100 H
b1100 a
b1100011 O
b0 @
b0 +
1*
b1100 \
b0 [
b110 Z
b1100011 J
b110 5
b110 Q
b110 T
b110 `
b110000011001100011 1
b110000011001100011 P
b110000011001100011 S
b11100 X
b100100 ,
b100100 G
b11100 &
b11100 E
b11000 4
b11000 F
b11000 I
b11000 R
b11000 Y
1!
#300000
0!
#305000
b111 .
b111 ]
b111 d
b111 6
b111 ?
b111 L
b111 b
b1 8
b1 <
b1 V
b10 :
b10 =
b10 C
b110 3
b110 >
b110 _
19
1/
b10 7
b10 B
b10 K
0-
b10 %
b10 H
b10 a
b10011 O
0*
b101 \
b1 [
b101 Z
b10011 J
b1 5
b1 Q
b1 T
b1 `
b100101000001010010011 1
b100101000001010010011 P
b100101000001010010011 S
b100000 X
b11110 ,
b11110 G
b100000 &
b100000 E
b11100 4
b11100 F
b11100 I
b11100 R
b11100 Y
1!
#310000
0!
#315000
1#
1;
1$
b0 .
b0 ]
b0 d
b110 :
b110 =
b110 C
1-
0/
09
b1 7
b1 B
b1 K
b0 8
b0 <
b0 V
b11111111111111111111111111110100 %
b11111111111111111111111111110100 H
b11111111111111111111111111110100 a
b0 6
b0 ?
b0 L
b0 b
b1100011 O
b1111111 A
1*
b10101 \
b0 [
b0 Z
b1100011 J
b11111111111111111111111111111010 5
b11111111111111111111111111111010 Q
b11111111111111111111111111111010 T
b11111111111111111111111111111010 `
b0 3
b0 >
b0 _
b11111110000000000000101011100011 1
b11111110000000000000101011100011 P
b11111110000000000000101011100011 S
b10100 X
b10100 ,
b10100 G
b100100 &
b100100 E
b100000 4
b100000 F
b100000 I
b100000 R
b100000 Y
1!
#320000
0!
#325000
b111 8
b111 <
b111 V
0#
b111 :
b111 =
b111 C
0;
b111 3
b111 >
b111 _
19
1/
b10 7
b10 B
b10 K
0-
b1110 %
b1110 H
b1110 a
b10011 O
b10 @
b0 A
b10 +
0*
b110 \
b111 [
b101 Z
b10011 J
b111 5
b111 Q
b111 T
b111 `
b11100101010001100010011 1
b11100101010001100010011 P
b11100101010001100010011 S
b11000 X
b100010 ,
b100010 G
b11000 &
b11000 E
b10100 4
b10100 F
b10100 I
b10100 R
b10100 Y
1!
#330000
0!
#335000
1#
b110 :
b110 =
b110 C
1;
b0 3
b0 >
b0 _
1-
0/
09
b1 7
b1 B
b1 K
b0 8
b0 <
b0 V
b1100 %
b1100 H
b1100 a
b1100011 O
b0 @
b0 +
1*
b1100 \
b0 [
b110 Z
b1100011 J
b110 5
b110 Q
b110 T
b110 `
b110000011001100011 1
b110000011001100011 P
b110000011001100011 S
b100100 X
b100100 ,
b100100 G
b11100 &
b11100 E
b11000 4
b11000 F
b11000 I
b11000 R
b11000 Y
1!
#340000
0!
#345000
b1010 8
b1010 <
b1010 V
0#
b0 :
b0 =
b0 C
0;
19
1/
b10 7
b10 B
b10 K
0-
b10100 %
b10100 H
b10100 a
b10011 O
b110 @
b110 +
0*
b110 \
b1010 [
b10011 J
b1010 5
b1010 Q
b1010 T
b1010 `
b101000110110001100010011 1
b101000110110001100010011 P
b101000110110001100010011 S
b101000 X
b111000 ,
b111000 G
b101000 &
b101000 E
b100100 4
b100100 F
b100100 I
b100100 R
b100100 Y
1!
#350000
0!
#355000
0$
b1111100 6
b1111100 ?
b1111100 L
b1111100 b
b10 :
b10 =
b10 C
b1111100 3
b1111100 >
b1111100 _
1(
1)
1/
19
b0 7
b0 B
b0 K
b0 8
b0 <
b0 V
b0 %
b0 H
b0 a
b11 O
b10 @
b10 +
b1000 \
b0 [
b10 Z
b11 J
b0 5
b0 Q
b0 T
b0 `
b10010010000000011 1
b10010010000000011 P
b10010010000000011 S
b101100 X
b101000 ,
b101000 G
b101100 &
b101100 E
b101000 4
b101000 F
b101000 I
b101000 R
b101000 Y
1!
#360000
0!
#365000
b10000000 .
b10000000 ]
b10000000 d
b10000000 6
b10000000 ?
b10000000 L
b10000000 b
b10 7
b10 B
b10 K
1/
19
0(
0)
b100 8
b100 <
b100 V
b1000 %
b1000 H
b1000 a
b10011 O
b0 @
b0 +
b10 \
b100 [
b10011 J
b100 5
b100 Q
b100 T
b100 `
b10000010000000100010011 1
b10000010000000100010011 P
b10000010000000100010011 S
b110000 X
b110100 ,
b110100 G
b110000 &
b110000 E
b101100 4
b101100 F
b101100 I
b101100 R
b101100 Y
1!
#370000
0!
#375000
1$
b0 .
b0 ]
b0 d
0/
09
b0 7
b0 B
b0 K
b0 8
b0 <
b0 V
b0 %
b0 H
b0 a
b0 6
b0 ?
b0 L
b0 b
b0 O
b0 \
b0 [
b0 Z
b0 J
b0 5
b0 Q
b0 T
b0 `
b0 3
b0 >
b0 _
b0 1
b0 P
b0 S
b110100 X
b110000 ,
b110000 G
b110100 &
b110100 E
b110000 4
b110000 F
b110000 I
b110000 R
b110000 Y
1!
#380000
0!
#385000
bx .
bx ]
bx d
bx 8
bx <
bx V
x$
bx 6
bx ?
bx L
bx b
bx 2
bx M
bx U
bx ^
bx 3
bx >
bx _
bx O
bx @
bx A
bx +
x*
bx \
bx [
bx Z
bx J
bx 1
bx P
bx S
b111000 X
b110100 ,
b110100 G
b111000 &
b111000 E
b110100 4
b110100 F
b110100 I
b110100 R
b110100 Y
1!
#390000
0!
#395000
b111100 X
b111000 ,
b111000 G
b111100 &
b111100 E
b111000 4
b111000 F
b111000 I
b111000 R
b111000 Y
1!
#400000
0!
#405000
b1000000 X
b111100 ,
b111100 G
b1000000 &
b1000000 E
b111100 4
b111100 F
b111100 I
b111100 R
b111100 Y
1!
#410000
0!
#415000
b1000100 X
b1000000 ,
b1000000 G
b1000100 &
b1000100 E
b1000000 4
b1000000 F
b1000000 I
b1000000 R
b1000000 Y
1!
#420000
0!
#425000
b1001000 X
b1000100 ,
b1000100 G
b1001000 &
b1001000 E
b1000100 4
b1000100 F
b1000100 I
b1000100 R
b1000100 Y
1!
#430000
0!
#435000
b1001100 X
b1001000 ,
b1001000 G
b1001100 &
b1001100 E
b1001000 4
b1001000 F
b1001000 I
b1001000 R
b1001000 Y
1!
#440000
0!
#445000
b1010000 X
b1001100 ,
b1001100 G
b1010000 &
b1010000 E
b1001100 4
b1001100 F
b1001100 I
b1001100 R
b1001100 Y
1!
#450000
0!
#455000
b1010100 X
b1010000 ,
b1010000 G
b1010100 &
b1010100 E
b1010000 4
b1010000 F
b1010000 I
b1010000 R
b1010000 Y
1!
#460000
0!
#465000
b1011000 X
b1010100 ,
b1010100 G
b1011000 &
b1011000 E
b1010100 4
b1010100 F
b1010100 I
b1010100 R
b1010100 Y
1!
#470000
0!
#475000
b1011100 X
b1011000 ,
b1011000 G
b1011100 &
b1011100 E
b1011000 4
b1011000 F
b1011000 I
b1011000 R
b1011000 Y
1!
#480000
0!
#485000
b1100000 X
b1011100 ,
b1011100 G
b1100000 &
b1100000 E
b1011100 4
b1011100 F
b1011100 I
b1011100 R
b1011100 Y
1!
#490000
0!
#495000
b1100100 X
b1100000 ,
b1100000 G
b1100100 &
b1100100 E
b1100000 4
b1100000 F
b1100000 I
b1100000 R
b1100000 Y
1!
