RISC-V_singlecycle/riscv_sc_tb.vcd
$date
	Tue Mar 25 22:09:43 2025
$end
$version
	Icarus Verilog
$end
$timescale
	1ps
$end
$scope module tb_riscv_sc $end
$var reg 1 ! clk $end
$var reg 1 " start $end
$scope module riscv_DUT $end
$var wire 1 # PC_Src $end
$var wire 1 ! clk $end
$var wire 1 " start $end
$var wire 1 $ zero $end
$var wire 32 % shifted_imm [31:0] $end
$var wire 32 & pcPlus4 [31:0] $end
$var wire 1 ' memwrite $end
$var wire 1 ( memToReg $end
$var wire 1 ) memRead $end
$var wire 1 * is_branch $end
$var wire 3 + funct3 [2:0] $end
$var wire 32 , branchTarget [31:0] $end
$var wire 1 - branch $end
$var wire 32 . WB_data [31:0] $end
$var wire 1 / Regwrite $end
$var wire 32 0 Read_data [31:0] $end
$var wire 32 1 RD_Inst [31:0] $end
$var wire 32 2 RD2_Top [31:0] $end
$var wire 32 3 RD1_Top [31:0] $end
$var wire 32 4 PC_Top [31:0] $end
$var wire 32 5 IMM_top [31:0] $end
$var wire 32 6 ALU_result [31:0] $end
$var wire 2 7 ALU_OP_top [1:0] $end
$var wire 32 8 ALU_B_input [31:0] $end
$var wire 1 9 ALUSrc $end
$var wire 4 : ALUControl_Top [3:0] $end
$var reg 1 ; branch_taken $end
$scope module m_ALU $end
$var wire 1 $ Zero $end
$var wire 32 < B [31:0] $end
$var wire 4 = ALUControl [3:0] $end
$var wire 32 > A [31:0] $end
$var reg 32 ? Result [31:0] $end
$var integer 32 @ i [31:0] $end
$upscope $end
$scope module m_ALUCtrl $end
$var wire 3 A funct3 [2:0] $end
$var wire 7 B funct7 [6:0] $end
$var wire 2 C ALUOp [1:0] $end
$var reg 4 D ALUControl [3:0] $end
$upscope $end
$scope module m_Adder_1 $end
$var wire 32 E b [31:0] $end
$var wire 32 F sum [31:0] $end
$var wire 32 G a [31:0] $end
$upscope $end
$scope module m_Adder_2 $end
$var wire 32 H sum [31:0] $end
$var wire 32 I b [31:0] $end
$var wire 32 J a [31:0] $end
$upscope $end
$scope module m_Control $end
$var wire 7 K opcode [6:0] $end
$var reg 2 L ALUOp [1:0] $end
$var reg 1 9 ALUSrc $end
$var reg 1 - branch $end
$var reg 1 ) memRead $end
$var reg 1 ' memWrite $end
$var reg 1 ( memtoReg $end
$var reg 1 / regWrite $end
$upscope $end
$scope module m_DataMemory $end
$var wire 32 M address [31:0] $end
$var wire 1 ! clk $end
$var wire 1 ) memRead $end
$var wire 1 ' memWrite $end
$var wire 1 " rst $end
$var wire 32 N writeData [31:0] $end
$var reg 32 O readData [31:0] $end
$upscope $end
$scope module m_ImmGen $end
$var wire 7 P opcode [6:0] $end
$var wire 32 Q In [31:0] $end
$var reg 32 R Imm_Ext [31:0] $end
$upscope $end
$scope module m_InstMem $end
$var wire 32 S readAddr [31:0] $end
$var wire 32 T inst [31:0] $end
$upscope $end
$scope module m_Mux_ALU $end
$var wire 32 U s1 [31:0] $end
$var wire 1 9 sel $end
$var wire 32 V s0 [31:0] $end
$var wire 32 W out [31:0] $end
$var parameter 32 X size $end
$upscope $end
$scope module m_PC $end
$var wire 1 ! clk $end
$var wire 32 Y pc_i [31:0] $end
$var wire 1 " rst $end
$var reg 32 Z pc_o [31:0] $end
$upscope $end
$scope module m_Register $end
$var wire 1 ! clk $end
$var wire 5 [ readReg1 [4:0] $end
$var wire 5 \ readReg2 [4:0] $end
$var wire 1 / regWrite $end
$var wire 1 " rst $end
$var wire 5 ] writeReg [4:0] $end
$var wire 32 ^ writeData [31:0] $end
$var wire 32 _ readData2 [31:0] $end
$var wire 32 ` readData1 [31:0] $end
$upscope $end
$scope module m_ShiftLeftOne $end
$var wire 32 a i [31:0] $end
$var wire 32 b o [31:0] $end
$upscope $end
$scope module m_WB_Mux $end
$var wire 32 c s0 [31:0] $end
$var wire 32 d s1 [31:0] $end
$var wire 1 ( sel $end
$var wire 32 e out [31:0] $end
$var parameter 32 f size $end
$upscope $end
$upscope $end
$upscope $end
$enddefinitions $end
$comment Show the parameter values. $end
$dumpall
b100000 f
b100000 X
$end
#0
$dumpvars
bx e
bx d
bx c
bx0 b
bx a
bx `
bx _
bx ^
bx ]
bx \
bx [
bx Z
bx Y
bx W
bx V
bx U
bx T
bx S
bx R
bx Q
bx P
bx O
bx N
bx M
bx L
bx K
bx J
bx0 I
bx H
bx G
bx F
b100 E
bx D
bx C
bx B
bx A
bx @
bx ?
bx >
bx =
bx <
x;
bx :
x9
bx 8
bx 7
bx 6
bx 5
bx 4
bx 3
bx 2
bx 1
bx 0
x/
bx .
x-
bx ,
bx +
x*
x)
x(
x'
bx &
bx0 %
x$
x#
0"
0!
$end
#5000
b10100011 .
b10100011 ^
b10100011 e
0$
b10100011 6
b10100011 ?
b10100011 M
b10100011 c
b10100011 8
b10100011 <
b10100011 W
0#
b100 Y
b10 :
b10 =
b10 D
0;
b0 2
b0 N
b0 V
b0 _
b0 3
b0 >
b0 `
1/
19
0'
b10 7
b10 C
b10 L
0(
0)
0-
b101000110 ,
b101000110 H
b101000110 %
b101000110 I
b101000110 b
b10011 P
b0 A
b101 B
b0 +
0*
b1000 ]
b11 \
b0 [
b10011 K
b10100011 5
b10100011 R
b10100011 U
b10100011 a
b0 0
b0 O
b0 d
b1010001100000000010000010011 1
b1010001100000000010000010011 Q
b1010001100000000010000010011 T
b100 &
b100 F
b0 4
b0 G
b0 J
b0 S
b0 Z
1!
#10000
b1111100 .
b1111100 ^
b1111100 e
b1111100 6
b1111100 ?
b1111100 M
b1111100 c
b10000000 3
b10000000 >
b10000000 `
b11111111111111111111111111111100 8
b11111111111111111111111111111100 <
b11111111111111111111111111111100 W
b11111111111111111111111111111000 %
b11111111111111111111111111111000 I
b11111111111111111111111111111000 b
b1111111 B
b10 ]
b11100 \
b10 [
b11111111111111111111111111111100 5
b11111111111111111111111111111100 R
b11111111111111111111111111111100 U
b11111111111111111111111111111100 a
b11111111110000010000000100010011 1
b11111111110000010000000100010011 Q
b11111111110000010000000100010011 T
b1000 Y
b11111111111111111111111111111100 ,
b11111111111111111111111111111100 H
b1000 &
b1000 F
b100 4
b100 G
b100 J
b100 S
b100 Z
0!
1"
#15000
b1111100 .
b1111100 ^
b1111100 e
1'
0/
19
b0 7
b0 C
b0 L
b0 8
b0 <
b0 W
b0 %
b0 I
b0 b
b1111100 6
b1111100 ?
b1111100 M
b1111100 c
b100011 P
b10 A
b0 B
b10 +
b0 ]
b1000 \
b100011 K
b0 5
b0 R
b0 U
b0 a
b1111100 3
b1111100 >
b1111100 `
b100000010010000000100011 1
b100000010010000000100011 Q
b100000010010000000100011 T
b1100 Y
b1000 ,
b1000 H
b1100 &
b1100 F
b1000 4
b1000 G
b1000 J
b1000 S
b1000 Z
1!
#20000
0!
#25000
1$
b0 .
b0 ^
b0 e
b0 6
b0 ?
b0 M
b0 c
b0 3
b0 >
b0 `
b10 7
b10 C
b10 L
1/
09
0'
b0 8
b0 <
b0 W
b0 %
b0 I
b0 b
b110011 P
b0 A
b0 +
b1000 ]
b0 \
b0 [
b110011 K
b0 5
b0 R
b0 U
b0 a
b10000110011 1
b10000110011 Q
b10000110011 T
b10000 Y
b1100 ,
b1100 H
b10000 &
b10000 F
b1100 4
b1100 G
b1100 J
b1100 S
b1100 Z
1!
#30000
0!
#35000
19
1/
b10 7
b10 C
b10 L
b10011 P
b101 ]
b10011 K
b1010010011 1
b1010010011 Q
b1010010011 T
b10100 Y
b10000 ,
b10000 H
b10100 &
b10100 F
b10000 4
b10000 G
b10000 J
b10000 S
b10000 Z
1!
#40000
0!
#45000
b1 .
b1 ^
b1 e
0$
b1 6
b1 ?
b1 M
b1 c
b111 :
b111 =
b111 D
b111 8
b111 <
b111 W
b1110 %
b1110 I
b1110 b
b10 A
b10 +
b110 ]
b111 \
b101 [
b111 5
b111 R
b111 U
b111 a
b11100101010001100010011 1
b11100101010001100010011 Q
b11100101010001100010011 T
b11000 Y
b100010 ,
b100010 H
b11000 &
b11000 F
b10100 4
b10100 G
b10100 J
b10100 S
b10100 Z
1!
#50000
0!
#55000
b110 :
b110 =
b110 D
b1 3
b1 >
b1 `
1-
0/
09
b1 7
b1 C
b1 L
b0 8
b0 <
b0 W
b1100 %
b1100 I
b1100 b
b1100011 P
b0 A
b0 +
1*
b1100 ]
b0 \
b110 [
b1100011 K
b110 5
b110 R
b110 U
b110 a
b110000011001100011 1
b110000011001100011 Q
b110000011001100011 T
b11100 Y
b100100 ,
b100100 H
b11100 &
b11100 F
b11000 4
b11000 G
b11000 J
b11000 S
b11000 Z
1!
#60000
0!
#65000
b1 8
b1 <
b1 W
b10 :
b10 =
b10 D
b0 3
b0 >
b0 `
19
1/
b10 7
b10 C
b10 L
0-
b10 %
b10 I
b10 b
b10011 P
0*
b101 ]
b1 \
b101 [
b10011 K
b1 5
b1 R
b1 U
b1 a
b100101000001010010011 1
b100101000001010010011 Q
b100101000001010010011 T
b100000 Y
b11110 ,
b11110 H
b100000 &
b100000 F
b11100 4
b11100 G
b11100 J
b11100 S
b11100 Z
1!
#70000
0!
#75000
1#
1;
1$
b0 .
b0 ^
b0 e
b110 :
b110 =
b110 D
1-
0/
09
b1 7
b1 C
b1 L
b0 8
b0 <
b0 W
b11111111111111111111111111110100 %
b11111111111111111111111111110100 I
b11111111111111111111111111110100 b
b0 6
b0 ?
b0 M
b0 c
b1100011 P
b1111111 B
1*
b10101 ]
b0 \
b0 [
b1100011 K
b11111111111111111111111111111010 5
b11111111111111111111111111111010 R
b11111111111111111111111111111010 U
b11111111111111111111111111111010 a
b0 3
b0 >
b0 `
b11111110000000000000101011100011 1
b11111110000000000000101011100011 Q
b11111110000000000000101011100011 T
b10100 Y
b10100 ,
b10100 H
b100100 &
b100100 F
b100000 4
b100000 G
b100000 J
b100000 S
b100000 Z
1!
#80000
0!
#85000
b1 .
b1 ^
b1 e
0$
b1 6
b1 ?
b1 M
b1 c
b111 8
b111 <
b111 W
0#
b111 :
b111 =
b111 D
0;
b1 3
b1 >
b1 `
19
1/
b10 7
b10 C
b10 L
0-
b1110 %
b1110 I
b1110 b
b10011 P
b10 A
b0 B
b10 +
0*
b110 ]
b111 \
b101 [
b10011 K
b111 5
b111 R
b111 U
b111 a
b11100101010001100010011 1
b11100101010001100010011 Q
b11100101010001100010011 T
b11000 Y
b100010 ,
b100010 H
b11000 &
b11000 F
b10100 4
b10100 G
b10100 J
b10100 S
b10100 Z
1!
#90000
0!
#95000
b110 :
b110 =
b110 D
1-
0/
09
b1 7
b1 C
b1 L
b0 8
b0 <
b0 W
b1100 %
b1100 I
b1100 b
b1100011 P
b0 A
b0 +
1*
b1100 ]
b0 \
b110 [
b1100011 K
b110 5
b110 R
b110 U
b110 a
b110000011001100011 1
b110000011001100011 Q
b110000011001100011 T
b11100 Y
b100100 ,
b100100 H
b11100 &
b11100 F
b11000 4
b11000 G
b11000 J
b11000 S
b11000 Z
1!
#100000
0!
#105000
b10 .
b10 ^
b10 e
b10 6
b10 ?
b10 M
b10 c
b1 8
b1 <
b1 W
b10 :
b10 =
b10 D
19
1/
b10 7
b10 C
b10 L
0-
b10 %
b10 I
b10 b
b10011 P
0*
b101 ]
b1 \
b101 [
b10011 K
b1 5
b1 R
b1 U
b1 a
b100101000001010010011 1
b100101000001010010011 Q
b100101000001010010011 T
b100000 Y
b11110 ,
b11110 H
b100000 &
b100000 F
b11100 4
b11100 G
b11100 J
b11100 S
b11100 Z
1!
#110000
0!
#115000
1#
1;
1$
b0 .
b0 ^
b0 e
b110 :
b110 =
b110 D
1-
0/
09
b1 7
b1 C
b1 L
b0 8
b0 <
b0 W
b11111111111111111111111111110100 %
b11111111111111111111111111110100 I
b11111111111111111111111111110100 b
b0 6
b0 ?
b0 M
b0 c
b1100011 P
b1111111 B
1*
b10101 ]
b0 \
b0 [
b1100011 K
b11111111111111111111111111111010 5
b11111111111111111111111111111010 R
b11111111111111111111111111111010 U
b11111111111111111111111111111010 a
b0 3
b0 >
b0 `
b11111110000000000000101011100011 1
b11111110000000000000101011100011 Q
b11111110000000000000101011100011 T
b10100 Y
b10100 ,
b10100 H
b100100 &
b100100 F
b100000 4
b100000 G
b100000 J
b100000 S
b100000 Z
1!
#120000
0!
#125000
b1 .
b1 ^
b1 e
0$
b1 6
b1 ?
b1 M
b1 c
b111 8
b111 <
b111 W
0#
b111 :
b111 =
b111 D
0;
b10 3
b10 >
b10 `
19
1/
b10 7
b10 C
b10 L
0-
b1110 %
b1110 I
b1110 b
b10011 P
b10 A
b0 B
b10 +
0*
b110 ]
b111 \
b101 [
b10011 K
b111 5
b111 R
b111 U
b111 a
b11100101010001100010011 1
b11100101010001100010011 Q
b11100101010001100010011 T
b11000 Y
b100010 ,
b100010 H
b11000 &
b11000 F
b10100 4
b10100 G
b10100 J
b10100 S
b10100 Z
1!
#130000
0!
#135000
b110 :
b110 =
b110 D
b1 3
b1 >
b1 `
1-
0/
09
b1 7
b1 C
b1 L
b0 8
b0 <
b0 W
b1100 %
b1100 I
b1100 b
b1100011 P
b0 A
b0 +
1*
b1100 ]
b0 \
b110 [
b1100011 K
b110 5
b110 R
b110 U
b110 a
b110000011001100011 1
b110000011001100011 Q
b110000011001100011 T
b11100 Y
b100100 ,
b100100 H
b11100 &
b11100 F
b11000 4
b11000 G
b11000 J
b11000 S
b11000 Z
1!
#140000
0!
#145000
b11 .
b11 ^
b11 e
b11 6
b11 ?
b11 M
b11 c
b1 8
b1 <
b1 W
b10 :
b10 =
b10 D
b10 3
b10 >
b10 `
19
1/
b10 7
b10 C
b10 L
0-
b10 %
b10 I
b10 b
b10011 P
0*
b101 ]
b1 \
b101 [
b10011 K
b1 5
b1 R
b1 U
b1 a
b100101000001010010011 1
b100101000001010010011 Q
b100101000001010010011 T
b100000 Y
b11110 ,
b11110 H
b100000 &
b100000 F
b11100 4
b11100 G
b11100 J
b11100 S
b11100 Z
1!
#150000
0!
#155000
1#
1;
1$
b0 .
b0 ^
b0 e
b110 :
b110 =
b110 D
1-
0/
09
b1 7
b1 C
b1 L
b0 8
b0 <
b0 W
b11111111111111111111111111110100 %
b11111111111111111111111111110100 I
b11111111111111111111111111110100 b
b0 6
b0 ?
b0 M
b0 c
b1100011 P
b1111111 B
1*
b10101 ]
b0 \
b0 [
b1100011 K
b11111111111111111111111111111010 5
b11111111111111111111111111111010 R
b11111111111111111111111111111010 U
b11111111111111111111111111111010 a
b0 3
b0 >
b0 `
b11111110000000000000101011100011 1
b11111110000000000000101011100011 Q
b11111110000000000000101011100011 T
b10100 Y
b10100 ,
b10100 H
b100100 &
b100100 F
b100000 4
b100000 G
b100000 J
b100000 S
b100000 Z
1!
#160000
0!
#165000
b1 .
b1 ^
b1 e
0$
b1 6
b1 ?
b1 M
b1 c
b111 8
b111 <
b111 W
0#
b111 :
b111 =
b111 D
0;
b11 3
b11 >
b11 `
19
1/
b10 7
b10 C
b10 L
0-
b1110 %
b1110 I
b1110 b
b10011 P
b10 A
b0 B
b10 +
0*
b110 ]
b111 \
b101 [
b10011 K
b111 5
b111 R
b111 U
b111 a
b11100101010001100010011 1
b11100101010001100010011 Q
b11100101010001100010011 T
b11000 Y
b100010 ,
b100010 H
b11000 &
b11000 F
b10100 4
b10100 G
b10100 J
b10100 S
b10100 Z
1!
#170000
0!
#175000
b110 :
b110 =
b110 D
b1 3
b1 >
b1 `
1-
0/
09
b1 7
b1 C
b1 L
b0 8
b0 <
b0 W
b1100 %
b1100 I
b1100 b
b1100011 P
b0 A
b0 +
1*
b1100 ]
b0 \
b110 [
b1100011 K
b110 5
b110 R
b110 U
b110 a
b110000011001100011 1
b110000011001100011 Q
b110000011001100011 T
b11100 Y
b100100 ,
b100100 H
b11100 &
b11100 F
b11000 4
b11000 G
b11000 J
b11000 S
b11000 Z
1!
#180000
0!
#185000
b100 .
b100 ^
b100 e
b100 6
b100 ?
b100 M
b100 c
b1 8
b1 <
b1 W
b10 :
b10 =
b10 D
b11 3
b11 >
b11 `
19
1/
b10 7
b10 C
b10 L
0-
b10 %
b10 I
b10 b
b10011 P
0*
b101 ]
b1 \
b101 [
b10011 K
b1 5
b1 R
b1 U
b1 a
b100101000001010010011 1
b100101000001010010011 Q
b100101000001010010011 T
b100000 Y
b11110 ,
b11110 H
b100000 &
b100000 F
b11100 4
b11100 G
b11100 J
b11100 S
b11100 Z
1!
#190000
0!
#195000
1#
1;
1$
b0 .
b0 ^
b0 e
b110 :
b110 =
b110 D
1-
0/
09
b1 7
b1 C
b1 L
b0 8
b0 <
b0 W
b11111111111111111111111111110100 %
b11111111111111111111111111110100 I
b11111111111111111111111111110100 b
b0 6
b0 ?
b0 M
b0 c
b1100011 P
b1111111 B
1*
b10101 ]
b0 \
b0 [
b1100011 K
b11111111111111111111111111111010 5
b11111111111111111111111111111010 R
b11111111111111111111111111111010 U
b11111111111111111111111111111010 a
b0 3
b0 >
b0 `
b11111110000000000000101011100011 1
b11111110000000000000101011100011 Q
b11111110000000000000101011100011 T
b10100 Y
b10100 ,
b10100 H
b100100 &
b100100 F
b100000 4
b100000 G
b100000 J
b100000 S
b100000 Z
1!
#200000
0!
#205000
b1 .
b1 ^
b1 e
0$
b1 6
b1 ?
b1 M
b1 c
b111 8
b111 <
b111 W
0#
b111 :
b111 =
b111 D
0;
b100 3
b100 >
b100 `
19
1/
b10 7
b10 C
b10 L
0-
b1110 %
b1110 I
b1110 b
b10011 P
b10 A
b0 B
b10 +
0*
b110 ]
b111 \
b101 [
b10011 K
b111 5
b111 R
b111 U
b111 a
b11100101010001100010011 1
b11100101010001100010011 Q
b11100101010001100010011 T
b11000 Y
b100010 ,
b100010 H
b11000 &
b11000 F
b10100 4
b10100 G
b10100 J
b10100 S
b10100 Z
1!
#210000
0!
#215000
b110 :
b110 =
b110 D
b1 3
b1 >
b1 `
1-
0/
09
b1 7
b1 C
b1 L
b0 8
b0 <
b0 W
b1100 %
b1100 I
b1100 b
b1100011 P
b0 A
b0 +
1*
b1100 ]
b0 \
b110 [
b1100011 K
b110 5
b110 R
b110 U
b110 a
b110000011001100011 1
b110000011001100011 Q
b110000011001100011 T
b11100 Y
b100100 ,
b100100 H
b11100 &
b11100 F
b11000 4
b11000 G
b11000 J
b11000 S
b11000 Z
1!
#220000
0!
#225000
b101 .
b101 ^
b101 e
b101 6
b101 ?
b101 M
b101 c
b1 8
b1 <
b1 W
b10 :
b10 =
b10 D
b100 3
b100 >
b100 `
19
1/
b10 7
b10 C
b10 L
0-
b10 %
b10 I
b10 b
b10011 P
0*
b101 ]
b1 \
b101 [
b10011 K
b1 5
b1 R
b1 U
b1 a
b100101000001010010011 1
b100101000001010010011 Q
b100101000001010010011 T
b100000 Y
b11110 ,
b11110 H
b100000 &
b100000 F
b11100 4
b11100 G
b11100 J
b11100 S
b11100 Z
1!
#230000
0!
#235000
1#
1;
1$
b0 .
b0 ^
b0 e
b110 :
b110 =
b110 D
1-
0/
09
b1 7
b1 C
b1 L
b0 8
b0 <
b0 W
b11111111111111111111111111110100 %
b11111111111111111111111111110100 I
b11111111111111111111111111110100 b
b0 6
b0 ?
b0 M
b0 c
b1100011 P
b1111111 B
1*
b10101 ]
b0 \
b0 [
b1100011 K
b11111111111111111111111111111010 5
b11111111111111111111111111111010 R
b11111111111111111111111111111010 U
b11111111111111111111111111111010 a
b0 3
b0 >
b0 `
b11111110000000000000101011100011 1
b11111110000000000000101011100011 Q
b11111110000000000000101011100011 T
b10100 Y
b10100 ,
b10100 H
b100100 &
b100100 F
b100000 4
b100000 G
b100000 J
b100000 S
b100000 Z
1!
#240000
0!
#245000
b1 .
b1 ^
b1 e
0$
b1 6
b1 ?
b1 M
b1 c
b111 8
b111 <
b111 W
0#
b111 :
b111 =
b111 D
0;
b101 3
b101 >
b101 `
19
1/
b10 7
b10 C
b10 L
0-
b1110 %
b1110 I
b1110 b
b10011 P
b10 A
b0 B
b10 +
0*
b110 ]
b111 \
b101 [
b10011 K
b111 5
b111 R
b111 U
b111 a
b11100101010001100010011 1
b11100101010001100010011 Q
b11100101010001100010011 T
b11000 Y
b100010 ,
b100010 H
b11000 &
b11000 F
b10100 4
b10100 G
b10100 J
b10100 S
b10100 Z
1!
#250000
0!
#255000
b110 :
b110 =
b110 D
b1 3
b1 >
b1 `
1-
0/
09
b1 7
b1 C
b1 L
b0 8
b0 <
b0 W
b1100 %
b1100 I
b1100 b
b1100011 P
b0 A
b0 +
1*
b1100 ]
b0 \
b110 [
b1100011 K
b110 5
b110 R
b110 U
b110 a
b110000011001100011 1
b110000011001100011 Q
b110000011001100011 T
b11100 Y
b100100 ,
b100100 H
b11100 &
b11100 F
b11000 4
b11000 G
b11000 J
b11000 S
b11000 Z
1!
#260000
0!
#265000
b110 .
b110 ^
b110 e
b110 6
b110 ?
b110 M
b110 c
b1 8
b1 <
b1 W
b10 :
b10 =
b10 D
b101 3
b101 >
b101 `
19
1/
b10 7
b10 C
b10 L
0-
b10 %
b10 I
b10 b
b10011 P
0*
b101 ]
b1 \
b101 [
b10011 K
b1 5
b1 R
b1 U
b1 a
b100101000001010010011 1
b100101000001010010011 Q
b100101000001010010011 T
b100000 Y
b11110 ,
b11110 H
b100000 &
b100000 F
b11100 4
b11100 G
b11100 J
b11100 S
b11100 Z
1!
#270000
0!
#275000
1#
1;
1$
b0 .
b0 ^
b0 e
b110 :
b110 =
b110 D
1-
0/
09
b1 7
b1 C
b1 L
b0 8
b0 <
b0 W
b11111111111111111111111111110100 %
b11111111111111111111111111110100 I
b11111111111111111111111111110100 b
b0 6
b0 ?
b0 M
b0 c
b1100011 P
b1111111 B
1*
b10101 ]
b0 \
b0 [
b1100011 K
b11111111111111111111111111111010 5
b11111111111111111111111111111010 R
b11111111111111111111111111111010 U
b11111111111111111111111111111010 a
b0 3
b0 >
b0 `
b11111110000000000000101011100011 1
b11111110000000000000101011100011 Q
b11111110000000000000101011100011 T
b10100 Y
b10100 ,
b10100 H
b100100 &
b100100 F
b100000 4
b100000 G
b100000 J
b100000 S
b100000 Z
1!
#280000
0!
#285000
b1 .
b1 ^
b1 e
0$
b1 6
b1 ?
b1 M
b1 c
b111 8
b111 <
b111 W
0#
b111 :
b111 =
b111 D
0;
b110 3
b110 >
b110 `
19
1/
b10 7
b10 C
b10 L
0-
b1110 %
b1110 I
b1110 b
b10011 P
b10 A
b0 B
b10 +
0*
b110 ]
b111 \
b101 [
b10011 K
b111 5
b111 R
b111 U
b111 a
b11100101010001100010011 1
b11100101010001100010011 Q
b11100101010001100010011 T
b11000 Y
b100010 ,
b100010 H
b11000 &
b11000 F
b10100 4
b10100 G
b10100 J
b10100 S
b10100 Z
1!
#290000
0!
#295000
b110 :
b110 =
b110 D
b1 3
b1 >
b1 `
1-
0/
09
b1 7
b1 C
b1 L
b0 8
b0 <
b0 W
b1100 %
b1100 I
b1100 b
b1100011 P
b0 A
b0 +
1*
b1100 ]
b0 \
b110 [
b1100011 K
b110 5
b110 R
b110 U
b110 a
b110000011001100011 1
b110000011001100011 Q
b110000011001100011 T
b11100 Y
b100100 ,
b100100 H
b11100 &
b11100 F
b11000 4
b11000 G
b11000 J
b11000 S
b11000 Z
1!
#300000
0!
#305000
b111 .
b111 ^
b111 e
b111 6
b111 ?
b111 M
b111 c
b1 8
b1 <
b1 W
b10 :
b10 =
b10 D
b110 3
b110 >
b110 `
19
1/
b10 7
b10 C
b10 L
0-
b10 %
b10 I
b10 b
b10011 P
0*
b101 ]
b1 \
b101 [
b10011 K
b1 5
b1 R
b1 U
b1 a
b100101000001010010011 1
b100101000001010010011 Q
b100101000001010010011 T
b100000 Y
b11110 ,
b11110 H
b100000 &
b100000 F
b11100 4
b11100 G
b11100 J
b11100 S
b11100 Z
1!
#310000
0!
#315000
1#
1;
1$
b0 .
b0 ^
b0 e
b110 :
b110 =
b110 D
1-
0/
09
b1 7
b1 C
b1 L
b0 8
b0 <
b0 W
b11111111111111111111111111110100 %
b11111111111111111111111111110100 I
b11111111111111111111111111110100 b
b0 6
b0 ?
b0 M
b0 c
b1100011 P
b1111111 B
1*
b10101 ]
b0 \
b0 [
b1100011 K
b11111111111111111111111111111010 5
b11111111111111111111111111111010 R
b11111111111111111111111111111010 U
b11111111111111111111111111111010 a
b0 3
b0 >
b0 `
b11111110000000000000101011100011 1
b11111110000000000000101011100011 Q
b11111110000000000000101011100011 T
b10100 Y
b10100 ,
b10100 H
b100100 &
b100100 F
b100000 4
b100000 G
b100000 J
b100000 S
b100000 Z
1!
#320000
0!
#325000
b111 8
b111 <
b111 W
0#
b111 :
b111 =
b111 D
0;
b111 3
b111 >
b111 `
19
1/
b10 7
b10 C
b10 L
0-
b1110 %
b1110 I
b1110 b
b10011 P
b10 A
b0 B
b10 +
0*
b110 ]
b111 \
b101 [
b10011 K
b111 5
b111 R
b111 U
b111 a
b11100101010001100010011 1
b11100101010001100010011 Q
b11100101010001100010011 T
b11000 Y
b100010 ,
b100010 H
b11000 &
b11000 F
b10100 4
b10100 G
b10100 J
b10100 S
b10100 Z
1!
#330000
0!
#335000
1#
b110 :
b110 =
b110 D
1;
b0 3
b0 >
b0 `
1-
0/
09
b1 7
b1 C
b1 L
b0 8
b0 <
b0 W
b1100 %
b1100 I
b1100 b
b1100011 P
b0 A
b0 +
1*
b1100 ]
b0 \
b110 [
b1100011 K
b110 5
b110 R
b110 U
b110 a
b110000011001100011 1
b110000011001100011 Q
b110000011001100011 T
b100100 Y
b100100 ,
b100100 H
b11100 &
b11100 F
b11000 4
b11000 G
b11000 J
b11000 S
b11000 Z
1!
#340000
0!
#345000
b1010 8
b1010 <
b1010 W
0#
b0 :
b0 =
b0 D
0;
19
1/
b10 7
b10 C
b10 L
0-
b10100 %
b10100 I
b10100 b
b10011 P
b110 A
b110 +
0*
b110 ]
b1010 \
b10011 K
b1010 5
b1010 R
b1010 U
b1010 a
b101000110110001100010011 1
b101000110110001100010011 Q
b101000110110001100010011 T
b101000 Y
b111000 ,
b111000 H
b101000 &
b101000 F
b100100 4
b100100 G
b100100 J
b100100 S
b100100 Z
1!
#350000
0!
#355000
0$
b1111100 6
b1111100 ?
b1111100 M
b1111100 c
b10 :
b10 =
b10 D
b1111100 3
b1111100 >
b1111100 `
1(
1)
1/
19
b0 7
b0 C
b0 L
b0 8
b0 <
b0 W
b0 %
b0 I
b0 b
b11 P
b10 A
b10 +
b1000 ]
b0 \
b10 [
b11 K
b0 5
b0 R
b0 U
b0 a
b10010010000000011 1
b10010010000000011 Q
b10010010000000011 T
b101100 Y
b101000 ,
b101000 H
b101100 &
b101100 F
b101000 4
b101000 G
b101000 J
b101000 S
b101000 Z
1!
#360000
0!
#365000
b10000000 .
b10000000 ^
b10000000 e
b10000000 6
b10000000 ?
b10000000 M
b10000000 c
b10 7
b10 C
b10 L
1/
19
0(
0)
b100 8
b100 <
b100 W
b1000 %
b1000 I
b1000 b
b10011 P
b0 A
b0 +
b10 ]
b100 \
b10011 K
b100 5
b100 R
b100 U
b100 a
b10000010000000100010011 1
b10000010000000100010011 Q
b10000010000000100010011 T
b110000 Y
b110100 ,
b110100 H
b110000 &
b110000 F
b101100 4
b101100 G
b101100 J
b101100 S
b101100 Z
1!
#370000
0!
#375000
1$
b0 .
b0 ^
b0 e
0/
09
b0 7
b0 C
b0 L
b0 8
b0 <
b0 W
b0 %
b0 I
b0 b
b0 6
b0 ?
b0 M
b0 c
b0 P
b0 ]
b0 \
b0 [
b0 K
b0 5
b0 R
b0 U
b0 a
b0 3
b0 >
b0 `
b0 1
b0 Q
b0 T
b110100 Y
b110000 ,
b110000 H
b110100 &
b110100 F
b110000 4
b110000 G
b110000 J
b110000 S
b110000 Z
1!
#380000
0!
#385000
bx .
bx ^
bx e
bx 8
bx <
bx W
x$
bx 6
bx ?
bx M
bx c
bx 2
bx N
bx V
bx _
bx 3
bx >
bx `
bx P
bx A
bx B
bx +
x*
bx ]
bx \
bx [
bx K
bx 1
bx Q
bx T
b111000 Y
b110100 ,
b110100 H
b111000 &
b111000 F
b110100 4
b110100 G
b110100 J
b110100 S
b110100 Z
1!
#390000
0!
#395000
b111100 Y
b111000 ,
b111000 H
b111100 &
b111100 F
b111000 4
b111000 G
b111000 J
b111000 S
b111000 Z
1!
#400000
0!
#405000
b1000000 Y
b111100 ,
b111100 H
b1000000 &
b1000000 F
b111100 4
b111100 G
b111100 J
b111100 S
b111100 Z
1!
#410000
0!
#415000
b1000100 Y
b1000000 ,
b1000000 H
b1000100 &
b1000100 F
b1000000 4
b1000000 G
b1000000 J
b1000000 S
b1000000 Z
1!
#420000
0!
#425000
b1001000 Y
b1000100 ,
b1000100 H
b1001000 &
b1001000 F
b1000100 4
b1000100 G
b1000100 J
b1000100 S
b1000100 Z
1!
#430000
0!
#435000
b1001100 Y
b1001000 ,
b1001000 H
b1001100 &
b1001100 F
b1001000 4
b1001000 G
b1001000 J
b1001000 S
b1001000 Z
1!
#440000
0!
#445000
b1010000 Y
b1001100 ,
b1001100 H
b1010000 &
b1010000 F
b1001100 4
b1001100 G
b1001100 J
b1001100 S
b1001100 Z
1!
#450000
0!
#455000
b1010100 Y
b1010000 ,
b1010000 H
b1010100 &
b1010100 F
b1010000 4
b1010000 G
b1010000 J
b1010000 S
b1010000 Z
1!
#460000
0!
#465000
b1011000 Y
b1010100 ,
b1010100 H
b1011000 &
b1011000 F
b1010100 4
b1010100 G
b1010100 J
b1010100 S
b1010100 Z
1!
#470000
0!
#475000
b1011100 Y
b1011000 ,
b1011000 H
b1011100 &
b1011100 F
b1011000 4
b1011000 G
b1011000 J
b1011000 S
b1011000 Z
1!
#480000
0!
#485000
b1100000 Y
b1011100 ,
b1011100 H
b1100000 &
b1100000 F
b1011100 4
b1011100 G
b1011100 J
b1011100 S
b1011100 Z
1!
#490000
0!
