RISC-V_singlecycle/riscv_sc_tb.vcd
$date
	Mon Mar 24 02:53:39 2025
$end
$version
	Icarus Verilog
$end
$timescale
	1ps
$end
$scope module tb_riscv_sc $end
$var reg 1 ! clk $end
$var reg 1 " start $end
$scope module riscv_DUT $end
$var wire 1 # PC_Src $end
$var wire 1 ! clk $end
$var wire 1 $ is_beq_zero_zero $end
$var wire 1 " start $end
$var wire 1 % zero $end
$var wire 32 & shifted_imm [31:0] $end
$var wire 32 ' pcPlus4 [31:0] $end
$var wire 1 ( memwrite $end
$var wire 1 ) memToReg $end
$var wire 1 * memRead $end
$var wire 1 + is_branch $end
$var wire 3 , funct3 [2:0] $end
$var wire 32 - branchTarget [31:0] $end
$var wire 1 . branch $end
$var wire 32 / WB_data [31:0] $end
$var wire 1 0 Regwrite $end
$var wire 32 1 Read_data [31:0] $end
$var wire 32 2 RD_Inst [31:0] $end
$var wire 32 3 RD2_Top [31:0] $end
$var wire 32 4 RD1_Top [31:0] $end
$var wire 32 5 PC_Top [31:0] $end
$var wire 32 6 IMM_top [31:0] $end
$var wire 32 7 ALU_result [31:0] $end
$var wire 2 8 ALU_OP_top [1:0] $end
$var wire 32 9 ALU_B_input [31:0] $end
$var wire 1 : ALUSrc $end
$var wire 4 ; ALUControl_Top [3:0] $end
$var reg 1 < branch_taken $end
$scope module m_ALU $end
$var wire 32 = B [31:0] $end
$var wire 4 > ALUControl [3:0] $end
$var wire 32 ? A [31:0] $end
$var reg 32 @ Result [31:0] $end
$var reg 1 % Zero $end
$upscope $end
$scope module m_ALUCtrl $end
$var wire 3 A funct3 [2:0] $end
$var wire 7 B funct7 [6:0] $end
$var wire 2 C ALUOp [1:0] $end
$var reg 4 D ALUControl [3:0] $end
$upscope $end
$scope module m_Adder_1 $end
$var wire 32 E b [31:0] $end
$var wire 32 F sum [31:0] $end
$var wire 32 G a [31:0] $end
$upscope $end
$scope module m_Adder_2 $end
$var wire 32 H sum [31:0] $end
$var wire 32 I b [31:0] $end
$var wire 32 J a [31:0] $end
$upscope $end
$scope module m_Control $end
$var wire 7 K opcode [6:0] $end
$var reg 2 L ALUOp [1:0] $end
$var reg 1 : ALUSrc $end
$var reg 1 . branch $end
$var reg 1 * memRead $end
$var reg 1 ( memWrite $end
$var reg 1 ) memtoReg $end
$var reg 1 0 regWrite $end
$upscope $end
$scope module m_DataMemory $end
$var wire 32 M address [31:0] $end
$var wire 1 ! clk $end
$var wire 1 * memRead $end
$var wire 1 ( memWrite $end
$var wire 1 " rst $end
$var wire 32 N writeData [31:0] $end
$var reg 32 O readData [31:0] $end
$upscope $end
$scope module m_ImmGen $end
$var wire 7 P opcode [6:0] $end
$var wire 32 Q inst [31:0] $end
$var parameter 32 R Width $end
$var reg 32 S imm [31:0] $end
$upscope $end
$scope module m_InstMem $end
$var wire 32 T readAddr [31:0] $end
$var wire 32 U inst [31:0] $end
$upscope $end
$scope module m_Mux_ALU $end
$var wire 32 V s1 [31:0] $end
$var wire 1 : sel $end
$var wire 32 W s0 [31:0] $end
$var wire 32 X out [31:0] $end
$var parameter 32 Y size $end
$upscope $end
$scope module m_PC $end
$var wire 1 ! clk $end
$var wire 32 Z pc_i [31:0] $end
$var wire 1 " rst $end
$var reg 32 [ pc_o [31:0] $end
$upscope $end
$scope module m_Register $end
$var wire 1 ! clk $end
$var wire 5 \ readReg1 [4:0] $end
$var wire 5 ] readReg2 [4:0] $end
$var wire 1 0 regWrite $end
$var wire 1 " rst $end
$var wire 5 ^ writeReg [4:0] $end
$var wire 32 _ writeData [31:0] $end
$var wire 32 ` readData2 [31:0] $end
$var wire 32 a readData1 [31:0] $end
$upscope $end
$scope module m_ShiftLeftOne $end
$var wire 32 b i [31:0] $end
$var wire 32 c o [31:0] $end
$upscope $end
$scope module m_WB_Mux $end
$var wire 32 d s0 [31:0] $end
$var wire 32 e s1 [31:0] $end
$var wire 1 ) sel $end
$var wire 32 f out [31:0] $end
$var parameter 32 g size $end
$upscope $end
$upscope $end
$upscope $end
$enddefinitions $end
$comment Show the parameter values. $end
$dumpall
b100000 g
b100000 Y
b100000 R
$end
#0
$dumpvars
b10100011 f
b0 e
b10100011 d
b101000110 c
b10100011 b
b0 a
bx `
b10100011 _
b1000 ^
b11 ]
b0 \
b0 [
b100 Z
b10100011 X
bx W
b10100011 V
b1010001100000000010000010011 U
b0 T
b10100011 S
b1010001100000000010000010011 Q
b10011 P
b0 O
bx N
b10100011 M
b11 L
b10011 K
b0 J
b101000110 I
b101000110 H
b0 G
b100 F
b100 E
b0 D
b11 C
b101 B
b0 A
b10100011 @
b0 ?
b0 >
b10100011 =
0<
b0 ;
1:
b10100011 9
b11 8
b10100011 7
b10100011 6
b0 5
b0 4
bx 3
b1010001100000000010000010011 2
b0 1
10
b10100011 /
0.
b101000110 -
b0 ,
0+
0*
0)
0(
b100 '
b101000110 &
0%
0$
0#
0"
0!
$end
#5000
b0 3
b0 N
b0 W
b0 `
1!
#10000
0!
1"
#15000
b1111100 /
b1111100 _
b1111100 f
b1111100 7
b1111100 @
b1111100 M
b1111100 d
b10000000 4
b10000000 ?
b10000000 a
b11111111111111111111111111111100 9
b11111111111111111111111111111100 =
b11111111111111111111111111111100 X
b11111111111111111111111111111000 &
b11111111111111111111111111111000 I
b11111111111111111111111111111000 c
b1111111 B
b10 ^
b11100 ]
b10 \
b11111111111111111111111111111100 6
b11111111111111111111111111111100 S
b11111111111111111111111111111100 V
b11111111111111111111111111111100 b
b11111111110000010000000100010011 2
b11111111110000010000000100010011 Q
b11111111110000010000000100010011 U
b1000 Z
b11111111111111111111111111111100 -
b11111111111111111111111111111100 H
b1000 '
b1000 F
b100 5
b100 G
b100 J
b100 T
b100 [
1!
#20000
0!
#25000
b1111100 /
b1111100 _
b1111100 f
b10100011 3
b10100011 N
b10100011 W
b10100011 `
1(
00
1:
b0 8
b0 C
b0 L
b0 9
b0 =
b0 X
b0 &
b0 I
b0 c
b1111100 7
b1111100 @
b1111100 M
b1111100 d
b100011 P
b10 A
b0 B
b10 ,
b0 ^
b1000 ]
b100011 K
b0 6
b0 S
b0 V
b0 b
b1111100 4
b1111100 ?
b1111100 a
b100000010010000000100011 2
b100000010010000000100011 Q
b100000010010000000100011 U
b1100 Z
b1000 -
b1000 H
b1100 '
b1100 F
b1000 5
b1000 G
b1000 J
b1000 T
b1000 [
1!
#30000
0!
#35000
1%
b0 /
b0 _
b0 f
b0 7
b0 @
b0 M
b0 d
b0 3
b0 N
b0 W
b0 `
b0 4
b0 ?
b0 a
b10 8
b10 C
b10 L
10
0:
0(
b0 9
b0 =
b0 X
b0 &
b0 I
b0 c
b110011 P
b0 A
b0 ,
b1000 ^
b0 ]
b0 \
b110011 K
b0 6
b0 S
b0 V
b0 b
b10000110011 2
b10000110011 Q
b10000110011 U
b10000 Z
b1100 -
b1100 H
b10000 '
b10000 F
b1100 5
b1100 G
b1100 J
b1100 T
b1100 [
1!
#40000
0!
#45000
1:
10
b11 8
b11 C
b11 L
b10011 P
b101 ^
b10011 K
b1010010011 2
b1010010011 Q
b1010010011 U
b10100 Z
b10000 -
b10000 H
b10100 '
b10100 F
b10000 5
b10000 G
b10000 J
b10000 T
b10000 [
1!
#50000
0!
#55000
b1 /
b1 _
b1 f
0%
b1 7
b1 @
b1 M
b1 d
b1000 ;
b1000 >
b1000 D
b111 9
b111 =
b111 X
b1110 &
b1110 I
b1110 c
b10 A
b10 ,
b110 ^
b111 ]
b101 \
b111 6
b111 S
b111 V
b111 b
b11100101010001100010011 2
b11100101010001100010011 Q
b11100101010001100010011 U
b11000 Z
b100010 -
b100010 H
b11000 '
b11000 F
b10100 5
b10100 G
b10100 J
b10100 T
b10100 [
1!
#60000
0!
#65000
b1 7
b1 @
b1 M
b1 d
b1 ;
b1 >
b1 D
b1 4
b1 ?
b1 a
1.
00
0:
b1 8
b1 C
b1 L
b0 9
b0 =
b0 X
b11000 &
b11000 I
b11000 c
b1100011 P
b0 A
b0 ,
1+
b1100 ^
b0 ]
b110 \
b1100011 K
b1100 6
b1100 S
b1100 V
b1100 b
b110000011001100011 2
b110000011001100011 Q
b110000011001100011 U
b11100 Z
b110000 -
b110000 H
b11100 '
b11100 F
b11000 5
b11000 G
b11000 J
b11000 T
b11000 [
1!
#70000
0!
#75000
b1 7
b1 @
b1 M
b1 d
b1 9
b1 =
b1 X
b0 ;
b0 >
b0 D
b0 4
b0 ?
b0 a
1:
10
b11 8
b11 C
b11 L
0.
b10 &
b10 I
b10 c
b10011 P
0+
b101 ^
b1 ]
b101 \
b10011 K
b1 6
b1 S
b1 V
b1 b
b100101000001010010011 2
b100101000001010010011 Q
b100101000001010010011 U
b100000 Z
b11110 -
b11110 H
b100000 '
b100000 F
b11100 5
b11100 G
b11100 J
b11100 T
b11100 [
1!
#80000
0!
#85000
1#
1%
1<
b0 /
b0 _
b0 f
b1 ;
b1 >
b1 D
1$
1.
00
0:
b1 8
b1 C
b1 L
b0 9
b0 =
b0 X
b11111111111111111111111111101000 &
b11111111111111111111111111101000 I
b11111111111111111111111111101000 c
b0 7
b0 @
b0 M
b0 d
b1100011 P
b1111111 B
1+
b10101 ^
b0 ]
b0 \
b1100011 K
b11111111111111111111111111110100 6
b11111111111111111111111111110100 S
b11111111111111111111111111110100 V
b11111111111111111111111111110100 b
b0 4
b0 ?
b0 a
b11111110000000000000101011100011 2
b11111110000000000000101011100011 Q
b11111110000000000000101011100011 U
b1000 Z
b1000 -
b1000 H
b100100 '
b100100 F
b100000 5
b100000 G
b100000 J
b100000 T
b100000 [
1!
#90000
0!
#95000
b1111100 /
b1111100 _
b1111100 f
0%
b1111100 7
b1111100 @
b1111100 M
b1111100 d
0#
b0 ;
b0 >
b0 D
0$
0<
b1111100 4
b1111100 ?
b1111100 a
1:
1(
b0 8
b0 C
b0 L
0.
b0 &
b0 I
b0 c
b100011 P
b10 A
b0 B
b10 ,
0+
b0 ^
b1000 ]
b10 \
b100011 K
b0 6
b0 S
b0 V
b0 b
b100000010010000000100011 2
b100000010010000000100011 Q
b100000010010000000100011 U
b1100 Z
b1000 -
b1000 H
b1100 '
b1100 F
b1000 5
b1000 G
b1000 J
b1000 T
b1000 [
1!
#100000
0!
#105000
1%
b0 /
b0 _
b0 f
b0 7
b0 @
b0 M
b0 d
b0 4
b0 ?
b0 a
b10 8
b10 C
b10 L
10
0:
0(
b0 9
b0 =
b0 X
b0 &
b0 I
b0 c
b110011 P
b0 A
b0 ,
b1000 ^
b0 ]
b0 \
b110011 K
b0 6
b0 S
b0 V
b0 b
b10000110011 2
b10000110011 Q
b10000110011 U
b10000 Z
b1100 -
b1100 H
b10000 '
b10000 F
b1100 5
b1100 G
b1100 J
b1100 T
b1100 [
1!
#110000
0!
#115000
1:
10
b11 8
b11 C
b11 L
b10011 P
b101 ^
b10011 K
b1010010011 2
b1010010011 Q
b1010010011 U
b10100 Z
b10000 -
b10000 H
b10100 '
b10100 F
b10000 5
b10000 G
b10000 J
b10000 T
b10000 [
1!
#120000
0!
#125000
b1 /
b1 _
b1 f
0%
b1 7
b1 @
b1 M
b1 d
b1000 ;
b1000 >
b1000 D
b111 9
b111 =
b111 X
b1110 &
b1110 I
b1110 c
b10 A
b10 ,
b110 ^
b111 ]
b101 \
b111 6
b111 S
b111 V
b111 b
b11100101010001100010011 2
b11100101010001100010011 Q
b11100101010001100010011 U
b11000 Z
b100010 -
b100010 H
b11000 '
b11000 F
b10100 5
b10100 G
b10100 J
b10100 T
b10100 [
1!
#130000
0!
#135000
b1 7
b1 @
b1 M
b1 d
b1 ;
b1 >
b1 D
b1 4
b1 ?
b1 a
1.
00
0:
b1 8
b1 C
b1 L
b0 9
b0 =
b0 X
b11000 &
b11000 I
b11000 c
b1100011 P
b0 A
b0 ,
1+
b1100 ^
b0 ]
b110 \
b1100011 K
b1100 6
b1100 S
b1100 V
b1100 b
b110000011001100011 2
b110000011001100011 Q
b110000011001100011 U
b11100 Z
b110000 -
b110000 H
b11100 '
b11100 F
b11000 5
b11000 G
b11000 J
b11000 T
b11000 [
1!
#140000
0!
#145000
b1 7
b1 @
b1 M
b1 d
b1 9
b1 =
b1 X
b0 ;
b0 >
b0 D
b0 4
b0 ?
b0 a
1:
10
b11 8
b11 C
b11 L
0.
b10 &
b10 I
b10 c
b10011 P
0+
b101 ^
b1 ]
b101 \
b10011 K
b1 6
b1 S
b1 V
b1 b
b100101000001010010011 2
b100101000001010010011 Q
b100101000001010010011 U
b100000 Z
b11110 -
b11110 H
b100000 '
b100000 F
b11100 5
b11100 G
b11100 J
b11100 T
b11100 [
1!
#150000
0!
#155000
1#
1%
1<
b0 /
b0 _
b0 f
b1 ;
b1 >
b1 D
1$
1.
00
0:
b1 8
b1 C
b1 L
b0 9
b0 =
b0 X
b11111111111111111111111111101000 &
b11111111111111111111111111101000 I
b11111111111111111111111111101000 c
b0 7
b0 @
b0 M
b0 d
b1100011 P
b1111111 B
1+
b10101 ^
b0 ]
b0 \
b1100011 K
b11111111111111111111111111110100 6
b11111111111111111111111111110100 S
b11111111111111111111111111110100 V
b11111111111111111111111111110100 b
b0 4
b0 ?
b0 a
b11111110000000000000101011100011 2
b11111110000000000000101011100011 Q
b11111110000000000000101011100011 U
b1000 Z
b1000 -
b1000 H
b100100 '
b100100 F
b100000 5
b100000 G
b100000 J
b100000 T
b100000 [
1!
#160000
0!
#165000
b1111100 /
b1111100 _
b1111100 f
0%
b1111100 7
b1111100 @
b1111100 M
b1111100 d
0#
b0 ;
b0 >
b0 D
0$
0<
b1111100 4
b1111100 ?
b1111100 a
1:
1(
b0 8
b0 C
b0 L
0.
b0 &
b0 I
b0 c
b100011 P
b10 A
b0 B
b10 ,
0+
b0 ^
b1000 ]
b10 \
b100011 K
b0 6
b0 S
b0 V
b0 b
b100000010010000000100011 2
b100000010010000000100011 Q
b100000010010000000100011 U
b1100 Z
b1000 -
b1000 H
b1100 '
b1100 F
b1000 5
b1000 G
b1000 J
b1000 T
b1000 [
1!
#170000
0!
#175000
1%
b0 /
b0 _
b0 f
b0 7
b0 @
b0 M
b0 d
b0 4
b0 ?
b0 a
b10 8
b10 C
b10 L
10
0:
0(
b0 9
b0 =
b0 X
b0 &
b0 I
b0 c
b110011 P
b0 A
b0 ,
b1000 ^
b0 ]
b0 \
b110011 K
b0 6
b0 S
b0 V
b0 b
b10000110011 2
b10000110011 Q
b10000110011 U
b10000 Z
b1100 -
b1100 H
b10000 '
b10000 F
b1100 5
b1100 G
b1100 J
b1100 T
b1100 [
1!
#180000
0!
#185000
1:
10
b11 8
b11 C
b11 L
b10011 P
b101 ^
b10011 K
b1010010011 2
b1010010011 Q
b1010010011 U
b10100 Z
b10000 -
b10000 H
b10100 '
b10100 F
b10000 5
b10000 G
b10000 J
b10000 T
b10000 [
1!
#190000
0!
#195000
b1 /
b1 _
b1 f
0%
b1 7
b1 @
b1 M
b1 d
b1000 ;
b1000 >
b1000 D
b111 9
b111 =
b111 X
b1110 &
b1110 I
b1110 c
b10 A
b10 ,
b110 ^
b111 ]
b101 \
b111 6
b111 S
b111 V
b111 b
b11100101010001100010011 2
b11100101010001100010011 Q
b11100101010001100010011 U
b11000 Z
b100010 -
b100010 H
b11000 '
b11000 F
b10100 5
b10100 G
b10100 J
b10100 T
b10100 [
1!
#200000
0!
#205000
b1 7
b1 @
b1 M
b1 d
b1 ;
b1 >
b1 D
b1 4
b1 ?
b1 a
1.
00
0:
b1 8
b1 C
b1 L
b0 9
b0 =
b0 X
b11000 &
b11000 I
b11000 c
b1100011 P
b0 A
b0 ,
1+
b1100 ^
b0 ]
b110 \
b1100011 K
b1100 6
b1100 S
b1100 V
b1100 b
b110000011001100011 2
b110000011001100011 Q
b110000011001100011 U
b11100 Z
b110000 -
b110000 H
b11100 '
b11100 F
b11000 5
b11000 G
b11000 J
b11000 T
b11000 [
1!
#210000
0!
#215000
b1 7
b1 @
b1 M
b1 d
b1 9
b1 =
b1 X
b0 ;
b0 >
b0 D
b0 4
b0 ?
b0 a
1:
10
b11 8
b11 C
b11 L
0.
b10 &
b10 I
b10 c
b10011 P
0+
b101 ^
b1 ]
b101 \
b10011 K
b1 6
b1 S
b1 V
b1 b
b100101000001010010011 2
b100101000001010010011 Q
b100101000001010010011 U
b100000 Z
b11110 -
b11110 H
b100000 '
b100000 F
b11100 5
b11100 G
b11100 J
b11100 T
b11100 [
1!
#220000
0!
#225000
1#
1%
1<
b0 /
b0 _
b0 f
b1 ;
b1 >
b1 D
1$
1.
00
0:
b1 8
b1 C
b1 L
b0 9
b0 =
b0 X
b11111111111111111111111111101000 &
b11111111111111111111111111101000 I
b11111111111111111111111111101000 c
b0 7
b0 @
b0 M
b0 d
b1100011 P
b1111111 B
1+
b10101 ^
b0 ]
b0 \
b1100011 K
b11111111111111111111111111110100 6
b11111111111111111111111111110100 S
b11111111111111111111111111110100 V
b11111111111111111111111111110100 b
b0 4
b0 ?
b0 a
b11111110000000000000101011100011 2
b11111110000000000000101011100011 Q
b11111110000000000000101011100011 U
b1000 Z
b1000 -
b1000 H
b100100 '
b100100 F
b100000 5
b100000 G
b100000 J
b100000 T
b100000 [
1!
#230000
0!
#235000
b1111100 /
b1111100 _
b1111100 f
0%
b1111100 7
b1111100 @
b1111100 M
b1111100 d
0#
b0 ;
b0 >
b0 D
0$
0<
b1111100 4
b1111100 ?
b1111100 a
1:
1(
b0 8
b0 C
b0 L
0.
b0 &
b0 I
b0 c
b100011 P
b10 A
b0 B
b10 ,
0+
b0 ^
b1000 ]
b10 \
b100011 K
b0 6
b0 S
b0 V
b0 b
b100000010010000000100011 2
b100000010010000000100011 Q
b100000010010000000100011 U
b1100 Z
b1000 -
b1000 H
b1100 '
b1100 F
b1000 5
b1000 G
b1000 J
b1000 T
b1000 [
1!
#240000
0!
#245000
1%
b0 /
b0 _
b0 f
b0 7
b0 @
b0 M
b0 d
b0 4
b0 ?
b0 a
b10 8
b10 C
b10 L
10
0:
0(
b0 9
b0 =
b0 X
b0 &
b0 I
b0 c
b110011 P
b0 A
b0 ,
b1000 ^
b0 ]
b0 \
b110011 K
b0 6
b0 S
b0 V
b0 b
b10000110011 2
b10000110011 Q
b10000110011 U
b10000 Z
b1100 -
b1100 H
b10000 '
b10000 F
b1100 5
b1100 G
b1100 J
b1100 T
b1100 [
1!
#250000
0!
#255000
1:
10
b11 8
b11 C
b11 L
b10011 P
b101 ^
b10011 K
b1010010011 2
b1010010011 Q
b1010010011 U
b10100 Z
b10000 -
b10000 H
b10100 '
b10100 F
b10000 5
b10000 G
b10000 J
b10000 T
b10000 [
1!
#260000
0!
#265000
b1 /
b1 _
b1 f
0%
b1 7
b1 @
b1 M
b1 d
b1000 ;
b1000 >
b1000 D
b111 9
b111 =
b111 X
b1110 &
b1110 I
b1110 c
b10 A
b10 ,
b110 ^
b111 ]
b101 \
b111 6
b111 S
b111 V
b111 b
b11100101010001100010011 2
b11100101010001100010011 Q
b11100101010001100010011 U
b11000 Z
b100010 -
b100010 H
b11000 '
b11000 F
b10100 5
b10100 G
b10100 J
b10100 T
b10100 [
1!
#270000
0!
#275000
b1 7
b1 @
b1 M
b1 d
b1 ;
b1 >
b1 D
b1 4
b1 ?
b1 a
1.
00
0:
b1 8
b1 C
b1 L
b0 9
b0 =
b0 X
b11000 &
b11000 I
b11000 c
b1100011 P
b0 A
b0 ,
1+
b1100 ^
b0 ]
b110 \
b1100011 K
b1100 6
b1100 S
b1100 V
b1100 b
b110000011001100011 2
b110000011001100011 Q
b110000011001100011 U
b11100 Z
b110000 -
b110000 H
b11100 '
b11100 F
b11000 5
b11000 G
b11000 J
b11000 T
b11000 [
1!
#280000
0!
#285000
b1 7
b1 @
b1 M
b1 d
b1 9
b1 =
b1 X
b0 ;
b0 >
b0 D
b0 4
b0 ?
b0 a
1:
10
b11 8
b11 C
b11 L
0.
b10 &
b10 I
b10 c
b10011 P
0+
b101 ^
b1 ]
b101 \
b10011 K
b1 6
b1 S
b1 V
b1 b
b100101000001010010011 2
b100101000001010010011 Q
b100101000001010010011 U
b100000 Z
b11110 -
b11110 H
b100000 '
b100000 F
b11100 5
b11100 G
b11100 J
b11100 T
b11100 [
1!
#290000
0!
#295000
1#
1%
1<
b0 /
b0 _
b0 f
b1 ;
b1 >
b1 D
1$
1.
00
0:
b1 8
b1 C
b1 L
b0 9
b0 =
b0 X
b11111111111111111111111111101000 &
b11111111111111111111111111101000 I
b11111111111111111111111111101000 c
b0 7
b0 @
b0 M
b0 d
b1100011 P
b1111111 B
1+
b10101 ^
b0 ]
b0 \
b1100011 K
b11111111111111111111111111110100 6
b11111111111111111111111111110100 S
b11111111111111111111111111110100 V
b11111111111111111111111111110100 b
b0 4
b0 ?
b0 a
b11111110000000000000101011100011 2
b11111110000000000000101011100011 Q
b11111110000000000000101011100011 U
b1000 Z
b1000 -
b1000 H
b100100 '
b100100 F
b100000 5
b100000 G
b100000 J
b100000 T
b100000 [
1!
#300000
0!
#305000
b1111100 /
b1111100 _
b1111100 f
0%
b1111100 7
b1111100 @
b1111100 M
b1111100 d
0#
b0 ;
b0 >
b0 D
0$
0<
b1111100 4
b1111100 ?
b1111100 a
1:
1(
b0 8
b0 C
b0 L
0.
b0 &
b0 I
b0 c
b100011 P
b10 A
b0 B
b10 ,
0+
b0 ^
b1000 ]
b10 \
b100011 K
b0 6
b0 S
b0 V
b0 b
b100000010010000000100011 2
b100000010010000000100011 Q
b100000010010000000100011 U
b1100 Z
b1000 -
b1000 H
b1100 '
b1100 F
b1000 5
b1000 G
b1000 J
b1000 T
b1000 [
1!
#310000
0!
#315000
1%
b0 /
b0 _
b0 f
b0 7
b0 @
b0 M
b0 d
b0 4
b0 ?
b0 a
b10 8
b10 C
b10 L
10
0:
0(
b0 9
b0 =
b0 X
b0 &
b0 I
b0 c
b110011 P
b0 A
b0 ,
b1000 ^
b0 ]
b0 \
b110011 K
b0 6
b0 S
b0 V
b0 b
b10000110011 2
b10000110011 Q
b10000110011 U
b10000 Z
b1100 -
b1100 H
b10000 '
b10000 F
b1100 5
b1100 G
b1100 J
b1100 T
b1100 [
1!
#320000
0!
#325000
1:
10
b11 8
b11 C
b11 L
b10011 P
b101 ^
b10011 K
b1010010011 2
b1010010011 Q
b1010010011 U
b10100 Z
b10000 -
b10000 H
b10100 '
b10100 F
b10000 5
b10000 G
b10000 J
b10000 T
b10000 [
1!
#330000
0!
#335000
b1 /
b1 _
b1 f
0%
b1 7
b1 @
b1 M
b1 d
b1000 ;
b1000 >
b1000 D
b111 9
b111 =
b111 X
b1110 &
b1110 I
b1110 c
b10 A
b10 ,
b110 ^
b111 ]
b101 \
b111 6
b111 S
b111 V
b111 b
b11100101010001100010011 2
b11100101010001100010011 Q
b11100101010001100010011 U
b11000 Z
b100010 -
b100010 H
b11000 '
b11000 F
b10100 5
b10100 G
b10100 J
b10100 T
b10100 [
1!
#340000
0!
#345000
b1 7
b1 @
b1 M
b1 d
b1 ;
b1 >
b1 D
b1 4
b1 ?
b1 a
1.
00
0:
b1 8
b1 C
b1 L
b0 9
b0 =
b0 X
b11000 &
b11000 I
b11000 c
b1100011 P
b0 A
b0 ,
1+
b1100 ^
b0 ]
b110 \
b1100011 K
b1100 6
b1100 S
b1100 V
b1100 b
b110000011001100011 2
b110000011001100011 Q
b110000011001100011 U
b11100 Z
b110000 -
b110000 H
b11100 '
b11100 F
b11000 5
b11000 G
b11000 J
b11000 T
b11000 [
1!
#350000
0!
#355000
b1 7
b1 @
b1 M
b1 d
b1 9
b1 =
b1 X
b0 ;
b0 >
b0 D
b0 4
b0 ?
b0 a
1:
10
b11 8
b11 C
b11 L
0.
b10 &
b10 I
b10 c
b10011 P
0+
b101 ^
b1 ]
b101 \
b10011 K
b1 6
b1 S
b1 V
b1 b
b100101000001010010011 2
b100101000001010010011 Q
b100101000001010010011 U
b100000 Z
b11110 -
b11110 H
b100000 '
b100000 F
b11100 5
b11100 G
b11100 J
b11100 T
b11100 [
1!
#360000
0!
#365000
1#
1%
1<
b0 /
b0 _
b0 f
b1 ;
b1 >
b1 D
1$
1.
00
0:
b1 8
b1 C
b1 L
b0 9
b0 =
b0 X
b11111111111111111111111111101000 &
b11111111111111111111111111101000 I
b11111111111111111111111111101000 c
b0 7
b0 @
b0 M
b0 d
b1100011 P
b1111111 B
1+
b10101 ^
b0 ]
b0 \
b1100011 K
b11111111111111111111111111110100 6
b11111111111111111111111111110100 S
b11111111111111111111111111110100 V
b11111111111111111111111111110100 b
b0 4
b0 ?
b0 a
b11111110000000000000101011100011 2
b11111110000000000000101011100011 Q
b11111110000000000000101011100011 U
b1000 Z
b1000 -
b1000 H
b100100 '
b100100 F
b100000 5
b100000 G
b100000 J
b100000 T
b100000 [
1!
#370000
0!
#375000
b1111100 /
b1111100 _
b1111100 f
0%
b1111100 7
b1111100 @
b1111100 M
b1111100 d
0#
b0 ;
b0 >
b0 D
0$
0<
b1111100 4
b1111100 ?
b1111100 a
1:
1(
b0 8
b0 C
b0 L
0.
b0 &
b0 I
b0 c
b100011 P
b10 A
b0 B
b10 ,
0+
b0 ^
b1000 ]
b10 \
b100011 K
b0 6
b0 S
b0 V
b0 b
b100000010010000000100011 2
b100000010010000000100011 Q
b100000010010000000100011 U
b1100 Z
b1000 -
b1000 H
b1100 '
b1100 F
b1000 5
b1000 G
b1000 J
b1000 T
b1000 [
1!
#380000
0!
#385000
1%
b0 /
b0 _
b0 f
b0 7
b0 @
b0 M
b0 d
b0 4
b0 ?
b0 a
b10 8
b10 C
b10 L
10
0:
0(
b0 9
b0 =
b0 X
b0 &
b0 I
b0 c
b110011 P
b0 A
b0 ,
b1000 ^
b0 ]
b0 \
b110011 K
b0 6
b0 S
b0 V
b0 b
b10000110011 2
b10000110011 Q
b10000110011 U
b10000 Z
b1100 -
b1100 H
b10000 '
b10000 F
b1100 5
b1100 G
b1100 J
b1100 T
b1100 [
1!
#390000
0!
#395000
1:
10
b11 8
b11 C
b11 L
b10011 P
b101 ^
b10011 K
b1010010011 2
b1010010011 Q
b1010010011 U
b10100 Z
b10000 -
b10000 H
b10100 '
b10100 F
b10000 5
b10000 G
b10000 J
b10000 T
b10000 [
1!
#400000
0!
#405000
b1 /
b1 _
b1 f
0%
b1 7
b1 @
b1 M
b1 d
b1000 ;
b1000 >
b1000 D
b111 9
b111 =
b111 X
b1110 &
b1110 I
b1110 c
b10 A
b10 ,
b110 ^
b111 ]
b101 \
b111 6
b111 S
b111 V
b111 b
b11100101010001100010011 2
b11100101010001100010011 Q
b11100101010001100010011 U
b11000 Z
b100010 -
b100010 H
b11000 '
b11000 F
b10100 5
b10100 G
b10100 J
b10100 T
b10100 [
1!
#410000
0!
#415000
b1 7
b1 @
b1 M
b1 d
b1 ;
b1 >
b1 D
b1 4
b1 ?
b1 a
1.
00
0:
b1 8
b1 C
b1 L
b0 9
b0 =
b0 X
b11000 &
b11000 I
b11000 c
b1100011 P
b0 A
b0 ,
1+
b1100 ^
b0 ]
b110 \
b1100011 K
b1100 6
b1100 S
b1100 V
b1100 b
b110000011001100011 2
b110000011001100011 Q
b110000011001100011 U
b11100 Z
b110000 -
b110000 H
b11100 '
b11100 F
b11000 5
b11000 G
b11000 J
b11000 T
b11000 [
1!
#420000
0!
#425000
b1 7
b1 @
b1 M
b1 d
b1 9
b1 =
b1 X
b0 ;
b0 >
b0 D
b0 4
b0 ?
b0 a
1:
10
b11 8
b11 C
b11 L
0.
b10 &
b10 I
b10 c
b10011 P
0+
b101 ^
b1 ]
b101 \
b10011 K
b1 6
b1 S
b1 V
b1 b
b100101000001010010011 2
b100101000001010010011 Q
b100101000001010010011 U
b100000 Z
b11110 -
b11110 H
b100000 '
b100000 F
b11100 5
b11100 G
b11100 J
b11100 T
b11100 [
1!
#430000
0!
#435000
1#
1%
1<
b0 /
b0 _
b0 f
b1 ;
b1 >
b1 D
1$
1.
00
0:
b1 8
b1 C
b1 L
b0 9
b0 =
b0 X
b11111111111111111111111111101000 &
b11111111111111111111111111101000 I
b11111111111111111111111111101000 c
b0 7
b0 @
b0 M
b0 d
b1100011 P
b1111111 B
1+
b10101 ^
b0 ]
b0 \
b1100011 K
b11111111111111111111111111110100 6
b11111111111111111111111111110100 S
b11111111111111111111111111110100 V
b11111111111111111111111111110100 b
b0 4
b0 ?
b0 a
b11111110000000000000101011100011 2
b11111110000000000000101011100011 Q
b11111110000000000000101011100011 U
b1000 Z
b1000 -
b1000 H
b100100 '
b100100 F
b100000 5
b100000 G
b100000 J
b100000 T
b100000 [
1!
#440000
0!
#445000
b1111100 /
b1111100 _
b1111100 f
0%
b1111100 7
b1111100 @
b1111100 M
b1111100 d
0#
b0 ;
b0 >
b0 D
0$
0<
b1111100 4
b1111100 ?
b1111100 a
1:
1(
b0 8
b0 C
b0 L
0.
b0 &
b0 I
b0 c
b100011 P
b10 A
b0 B
b10 ,
0+
b0 ^
b1000 ]
b10 \
b100011 K
b0 6
b0 S
b0 V
b0 b
b100000010010000000100011 2
b100000010010000000100011 Q
b100000010010000000100011 U
b1100 Z
b1000 -
b1000 H
b1100 '
b1100 F
b1000 5
b1000 G
b1000 J
b1000 T
b1000 [
1!
#450000
0!
#455000
1%
b0 /
b0 _
b0 f
b0 7
b0 @
b0 M
b0 d
b0 4
b0 ?
b0 a
b10 8
b10 C
b10 L
10
0:
0(
b0 9
b0 =
b0 X
b0 &
b0 I
b0 c
b110011 P
b0 A
b0 ,
b1000 ^
b0 ]
b0 \
b110011 K
b0 6
b0 S
b0 V
b0 b
b10000110011 2
b10000110011 Q
b10000110011 U
b10000 Z
b1100 -
b1100 H
b10000 '
b10000 F
b1100 5
b1100 G
b1100 J
b1100 T
b1100 [
1!
#460000
0!
