LSRF_project/task2/histogram_system_tb.vcd
$date
	Thu Apr 03 17:57:55 2025
$end
$version
	Icarus Verilog
$end
$timescale
	1ps
$end
$scope module histogram_system_tb $end
$var wire 1 ! s_axi_wready $end
$var wire 1 " s_axi_rvalid $end
$var wire 2 # s_axi_rresp [1:0] $end
$var wire 32 $ s_axi_rdata [31:0] $end
$var wire 1 % s_axi_bvalid $end
$var wire 2 & s_axi_bresp [1:0] $end
$var wire 1 ' s_axi_awready $end
$var wire 1 ( s_axi_arready $end
$var wire 32 ) debug_rdata [31:0] $end
$var parameter 32 * AXIL_ADDR_WIDTH $end
$var parameter 32 + AXIL_DATA_WIDTH $end
$var parameter 32 , CLK_PERIOD $end
$var parameter 32 - NUM_CYCLE $end
$var parameter 32 . RAM_ADDR_WIDTH $end
$var parameter 32 / RAM_DATA_WIDTH $end
$var reg 1 0 aclk $end
$var reg 1 1 aresetn $end
$var reg 8 2 debug_addr [7:0] $end
$var reg 1 3 debug_rd_en $end
$var reg 8 4 mem_data [7:0] $end
$var reg 4 5 s_axi_araddr [3:0] $end
$var reg 1 6 s_axi_arvalid $end
$var reg 4 7 s_axi_awaddr [3:0] $end
$var reg 1 8 s_axi_awvalid $end
$var reg 1 9 s_axi_bready $end
$var reg 1 : s_axi_rready $end
$var reg 32 ; s_axi_wdata [31:0] $end
$var reg 1 < s_axi_wvalid $end
$var integer 32 = i [31:0] $end
$var integer 32 > seed [31:0] $end
$var integer 32 ? total_samples [31:0] $end
$scope function get_bin $end
$var reg 8 @ value [7:0] $end
$upscope $end
$scope module dut $end
$var wire 1 0 aclk $end
$var wire 1 1 aresetn $end
$var wire 8 A debug_addr [7:0] $end
$var wire 1 3 debug_rd_en $end
$var wire 8 B hist_rd_addr [7:0] $end
$var wire 1 C hist_rd_en $end
$var wire 4 D s_axi_araddr [3:0] $end
$var wire 1 6 s_axi_arvalid $end
$var wire 4 E s_axi_awaddr [3:0] $end
$var wire 1 8 s_axi_awvalid $end
$var wire 1 9 s_axi_bready $end
$var wire 1 : s_axi_rready $end
$var wire 32 F s_axi_wdata [31:0] $end
$var wire 1 < s_axi_wvalid $end
$var wire 1 ! s_axi_wready $end
$var wire 1 " s_axi_rvalid $end
$var wire 2 G s_axi_rresp [1:0] $end
$var wire 32 H s_axi_rdata [31:0] $end
$var wire 1 % s_axi_bvalid $end
$var wire 2 I s_axi_bresp [1:0] $end
$var wire 1 ' s_axi_awready $end
$var wire 1 ( s_axi_arready $end
$var wire 1 J ram_to_nowhere_tvalid $end
$var wire 32 K ram_to_nowhere_tdata [31:0] $end
$var wire 1 L lfsr_to_hist_tvalid $end
$var wire 1 M lfsr_to_hist_tready $end
$var wire 32 N lfsr_to_hist_tdata [31:0] $end
$var wire 1 O hist_wr_en $end
$var wire 32 P hist_wr_data [31:0] $end
$var wire 8 Q hist_wr_addr [7:0] $end
$var wire 1 R hist_to_ram_tvalid $end
$var wire 1 S hist_to_ram_tready $end
$var wire 32 T hist_to_ram_tdata [31:0] $end
$var wire 32 U hist_rd_data [31:0] $end
$var wire 32 V debug_rdata [31:0] $end
$var parameter 32 W AXIL_ADDR_WIDTH $end
$var parameter 32 X AXIL_DATA_WIDTH $end
$var parameter 32 Y RAM_ADDR_WIDTH $end
$var parameter 32 Z RAM_DATA_WIDTH $end
$scope module hist_inst $end
$var wire 1 0 aclk $end
$var wire 1 1 aresetn $end
$var wire 8 [ rd_addr [7:0] $end
$var wire 1 C rd_en $end
$var wire 1 L s_axis_tvalid $end
$var wire 32 \ s_axis_tdata [31:0] $end
$var wire 1 S m_axis_tready $end
$var parameter 3 ] IDLE $end
$var parameter 32 ^ NUM_BINS $end
$var parameter 3 _ PROCESS $end
$var parameter 3 ` WAIT_COUNT_ACK $end
$var parameter 3 a WAIT_DATA_ACK $end
$var parameter 3 b WRITE_COUNT $end
$var parameter 3 c WRITE_DATA $end
$var reg 8 d bin_count_addr [7:0] $end
$var reg 8 e bin_storage_addr [7:0] $end
$var reg 3 f current_bin [2:0] $end
$var reg 8 g current_value [7:0] $end
$var reg 32 h m_axis_tdata [31:0] $end
$var reg 1 R m_axis_tvalid $end
$var reg 32 i rd_data [31:0] $end
$var reg 1 M s_axis_tready $end
$var reg 3 j state [2:0] $end
$var reg 8 k wr_addr [7:0] $end
$var reg 32 l wr_data [31:0] $end
$var reg 1 O wr_en $end
$var integer 32 m i [31:0] $end
$scope function get_bin $end
$var reg 8 n value [7:0] $end
$upscope $end
$scope function get_bin_base_addr $end
$var reg 3 o bin_num [2:0] $end
$upscope $end
$scope function get_bin_count_addr $end
$var reg 3 p bin_num [2:0] $end
$upscope $end
$upscope $end
$scope module lfsr_inst $end
$var wire 1 0 aclk $end
$var wire 1 1 aresetn $end
$var wire 1 M m_axis_tready $end
$var wire 4 q s_axi_araddr [3:0] $end
$var wire 1 6 s_axi_arvalid $end
$var wire 4 r s_axi_awaddr [3:0] $end
$var wire 1 8 s_axi_awvalid $end
$var wire 1 9 s_axi_bready $end
$var wire 1 : s_axi_rready $end
$var wire 32 s s_axi_wdata [31:0] $end
$var wire 1 < s_axi_wvalid $end
$var parameter 32 t C_AXIL_ADDR_WIDTH $end
$var parameter 32 u C_AXIL_DATA_WIDTH $end
$var reg 4 v axi_araddr [3:0] $end
$var reg 1 w feedback $end
$var reg 1 x lfsr_active $end
$var reg 1 y lfsr_output_valid $end
$var reg 8 z lfsr_reg [7:0] $end
$var reg 32 { m_axis_tdata [31:0] $end
$var reg 1 L m_axis_tvalid $end
$var reg 1 ( s_axi_arready $end
$var reg 1 ' s_axi_awready $end
$var reg 2 | s_axi_bresp [1:0] $end
$var reg 1 % s_axi_bvalid $end
$var reg 32 } s_axi_rdata [31:0] $end
$var reg 2 ~ s_axi_rresp [1:0] $end
$var reg 1 " s_axi_rvalid $end
$var reg 1 ! s_axi_wready $end
$var reg 8 !" seed_reg [7:0] $end
$var reg 1 "" start_reg $end
$var reg 1 #" stop_reg $end
$var reg 8 $" taps_reg [7:0] $end
$upscope $end
$scope module ram_inst $end
$var wire 1 0 aclk $end
$var wire 1 1 aresetn $end
$var wire 8 %" debug_addr [7:0] $end
$var wire 1 3 debug_rd_en $end
$var wire 1 &" m_axis_tready $end
$var wire 32 '" s_axis_tdata [31:0] $end
$var wire 1 R s_axis_tvalid $end
$var wire 8 (" write_data [7:0] $end
$var wire 8 )" write_addr [7:0] $end
$var parameter 1 *" WRITE_ACK $end
$var parameter 1 +" WRITE_IDLE $end
$var reg 32 ," debug_rdata [31:0] $end
$var reg 32 -" m_axis_tdata [31:0] $end
$var reg 1 J m_axis_tvalid $end
$var reg 1 S s_axis_tready $end
$var reg 1 ." write_state $end
$var integer 32 /" i [31:0] $end
$upscope $end
$upscope $end
$scope task axi_lite_read $end
$var reg 4 0" addr [3:0] $end
$var reg 32 1" data [31:0] $end
$upscope $end
$scope task axi_lite_write $end
$var reg 4 2" addr [3:0] $end
$var reg 32 3" data [31:0] $end
$upscope $end
$scope task check_memory $end
$var reg 8 4" addr [7:0] $end
$var reg 8 5" data [7:0] $end
$upscope $end
$scope task display_bin_data $end
$var reg 8 6" data_val [7:0] $end
$var integer 32 7" bin_num [31:0] $end
$var integer 32 8" count [31:0] $end
$var integer 32 9" i [31:0] $end
$var integer 32 :" max_display [31:0] $end
$upscope $end
$upscope $end
$enddefinitions $end
$comment Show the parameter values. $end
$dumpall
0+"
1*"
b100000 u
b100 t
b100 c
b10 b
b101 a
b11 `
b1 _
b1000 ^
b0 ]
b100000 Z
b1000 Y
b100000 X
b100 W
b100000 /
b1000 .
b11111111 -
b1010 ,
b100000 +
b100 *
$end
#0
$dumpvars
bx :"
bx 9"
bx 8"
bx 7"
bx 6"
bx 5"
bx 4"
bx 3"
bx 2"
bx 1"
bx 0"
b100000000 /"
0."
b0 -"
b0 ,"
bx )"
bx ("
bx '"
1&"
b0 %"
b10001110 $"
0#"
0""
b1 !"
b0 ~
b0 }
b0 |
b0 {
b0 z
0y
0x
xw
b0 v
bx s
bx r
bx q
bx p
bx o
bx n
b1000 m
bx l
bx k
b0 j
b0 i
bx h
bx g
bx f
bx e
bx d
b0 \
bz [
b0 V
b0 U
bx T
1S
0R
bx Q
bx P
0O
b0 N
1M
0L
b0 K
0J
b0 I
b0 H
b0 G
bx F
bx E
bx D
zC
bz B
b0 A
bx @
b0 ?
bx >
b1000 =
0<
bx ;
0:
09
08
bx 7
06
bx 5
bx 4
03
b0 2
01
00
b0 )
1(
1'
b0 &
0%
b0 $
b0 #
0"
1!
$end
#5000
b100000000 /"
b1000 m
10
#10000
00
#15000
b1000 m
b100000000 /"
10
#20000
00
#25000
b100000000 /"
b1000 m
10
#30000
00
#35000
b1000 m
b100000000 /"
10
#40000
00
#45000
b100000000 /"
b1000 m
10
#50000
00
#55000
b1000 m
b100000000 /"
10
#60000
00
#65000
b100000000 /"
b1000 m
10
#70000
00
#75000
b1000 m
b100000000 /"
10
#80000
00
#85000
b100000000 /"
b1000 m
10
#90000
00
#95000
b1000 m
b100000000 /"
10
#100000
00
11
#105000
10
#110000
00
#115000
10
#120000
00
#125000
10
#130000
00
#135000
10
#140000
00
#145000
10
#150000
00
19
1<
b1 ;
b1 F
b1 s
18
b1000 7
b1000 E
b1000 r
b1 3"
b1000 2"
#155000
0'
0!
10
#160000
00
#165000
1%
1!
1'
0<
08
10
#170000
00
#175000
0'
0!
0%
1<
b10001110 ;
b10001110 F
b10001110 s
18
b1100 7
b1100 E
b1100 r
b10001110 3"
b1100 2"
19
10
#180000
00
#185000
1%
1!
1'
10
#190000
00
#195000
0%
0<
08
10
#200000
00
#205000
1""
0!
0'
1<
b1 ;
b1 F
b1 s
18
b0 7
b0 E
b0 r
b1 3"
b0 2"
19
10
#210000
00
#215000
1'
1!
1%
0y
1x
b1 z
10
#220000
00
#225000
1y
b10 z
0%
0w
0<
08
10
#230000
00
#235000
b101 z
1L
b10 N
b10 \
b10 {
1w
09
10
#240000
00
#245000
0M
b1 j
b10 g
b101 N
b101 \
b101 {
b1011 z
10
#250000
00
#255000
b10 j
b0xxx00 d
b0 f
b10 n
10
#260000
00
#265000
b0xxx00 )"
b0 ("
b11 j
1O
b0 P
b0 l
b0xxx00 Q
b0xxx00 k
1R
b0xxx000000000000000000 T
b0xxx000000000000000000 h
b0xxx000000000000000000 '"
10
#270000
00
#275000
b100 j
0O
0R
1."
0S
10
#280000
00
#285000
bx )"
b10 ("
0."
1S
b101 j
1O
b10 P
b10 l
bx Q
bx k
1R
b0xxxxxxxx0000000000000010 T
b0xxxxxxxx0000000000000010 h
b0xxxxxxxx0000000000000010 '"
10
#290000
00
#295000
1M
b0 j
0O
0R
1."
0S
10
#300000
00
#305000
0."
1S
0M
b1 j
b101 g
b1011 N
b1011 \
b1011 {
b10110 z
0w
10
#310000
00
#315000
b10 j
b100000 e
b0 d
b0 o
b0 p
b101 n
10
#320000
00
#325000
b0 )"
b1 ("
b11 j
1O
b1 P
b1 l
b0 Q
b0 k
1R
b1 T
b1 h
b1 '"
10
#330000
00
#335000
b100 j
0O
0R
1."
0S
10
#340000
00
#345000
b100000 )"
b101 ("
0."
1S
b101 j
1O
b101 P
b101 l
b100000 Q
b100000 k
1R
b1000000000000000000101 T
b1000000000000000000101 h
b1000000000000000000101 '"
10
#350000
00
#355000
1M
b0 j
0O
0R
1."
0S
10
#360000
00
#365000
0."
1S
0M
b1 j
b1011 g
b10110 N
b10110 \
b10110 {
b101100 z
10
#370000
00
#375000
b10 j
b100001 e
b1011 n
10
#380000
00
#385000
b0 )"
b10 ("
b11 j
1O
b10 P
b10 l
b0 Q
b0 k
1R
b10 T
b10 h
b10 '"
10
#390000
00
#395000
b100 j
0O
0R
1."
0S
10
#400000
00
#405000
b100001 )"
b1011 ("
0."
1S
b101 j
1O
b1011 P
b1011 l
b100001 Q
b100001 k
1R
b1000010000000000001011 T
b1000010000000000001011 h
b1000010000000000001011 '"
10
#410000
00
#415000
1M
b0 j
0O
0R
1."
0S
10
#420000
00
#425000
0."
1S
0M
b1 j
b10110 g
b101100 N
b101100 \
b101100 {
b1011000 z
10
#430000
00
#435000
b10 j
b100010 e
b10110 n
10
#440000
00
#445000
b0 )"
b11 ("
b11 j
1O
b11 P
b11 l
b0 Q
b0 k
1R
b11 T
b11 h
b11 '"
10
#450000
00
#455000
b100 j
0O
0R
1."
0S
10
#460000
00
#465000
b100010 )"
b10110 ("
0."
1S
b101 j
1O
b10110 P
b10110 l
b100010 Q
b100010 k
1R
b1000100000000000010110 T
b1000100000000000010110 h
b1000100000000000010110 '"
10
#470000
00
#475000
1M
b0 j
0O
0R
1."
0S
10
#480000
00
#485000
0."
1S
0M
b1 j
b101100 g
b1011000 N
b1011000 \
b1011000 {
b10110001 z
1w
10
#490000
00
#495000
b10 j
b100011 e
b1 f
b101100 n
10
#500000
00
#505000
b0 )"
b0 ("
b11 j
1O
b0 P
b0 l
b0 Q
b0 k
1R
b0 T
b0 h
b0 '"
10
#510000
00
#515000
b100 j
0O
0R
1."
0S
10
#520000
00
#525000
b100011 )"
b101100 ("
0."
1S
b101 j
1O
b101100 P
b101100 l
b100011 Q
b100011 k
1R
b1000110000000000101100 T
b1000110000000000101100 h
b1000110000000000101100 '"
10
#530000
00
#535000
1M
b0 j
0O
0R
1."
0S
10
#540000
00
#545000
0."
1S
0M
b1 j
b1011000 g
b10110001 N
b10110001 \
b10110001 {
b1100011 z
10
#550000
00
#555000
b10 j
b1000000 e
b100 d
b10 f
b1 o
b1 p
b1011000 n
10
#560000
00
#565000
b100 )"
b0 ("
b11 j
1O
b0 P
b0 l
b100 Q
b100 k
1R
b1000000000000000000 T
b1000000000000000000 h
b1000000000000000000 '"
10
#570000
00
#575000
b100 j
0O
0R
1."
0S
10
#580000
00
#585000
b1000000 )"
b1011000 ("
0."
1S
b101 j
1O
b1011000 P
b1011000 l
b1000000 Q
b1000000 k
1R
b10000000000000001011000 T
b10000000000000001011000 h
b10000000000000001011000 '"
10
#590000
00
#595000
1M
b0 j
0O
0R
1."
0S
10
#600000
00
#605000
0."
1S
0M
b1 j
b10110001 g
b1100011 N
b1100011 \
b1100011 {
b11000111 z
10
#610000
00
#615000
b10 j
b1100000 e
b1000 d
b101 f
b10 o
b10 p
b10110001 n
10
#620000
00
#625000
b1000 )"
b0 ("
b11 j
1O
b0 P
b0 l
b1000 Q
b1000 k
1R
b10000000000000000000 T
b10000000000000000000 h
b10000000000000000000 '"
10
#630000
00
#635000
b100 j
0O
0R
1."
0S
10
#640000
00
#645000
b1100000 )"
b10110001 ("
0."
1S
b101 j
1O
b10110001 P
b10110001 l
b1100000 Q
b1100000 k
1R
b11000000000000010110001 T
b11000000000000010110001 h
b11000000000000010110001 '"
10
#650000
00
#655000
1M
b0 j
0O
0R
1."
0S
10
#660000
00
#665000
0."
1S
0M
b1 j
b1100011 g
b11000111 N
b11000111 \
b11000111 {
b10001111 z
10
#670000
00
#675000
b10 j
b11000000 e
b10100 d
b11 f
b101 o
b101 p
b1100011 n
10
#680000
00
#685000
b10100 )"
b0 ("
b11 j
1O
b0 P
b0 l
b10100 Q
b10100 k
1R
b101000000000000000000 T
b101000000000000000000 h
b101000000000000000000 '"
10
#690000
00
#695000
b100 j
0O
0R
1."
0S
10
#700000
00
#705000
b11000000 )"
b1100011 ("
0."
1S
b101 j
1O
b1100011 P
b1100011 l
b11000000 Q
b11000000 k
1R
b110000000000000001100011 T
b110000000000000001100011 h
b110000000000000001100011 '"
10
#710000
00
#715000
1M
b0 j
0O
0R
1."
0S
10
#720000
00
#725000
0."
1S
0M
b1 j
b11000111 g
b10001111 N
b10001111 \
b10001111 {
b11110 z
0w
10
#730000
00
#735000
b10 j
b10000000 e
b1100 d
b110 f
b11 o
b11 p
b11000111 n
10
#740000
00
#745000
b1100 )"
b0 ("
b11 j
1O
b0 P
b0 l
b1100 Q
b1100 k
1R
b11000000000000000000 T
b11000000000000000000 h
b11000000000000000000 '"
10
#750000
00
#755000
b100 j
0O
0R
1."
0S
10
#760000
00
#765000
b10000000 )"
b11000111 ("
0."
1S
b101 j
1O
b11000111 P
b11000111 l
b10000000 Q
b10000000 k
1R
b100000000000000011000111 T
b100000000000000011000111 h
b100000000000000011000111 '"
10
#770000
00
#775000
1M
b0 j
0O
0R
1."
0S
10
#780000
00
#785000
0."
1S
0M
b1 j
b10001111 g
b11110 N
b11110 \
b11110 {
b111101 z
1w
10
#790000
00
#795000
b10 j
b11100000 e
b11000 d
b100 f
b110 o
b110 p
b10001111 n
10
#800000
00
#805000
b11000 )"
b0 ("
b11 j
1O
b0 P
b0 l
b11000 Q
b11000 k
1R
b110000000000000000000 T
b110000000000000000000 h
b110000000000000000000 '"
10
#810000
00
#815000
b100 j
0O
0R
1."
0S
10
#820000
00
#825000
b11100000 )"
b10001111 ("
0."
1S
b101 j
1O
b10001111 P
b10001111 l
b11100000 Q
b11100000 k
1R
b111000000000000010001111 T
b111000000000000010001111 h
b111000000000000010001111 '"
10
#830000
00
#835000
1M
b0 j
0O
0R
1."
0S
10
#840000
00
#845000
0."
1S
0M
b1 j
b11110 g
b111101 N
b111101 \
b111101 {
b1111010 z
0w
10
#850000
00
#855000
b10 j
b10100000 e
b10000 d
b0 f
b100 o
b100 p
b11110 n
10
#860000
00
#865000
b10000 )"
b100 ("
b11 j
1O
b100 P
b100 l
b10000 Q
b10000 k
1R
b100000000000000000100 T
b100000000000000000100 h
b100000000000000000100 '"
10
#870000
00
#875000
b100 j
0O
0R
1."
0S
10
#880000
00
#885000
b10100000 )"
b11110 ("
0."
1S
b101 j
1O
b11110 P
b11110 l
b10100000 Q
b10100000 k
1R
b101000000000000000011110 T
b101000000000000000011110 h
b101000000000000000011110 '"
10
#890000
00
#895000
1M
b0 j
0O
0R
1."
0S
10
#900000
00
#905000
0."
1S
0M
b1 j
b111101 g
b1111010 N
b1111010 \
b1111010 {
b11110100 z
10
#910000
00
#915000
b10 j
b100100 e
b0 d
b1 f
b0 o
b0 p
b111101 n
10
#920000
00
#925000
b0 )"
b1 ("
b11 j
1O
b1 P
b1 l
b0 Q
b0 k
1R
b1 T
b1 h
b1 '"
10
#930000
00
#935000
b100 j
0O
0R
1."
0S
10
#940000
00
#945000
b100100 )"
b111101 ("
0."
1S
b101 j
1O
b111101 P
b111101 l
b100100 Q
b100100 k
1R
b1001000000000000111101 T
b1001000000000000111101 h
b1001000000000000111101 '"
10
#950000
00
#955000
1M
b0 j
0O
0R
1."
0S
10
#960000
00
#965000
0."
1S
0M
b1 j
b1111010 g
b11110100 N
b11110100 \
b11110100 {
b11101000 z
10
#970000
00
#975000
b10 j
b1000001 e
b100 d
b11 f
b1 o
b1 p
b1111010 n
10
#980000
00
#985000
b100 )"
b1 ("
b11 j
1O
b1 P
b1 l
b100 Q
b100 k
1R
b1000000000000000001 T
b1000000000000000001 h
b1000000000000000001 '"
10
#990000
00
#995000
b100 j
0O
0R
1."
0S
10
#1000000
00
#1005000
b1000001 )"
b1111010 ("
0."
1S
b101 j
1O
b1111010 P
b1111010 l
b1000001 Q
b1000001 k
1R
b10000010000000001111010 T
b10000010000000001111010 h
b10000010000000001111010 '"
10
#1010000
00
#1015000
1M
b0 j
0O
0R
1."
0S
10
#1020000
00
#1025000
0."
1S
0M
b1 j
b11110100 g
b11101000 N
b11101000 \
b11101000 {
b11010000 z
10
#1030000
00
#1035000
b10 j
b10000001 e
b1100 d
b111 f
b11 o
b11 p
b11110100 n
10
#1040000
00
#1045000
b1100 )"
b0 ("
b11 j
1O
b0 P
b0 l
b1100 Q
b1100 k
1R
b11000000000000000000 T
b11000000000000000000 h
b11000000000000000000 '"
10
#1050000
00
#1055000
b100 j
0O
0R
1."
0S
10
#1060000
00
#1065000
b10000001 )"
b11110100 ("
0."
1S
b101 j
1O
b11110100 P
b11110100 l
b10000001 Q
b10000001 k
1R
b100000010000000011110100 T
b100000010000000011110100 h
b100000010000000011110100 '"
10
#1070000
00
#1075000
1M
b0 j
0O
0R
1."
0S
10
#1080000
00
#1085000
0."
1S
0M
b1 j
b11101000 g
b11010000 N
b11010000 \
b11010000 {
b10100001 z
1w
10
#1090000
00
#1095000
b10 j
b0 e
b11100 d
b111 o
b111 p
b11101000 n
10
#1100000
00
#1105000
b11100 )"
b1 ("
b11 j
1O
b1 P
b1 l
b11100 Q
b11100 k
1R
b111000000000000000001 T
b111000000000000000001 h
b111000000000000000001 '"
10
#1110000
00
#1115000
b100 j
0O
0R
1."
0S
10
#1120000
00
#1125000
b0 )"
b11101000 ("
0."
1S
b101 j
1O
b11101000 P
b11101000 l
b0 Q
b0 k
1R
b11101000 T
b11101000 h
b11101000 '"
10
#1130000
00
#1135000
1M
b0 j
0O
0R
1."
0S
10
#1140000
00
#1145000
0."
1S
0M
b1 j
b11010000 g
b10100001 N
b10100001 \
b10100001 {
b1000011 z
10
#1150000
00
#1155000
b10 j
b1 e
b110 f
b11010000 n
10
#1160000
00
#1165000
b11100 )"
b1 ("
b11 j
1O
b1 P
b1 l
b11100 Q
b11100 k
1R
b111000000000000000001 T
b111000000000000000001 h
b111000000000000000001 '"
10
#1170000
00
#1175000
b100 j
0O
0R
1."
0S
10
#1180000
00
#1185000
b1 )"
b11010000 ("
0."
1S
b101 j
1O
b11010000 P
b11010000 l
b1 Q
b1 k
1R
b10000000011010000 T
b10000000011010000 h
b10000000011010000 '"
10
#1190000
00
#1195000
1M
b0 j
0O
0R
1."
0S
10
#1200000
00
#1205000
0."
1S
0M
b1 j
b10100001 g
b1000011 N
b1000011 \
b1000011 {
b10000111 z
10
#1210000
00
#1215000
b10 j
b11100001 e
b11000 d
b101 f
b110 o
b110 p
b10100001 n
10
#1220000
00
#1225000
b11000 )"
b1 ("
b11 j
1O
b1 P
b1 l
b11000 Q
b11000 k
1R
b110000000000000000001 T
b110000000000000000001 h
b110000000000000000001 '"
10
#1230000
00
#1235000
b100 j
0O
0R
1."
0S
10
#1240000
00
#1245000
b11100001 )"
b10100001 ("
0."
1S
b101 j
1O
b10100001 P
b10100001 l
b11100001 Q
b11100001 k
1R
b111000010000000010100001 T
b111000010000000010100001 h
b111000010000000010100001 '"
10
#1250000
00
#1255000
1M
b0 j
0O
0R
1."
0S
10
#1260000
00
#1265000
0."
1S
0M
b1 j
b1000011 g
b10000111 N
b10000111 \
b10000111 {
b1111 z
10
#1270000
00
#1275000
b10 j
b11000001 e
b10100 d
b10 f
b101 o
b101 p
b1000011 n
10
#1280000
00
#1285000
b10100 )"
b1 ("
b11 j
1O
b1 P
b1 l
b10100 Q
b10100 k
1R
b101000000000000000001 T
b101000000000000000001 h
b101000000000000000001 '"
10
#1290000
00
#1295000
b100 j
0O
0R
1."
0S
10
#1300000
00
#1305000
b11000001 )"
b1000011 ("
0."
1S
b101 j
1O
b1000011 P
b1000011 l
b11000001 Q
b11000001 k
1R
b110000010000000001000011 T
b110000010000000001000011 h
b110000010000000001000011 '"
10
#1310000
00
#1315000
1M
b0 j
0O
0R
1."
0S
10
#1320000
00
#1325000
0."
1S
0M
b1 j
b10000111 g
b1111 N
b1111 \
b1111 {
b11111 z
10
#1330000
00
#1335000
b10 j
b1100001 e
b1000 d
b100 f
b10 o
b10 p
b10000111 n
10
#1340000
00
#1345000
b1000 )"
b1 ("
b11 j
1O
b1 P
b1 l
b1000 Q
b1000 k
1R
b10000000000000000001 T
b10000000000000000001 h
b10000000000000000001 '"
10
#1350000
00
#1355000
b100 j
0O
0R
1."
0S
10
#1360000
00
#1365000
b1100001 )"
b10000111 ("
0."
1S
b101 j
1O
b10000111 P
b10000111 l
b1100001 Q
b1100001 k
1R
b11000010000000010000111 T
b11000010000000010000111 h
b11000010000000010000111 '"
10
#1370000
00
#1375000
1M
b0 j
0O
0R
1."
0S
10
#1380000
00
#1385000
0."
1S
0M
b1 j
b1111 g
b11111 N
b11111 \
b11111 {
b111111 z
10
#1390000
00
#1395000
b10 j
b10100001 e
b10000 d
b0 f
b100 o
b100 p
b1111 n
10
#1400000
00
#1405000
b10000 )"
b101 ("
b11 j
1O
b101 P
b101 l
b10000 Q
b10000 k
1R
b100000000000000000101 T
b100000000000000000101 h
b100000000000000000101 '"
10
#1410000
00
#1415000
b100 j
0O
0R
1."
0S
10
#1420000
00
#1425000
b10100001 )"
b1111 ("
0."
1S
b101 j
1O
b1111 P
b1111 l
b10100001 Q
b10100001 k
1R
b101000010000000000001111 T
b101000010000000000001111 h
b101000010000000000001111 '"
10
#1430000
00
#1435000
1M
b0 j
0O
0R
1."
0S
10
#1440000
00
#1445000
0."
1S
0M
b1 j
b11111 g
b111111 N
b111111 \
b111111 {
b1111111 z
10
#1450000
00
#1455000
b10 j
b100101 e
b0 d
b0 o
b0 p
b11111 n
10
#1460000
00
#1465000
b0 )"
b110 ("
b11 j
1O
b110 P
b110 l
b0 Q
b0 k
1R
b110 T
b110 h
b110 '"
10
#1470000
00
#1475000
b100 j
0O
0R
1."
0S
10
#1480000
00
#1485000
b100101 )"
b11111 ("
0."
1S
b101 j
1O
b11111 P
b11111 l
b100101 Q
b100101 k
1R
b1001010000000000011111 T
b1001010000000000011111 h
b1001010000000000011111 '"
10
#1490000
00
#1495000
1M
b0 j
0O
0R
1."
0S
10
#1500000
00
#1505000
0."
1S
0M
b1 j
b111111 g
b1111111 N
b1111111 \
b1111111 {
b11111111 z
10
#1510000
00
#1515000
b10 j
b100110 e
b1 f
b111111 n
10
#1520000
00
#1525000
b0 )"
b10 ("
b11 j
1O
b10 P
b10 l
b0 Q
b0 k
1R
b10 T
b10 h
b10 '"
10
#1530000
00
#1535000
b100 j
0O
0R
1."
0S
10
#1540000
00
#1545000
b100110 )"
b111111 ("
0."
1S
b101 j
1O
b111111 P
b111111 l
b100110 Q
b100110 k
1R
b1001100000000000111111 T
b1001100000000000111111 h
b1001100000000000111111 '"
10
#1550000
00
#1555000
1M
b0 j
0O
0R
1."
0S
10
#1560000
00
#1565000
0."
1S
0M
b1 j
b1111111 g
b11111111 N
b11111111 \
b11111111 {
b11111110 z
0w
10
#1570000
00
#1575000
b10 j
b1000010 e
b100 d
b11 f
b1 o
b1 p
b1111111 n
10
#1580000
00
#1585000
b100 )"
b10 ("
b11 j
1O
b10 P
b10 l
b100 Q
b100 k
1R
b1000000000000000010 T
b1000000000000000010 h
b1000000000000000010 '"
10
#1590000
00
#1595000
b100 j
0O
0R
1."
0S
10
#1600000
00
#1605000
b1000010 )"
b1111111 ("
0."
1S
b101 j
1O
b1111111 P
b1111111 l
b1000010 Q
b1000010 k
1R
b10000100000000001111111 T
b10000100000000001111111 h
b10000100000000001111111 '"
10
#1610000
00
#1615000
1M
b0 j
0O
0R
1."
0S
10
#1620000
00
#1625000
0."
1S
0M
b1 j
b11111111 g
b11111110 N
b11111110 \
b11111110 {
b11111100 z
10
#1630000
00
#1635000
b10 j
b10000010 e
b1100 d
b111 f
b11 o
b11 p
b11111111 n
10
#1640000
00
#1645000
b1100 )"
b10 ("
b11 j
1O
b10 P
b10 l
b1100 Q
b1100 k
1R
b11000000000000000010 T
b11000000000000000010 h
b11000000000000000010 '"
10
#1650000
00
#1655000
b100 j
0O
0R
1."
0S
10
#1660000
00
#1665000
b10000010 )"
b11111111 ("
0."
1S
b101 j
1O
b11111111 P
b11111111 l
b10000010 Q
b10000010 k
1R
b100000100000000011111111 T
b100000100000000011111111 h
b100000100000000011111111 '"
10
#1670000
00
#1675000
1M
b0 j
0O
0R
1."
0S
10
#1680000
00
#1685000
0."
1S
0M
b1 j
b11111110 g
b11111100 N
b11111100 \
b11111100 {
b11111001 z
1w
10
#1690000
00
#1695000
b10 j
b10 e
b11100 d
b111 o
b111 p
b11111110 n
10
#1700000
00
#1705000
b11100 )"
b11 ("
b11 j
1O
b11 P
b11 l
b11100 Q
b11100 k
1R
b111000000000000000011 T
b111000000000000000011 h
b111000000000000000011 '"
10
#1710000
00
#1715000
b100 j
0O
0R
1."
0S
10
#1720000
00
#1725000
b10 )"
b11111110 ("
0."
1S
b101 j
1O
b11111110 P
b11111110 l
b10 Q
b10 k
1R
b100000000011111110 T
b100000000011111110 h
b100000000011111110 '"
10
#1730000
00
#1735000
1M
b0 j
0O
0R
1."
0S
10
#1740000
00
#1745000
0."
1S
0M
b1 j
b11111100 g
b11111001 N
b11111001 \
b11111001 {
b11110010 z
0w
10
#1750000
00
#1755000
b10 j
b11 e
b11111100 n
10
#1760000
00
#1765000
b11100 )"
b100 ("
b11 j
1O
b100 P
b100 l
b11100 Q
b11100 k
1R
b111000000000000000100 T
b111000000000000000100 h
b111000000000000000100 '"
10
#1770000
00
#1775000
b100 j
0O
0R
1."
0S
10
#1780000
00
#1785000
b11 )"
b11111100 ("
0."
1S
b101 j
1O
b11111100 P
b11111100 l
b11 Q
b11 k
1R
b110000000011111100 T
b110000000011111100 h
b110000000011111100 '"
10
#1790000
00
#1795000
1M
b0 j
0O
0R
1."
0S
10
#1800000
00
#1805000
0."
1S
0M
b1 j
b11111001 g
b11110010 N
b11110010 \
b11110010 {
b11100100 z
10
#1810000
00
#1815000
b10 j
b100 e
b11111001 n
10
#1820000
00
#1825000
b11100 )"
b101 ("
b11 j
1O
b101 P
b101 l
b11100 Q
b11100 k
1R
b111000000000000000101 T
b111000000000000000101 h
b111000000000000000101 '"
10
#1830000
00
#1835000
b100 j
0O
0R
1."
0S
10
#1840000
00
#1845000
b100 )"
b11111001 ("
0."
1S
b101 j
1O
b11111001 P
b11111001 l
b100 Q
b100 k
1R
b1000000000011111001 T
b1000000000011111001 h
b1000000000011111001 '"
10
#1850000
00
#1855000
1M
b0 j
0O
0R
1."
0S
10
#1860000
00
#1865000
0."
1S
0M
b1 j
b11110010 g
b11100100 N
b11100100 \
b11100100 {
b11001000 z
10
#1870000
00
