Pipeline_updated/dump.vcd
$date
	Sun Mar 30 21:42:38 2025
$end
$version
	Icarus Verilog
$end
$timescale
	1s
$end
$scope module tb $end
$var reg 1 ! clk $end
$var reg 1 " rst $end
$scope module dut $end
$var wire 1 ! clk $end
$var wire 1 " rst $end
$var wire 32 # WriteDataM [31:0] $end
$var wire 32 $ ResultW [31:0] $end
$var wire 1 % ResultSrcW $end
$var wire 1 & ResultSrcM $end
$var wire 1 ' ResultSrcE $end
$var wire 1 ( RegWriteW $end
$var wire 1 ) RegWriteM $end
$var wire 1 * RegWriteE $end
$var wire 32 + ReadDataW [31:0] $end
$var wire 5 , RS2_E [4:0] $end
$var wire 5 - RS1_E [4:0] $end
$var wire 5 . RD_M [4:0] $end
$var wire 5 / RD_E [4:0] $end
$var wire 5 0 RDW [4:0] $end
$var wire 32 1 RD2_E [31:0] $end
$var wire 32 2 RD1_E [31:0] $end
$var wire 32 3 PCTargetE [31:0] $end
$var wire 1 4 PCSrcE $end
$var wire 32 5 PCPlus4W [31:0] $end
$var wire 32 6 PCPlus4M [31:0] $end
$var wire 32 7 PCPlus4E [31:0] $end
$var wire 32 8 PCPlus4D [31:0] $end
$var wire 32 9 PCE [31:0] $end
$var wire 32 : PCD [31:0] $end
$var wire 1 ; MemWriteM $end
$var wire 1 < MemWriteE $end
$var wire 32 = InstrD [31:0] $end
$var wire 32 > Imm_Ext_E [31:0] $end
$var wire 2 ? ForwardBE [1:0] $end
$var wire 2 @ ForwardAE [1:0] $end
$var wire 1 A BranchE $end
$var wire 32 B ALU_ResultW [31:0] $end
$var wire 32 C ALU_ResultM [31:0] $end
$var wire 1 D ALUSrcE $end
$var wire 4 E ALUControlE [3:0] $end
$scope module Decode $end
$var wire 4 F ALUControlE [3:0] $end
$var wire 1 D ALUSrcE $end
$var wire 1 A BranchE $end
$var wire 32 G Imm_Ext_E [31:0] $end
$var wire 1 < MemWriteE $end
$var wire 32 H PCE [31:0] $end
$var wire 32 I PCPlus4E [31:0] $end
$var wire 32 J RD1_E [31:0] $end
$var wire 32 K RD2_E [31:0] $end
$var wire 5 L RD_E [4:0] $end
$var wire 5 M RS1_E [4:0] $end
$var wire 5 N RS2_E [4:0] $end
$var wire 1 * RegWriteE $end
$var wire 1 ' ResultSrcE $end
$var wire 1 ! clk $end
$var wire 1 " rst $end
$var wire 32 O ResultW [31:0] $end
$var wire 1 P ResultSrcD $end
$var wire 1 ( RegWriteW $end
$var wire 1 Q RegWriteD $end
$var wire 5 R RDW [4:0] $end
$var wire 32 S RD2_D [31:0] $end
$var wire 32 T RD1_D [31:0] $end
$var wire 32 U PCPlus4D [31:0] $end
$var wire 32 V PCD [31:0] $end
$var wire 1 W MemWriteD $end
$var wire 32 X InstrD [31:0] $end
$var wire 32 Y Imm_Ext_D [31:0] $end
$var wire 2 Z ImmSrcD [1:0] $end
$var wire 1 [ BranchD $end
$var wire 1 \ ALUSrcD $end
$var wire 4 ] ALUControlD [3:0] $end
$var reg 4 ^ ALUControlD_r [3:0] $end
$var reg 1 D ALUSrcD_r $end
$var reg 1 A BranchD_r $end
$var reg 32 _ Imm_Ext_D_r [31:0] $end
$var reg 1 ` MemWriteD_r $end
$var reg 32 a PCD_r [31:0] $end
$var reg 32 b PCPlus4D_r [31:0] $end
$var reg 32 c RD1_D_r [31:0] $end
$var reg 32 d RD2_D_r [31:0] $end
$var reg 5 e RD_D_r [4:0] $end
$var reg 5 f RS1_D_r [4:0] $end
$var reg 5 g RS2_D_r [4:0] $end
$var reg 1 h RegWriteD_r $end
$var reg 1 i ResultSrcD_r $end
$scope module control $end
$var wire 7 j Op [6:0] $end
$var wire 3 k funct3 [2:0] $end
$var wire 7 l funct7 [6:0] $end
$var wire 1 P ResultSrc $end
$var wire 1 Q RegWrite $end
$var wire 1 W MemWrite $end
$var wire 2 m ImmSrc [1:0] $end
$var wire 1 [ Branch $end
$var wire 1 \ ALUSrc $end
$var wire 2 n ALUOp [1:0] $end
$var wire 4 o ALUControl [3:0] $end
$scope module ALU_Decoder $end
$var wire 3 p funct3 [2:0] $end
$var wire 7 q funct7 [6:0] $end
$var wire 7 r op [6:0] $end
$var wire 2 s ALUOp [1:0] $end
$var wire 4 t ALUControl [3:0] $end
$upscope $end
$scope module Main_Decoder $end
$var wire 7 u Op [6:0] $end
$var wire 1 P ResultSrc $end
$var wire 1 Q RegWrite $end
$var wire 1 W MemWrite $end
$var wire 2 v ImmSrc [1:0] $end
$var wire 1 [ Branch $end
$var wire 1 \ ALUSrc $end
$var wire 2 w ALUOp [1:0] $end
$upscope $end
$upscope $end
$scope module extension $end
$var wire 2 x ImmSrc [1:0] $end
$var wire 32 y In [31:0] $end
$var reg 32 z Imm_Ext [31:0] $end
$upscope $end
$scope module rf $end
$var wire 5 { A1 [4:0] $end
$var wire 5 | A2 [4:0] $end
$var wire 1 ! clk $end
$var wire 1 " rst $end
$var wire 1 ( WE3 $end
$var wire 32 } WD3 [31:0] $end
$var wire 32 ~ RD2 [31:0] $end
$var wire 32 !" RD1 [31:0] $end
$var wire 5 "" A3 [4:0] $end
$upscope $end
$upscope $end
$scope module Execute $end
$var wire 4 #" ALUControlE [3:0] $end
$var wire 1 D ALUSrcE $end
$var wire 1 A BranchE $end
$var wire 32 $" Imm_Ext_E [31:0] $end
$var wire 1 < MemWriteE $end
$var wire 1 ; MemWriteM $end
$var wire 32 %" PCE [31:0] $end
$var wire 32 &" PCPlus4E [31:0] $end
$var wire 32 '" PCPlus4M [31:0] $end
$var wire 1 4 PCSrcE $end
$var wire 32 (" PCTargetE [31:0] $end
$var wire 32 )" RD1_E [31:0] $end
$var wire 32 *" RD2_E [31:0] $end
$var wire 5 +" RD_E [4:0] $end
$var wire 5 ," RD_M [4:0] $end
$var wire 1 * RegWriteE $end
$var wire 1 ) RegWriteM $end
$var wire 1 ' ResultSrcE $end
$var wire 1 & ResultSrcM $end
$var wire 1 -" UseBranchALU $end
$var wire 32 ." WriteDataM [31:0] $end
$var wire 1 ! clk $end
$var wire 1 " rst $end
$var wire 1 /" Zero_Branch $end
$var wire 1 0" ZeroE $end
$var wire 32 1" Src_B_interim [31:0] $end
$var wire 32 2" Src_B [31:0] $end
$var wire 32 3" Src_A [31:0] $end
$var wire 32 4" ResultW [31:0] $end
$var wire 2 5" ForwardB_E [1:0] $end
$var wire 2 6" ForwardA_E [1:0] $end
$var wire 32 7" ALU_Result_Main [31:0] $end
$var wire 32 8" ALU_Result_Branch [31:0] $end
$var wire 32 9" ALU_ResultM [31:0] $end
$var reg 1 :" MemWriteE_r $end
$var reg 32 ;" PCPlus4E_r [31:0] $end
$var reg 32 <" RD2_E_r [31:0] $end
$var reg 5 =" RD_E_r [4:0] $end
$var reg 1 ) RegWriteE_r $end
$var reg 1 >" ResultSrcE_r $end
$scope module alu_branch $end
$var wire 32 ?" A [31:0] $end
$var wire 4 @" ALUControl [3:0] $end
$var wire 32 A" B [31:0] $end
$var wire 1 B" overflow_add $end
$var wire 1 C" overflow_sub $end
$var wire 32 D" sum [31:0] $end
$var wire 32 E" sub [31:0] $end
$var wire 1 F" carry_sub $end
$var wire 1 G" carry_add $end
$var wire 1 /" Zero $end
$var wire 32 H" Result [31:0] $end
$var wire 1 I" OverFlow $end
$var wire 1 J" Negative $end
$var wire 1 K" Carry $end
$upscope $end
$scope module alu_main $end
$var wire 4 L" ALUControl [3:0] $end
$var wire 1 M" overflow_add $end
$var wire 1 N" overflow_sub $end
$var wire 32 O" sum [31:0] $end
$var wire 32 P" sub [31:0] $end
$var wire 1 Q" carry_sub $end
$var wire 1 R" carry_add $end
$var wire 1 0" Zero $end
$var wire 32 S" Result [31:0] $end
$var wire 1 T" OverFlow $end
$var wire 1 U" Negative $end
$var wire 1 V" Carry $end
$var wire 32 W" B [31:0] $end
$var wire 32 X" A [31:0] $end
$upscope $end
$scope module alu_src_mux $end
$var wire 32 Y" b [31:0] $end
$var wire 1 D s $end
$var wire 32 Z" c [31:0] $end
$var wire 32 [" a [31:0] $end
$upscope $end
$scope module srca_mux $end
$var wire 32 \" a [31:0] $end
$var wire 32 ]" c [31:0] $end
$var wire 2 ^" s [1:0] $end
$var wire 32 _" d [31:0] $end
$var wire 32 `" b [31:0] $end
$upscope $end
$scope module srcb_mux $end
$var wire 32 a" a [31:0] $end
$var wire 32 b" c [31:0] $end
$var wire 2 c" s [1:0] $end
$var wire 32 d" d [31:0] $end
$var wire 32 e" b [31:0] $end
$upscope $end
$upscope $end
$scope module Fetch $end
$var wire 1 4 PCSrcE $end
$var wire 32 f" PCTargetE [31:0] $end
$var wire 1 ! clk $end
$var wire 1 " rst $end
$var wire 32 g" PC_F [31:0] $end
$var wire 32 h" PCPlus4F [31:0] $end
$var wire 32 i" PCPlus4D [31:0] $end
$var wire 32 j" PCF [31:0] $end
$var wire 32 k" PCD [31:0] $end
$var wire 32 l" InstrF [31:0] $end
$var wire 32 m" InstrD [31:0] $end
$var reg 32 n" InstrF_reg [31:0] $end
$var reg 32 o" PCF_reg [31:0] $end
$var reg 32 p" PCPlus4F_reg [31:0] $end
$scope module IMEM $end
$var wire 1 " rst $end
$var wire 32 q" RD [31:0] $end
$var wire 32 r" A [31:0] $end
$upscope $end
$scope module PC_MUX $end
$var wire 32 s" b [31:0] $end
$var wire 1 4 s $end
$var wire 32 t" c [31:0] $end
$var wire 32 u" a [31:0] $end
$upscope $end
$scope module PC_adder $end
$var wire 32 v" b [31:0] $end
$var wire 32 w" c [31:0] $end
$var wire 32 x" a [31:0] $end
$upscope $end
$scope module Program_Counter $end
$var wire 32 y" PC_Next [31:0] $end
$var wire 1 ! clk $end
$var wire 1 " rst $end
$var reg 32 z" PC [31:0] $end
$upscope $end
$upscope $end
$scope module Forwarding_block $end
$var wire 5 {" RD_M [4:0] $end
$var wire 1 ) RegWriteM $end
$var wire 5 |" Rs1_E [4:0] $end
$var wire 5 }" Rs2_E [4:0] $end
$var wire 1 " rst $end
$var wire 1 ( RegWriteW $end
$var wire 5 ~" RD_W [4:0] $end
$var wire 2 !# ForwardBE [1:0] $end
$var wire 2 "# ForwardAE [1:0] $end
$upscope $end
$scope module Memory $end
$var wire 32 ## ALU_ResultM [31:0] $end
$var wire 32 $# ALU_ResultW [31:0] $end
$var wire 1 ; MemWriteM $end
$var wire 32 %# PCPlus4M [31:0] $end
$var wire 32 &# PCPlus4W [31:0] $end
$var wire 5 '# RD_M [4:0] $end
$var wire 5 (# RD_W [4:0] $end
$var wire 32 )# ReadDataW [31:0] $end
$var wire 1 ) RegWriteM $end
$var wire 1 ( RegWriteW $end
$var wire 1 & ResultSrcM $end
$var wire 1 % ResultSrcW $end
$var wire 32 *# WriteDataM [31:0] $end
$var wire 1 ! clk $end
$var wire 1 " rst $end
$var wire 32 +# ReadDataM [31:0] $end
$var reg 32 ,# ALU_ResultM_r [31:0] $end
$var reg 32 -# PCPlus4M_r [31:0] $end
$var reg 5 .# RD_M_r [4:0] $end
$var reg 32 /# ReadDataM_r [31:0] $end
$var reg 1 ( RegWriteM_r $end
$var reg 1 % ResultSrcM_r $end
$scope module dmem $end
$var wire 32 0# A [31:0] $end
$var wire 32 1# WD [31:0] $end
$var wire 1 ; WE $end
$var wire 1 ! clk $end
$var wire 1 " rst $end
$var wire 32 2# RD [31:0] $end
$upscope $end
$upscope $end
$scope module WriteBack $end
$var wire 32 3# ALU_ResultW [31:0] $end
$var wire 32 4# PCPlus4W [31:0] $end
$var wire 32 5# ReadDataW [31:0] $end
$var wire 1 % ResultSrcW $end
$var wire 1 ! clk $end
$var wire 1 " rst $end
$var wire 32 6# ResultW [31:0] $end
$scope module result_mux $end
$var wire 32 7# a [31:0] $end
$var wire 32 8# b [31:0] $end
$var wire 1 % s $end
$var wire 32 9# c [31:0] $end
$upscope $end
$upscope $end
$upscope $end
$upscope $end
$enddefinitions $end
$comment Show the parameter values. $end
$dumpall
$end
#0
$dumpvars
b0 9#
b0 8#
b0 7#
b0 6#
b0 5#
b0 4#
b0 3#
b0 2#
b0 1#
b0 0#
b0 /#
b0 .#
b0 -#
b0 ,#
b0 +#
b0 *#
b0 )#
b0 (#
b0 '#
b0 &#
b0 %#
b0 $#
b0 ##
b0 "#
b0 !#
b0 ~"
b0 }"
b0 |"
b0 {"
bx z"
bx y"
bx x"
bx w"
b100 v"
bx u"
bx t"
b0 s"
bx r"
b0 q"
b0 p"
b0 o"
b0 n"
b0 m"
b0 l"
b0 k"
bx j"
b0 i"
bx h"
bx g"
b0 f"
b0 e"
b0 d"
b0 c"
b0 b"
b0 a"
b0 `"
b0 _"
b0 ^"
b0 ]"
b0 \"
b0 ["
b0 Z"
b0 Y"
b0 X"
b0 W"
0V"
0U"
0T"
b0 S"
0R"
0Q"
b0 P"
b0 O"
0N"
0M"
b0 L"
0K"
0J"
0I"
b0 H"
0G"
0F"
b0 E"
b0 D"
0C"
0B"
b0 A"
b0 @"
b0 ?"
0>"
b0 ="
b0 <"
b0 ;"
0:"
b0 9"
b0 8"
b0 7"
b0 6"
b0 5"
b0 4"
b0 3"
b0 2"
b0 1"
10"
1/"
b0 ."
0-"
b0 ,"
b0 +"
b0 *"
b0 )"
b0 ("
b0 '"
b0 &"
b0 %"
b0 $"
b0 #"
b0 ""
b0 !"
b0 ~
b0 }
b0 |
b0 {
b0 z
b0 y
b0 x
b0 w
b0 v
b0 u
b0 t
b0 s
b0 r
b0 q
b0 p
b0 o
b0 n
b0 m
b0 l
b0 k
b0 j
0i
0h
b0 g
b0 f
b0 e
b0 d
b0 c
b0 b
b0 a
0`
b0 _
b0 ^
b0 ]
0\
0[
b0 Z
b0 Y
b0 X
0W
b0 V
b0 U
b0 T
b0 S
b0 R
0Q
0P
b0 O
b0 N
b0 M
b0 L
b0 K
b0 J
b0 I
b0 H
b0 G
b0 F
b0 E
0D
b0 C
b0 B
0A
b0 @
b0 ?
b0 >
b0 =
0<
0;
b0 :
b0 9
b0 8
b0 7
b0 6
b0 5
04
b0 3
b0 2
b0 1
b0 0
b0 /
b0 .
b0 -
b0 ,
b0 +
0*
0)
0(
0'
0&
0%
b0 $
b0 #
0"
1!
$end
#50
0!
#100
b100 g"
b100 t"
b100 y"
b100 h"
b100 u"
b100 w"
b0 j"
b0 r"
b0 x"
b0 z"
1!
#150
0!
#200
b10100000000000010010011 l"
b10100000000000010010011 q"
1"
1!
#250
0!
#300
1Q
1\
bx S
bx ~
b10100000000000100010011 l"
b10100000000000100010011 q"
b101 |
b10011 j
b10011 r
b10011 u
b101 Y
b101 z
b1000 g"
b1000 t"
b1000 y"
b100 8
b100 U
b100 i"
b10100000000000010010011 =
b10100000000000010010011 X
b10100000000000010010011 y
b10100000000000010010011 m"
b1000 h"
b1000 u"
b1000 w"
b100 j"
b100 r"
b100 x"
b100 z"
b100 p"
b10100000000000010010011 n"
1!
#350
0!
#400
bx +#
bx 2#
b101 C
b101 9"
b101 ]"
b101 b"
b101 ##
b101 0#
00"
b101 7"
b101 S"
b11111111111111111111111111111011 P"
1Q"
b101 O"
b1000001000011001100011 l"
b1000001000011001100011 q"
0/"
b101 3
b101 ("
b101 f"
b101 s"
b101 8"
b101 H"
b101 2"
b101 W"
b101 Z"
b1100 g"
b1100 t"
b1100 y"
b101 D"
b11111111111111111111111111111011 E"
1F"
bx 1"
bx ["
bx d"
b1000 8
b1000 U
b1000 i"
b100 :
b100 V
b100 k"
b10100000000000100010011 =
b10100000000000100010011 X
b10100000000000100010011 y
b10100000000000100010011 m"
b1100 h"
b1100 u"
b1100 w"
b1000 j"
b1000 r"
b1000 x"
b1000 z"
b101 ,
b101 N
b101 g
b101 }"
b100 7
b100 I
b100 &"
b100 b
b1 /
b1 L
b1 +"
b1 e
b101 >
b101 G
b101 _
b101 $"
b101 A"
b101 Y"
bx 1
bx K
bx d
bx *"
bx a"
1D
1*
1h
b1000 p"
b100 o"
b10100000000000100010011 n"
1!
#450
0!
#500
b1 ]
b1 o
b1 t
0Q
b10 Z
b10 m
b10 v
b10 x
0\
b1 n
b1 s
b1 w
bx T
bx !"
1[
bx l"
bx q"
b10 |
b1 {
b1100011 j
b1100011 r
b1100011 u
b1100 Y
b1100 z
b1001 3
b1001 ("
b1001 f"
b1001 s"
b1001 8"
b1001 H"
b10000 g"
b10000 t"
b10000 y"
b1100 8
b1100 U
b1100 i"
b1000 :
b1000 V
b1000 k"
b1000001000011001100011 =
b1000001000011001100011 X
b1000001000011001100011 y
b1000001000011001100011 m"
b1001 D"
b11111111111111111111111111111111 E"
b101 $
b101 O
b101 }
b101 4"
b101 `"
b101 e"
b101 6#
b101 9#
b10000 h"
b10000 u"
b10000 w"
b1100 j"
b1100 r"
b1100 x"
b1100 z"
b1100 p"
b1000 o"
b1000001000011001100011 n"
b1000 7
b1000 I
b1000 &"
b1000 b
b100 9
b100 H
b100 a
b100 %"
b100 ?"
b10 /
b10 L
b10 +"
b10 e
bx #
bx ."
bx *#
bx 1#
bx <"
b100 6
b100 '"
b100 %#
b100 ;"
b1 .
b1 ,"
b1 ="
b1 {"
b1 '#
1)
bx +
bx )#
bx /#
bx 5#
bx 8#
b101 B
b101 $#
b101 ,#
b101 3#
b101 7#
1!
#550
0!
#600
0T"
b1 @
b1 6"
b1 ^"
b1 "#
04
b10100 1"
b10100 ["
b10100 d"
0N"
0M"
00"
xQ
x\
bx ]
bx o
bx t
b10 ?
b10 5"
b10 c"
b10 !#
bx Z
bx m
bx v
bx x
xW
xP
x[
bx n
bx s
bx w
b10100 3
b10100 ("
b10100 f"
b10100 s"
b10100 8"
b10100 H"
b11111111111111111111111111110001 P"
1Q"
b11001 O"
0R"
1U"
bx |
bx {
bx l
bx q
bx k
bx p
bx j
bx r
bx u
b0 Y
b0 z
b10100 g"
b10100 t"
b10100 y"
b10100 D"
b11111111111111111111111111111100 E"
b10100 2"
b10100 W"
b10100 Z"
b101 3"
b101 X"
b101 _"
b11111111111111111111111111110001 7"
b11111111111111111111111111110001 S"
1V"
b10100 C
b10100 9"
b10100 ]"
b10100 b"
b10100 ##
b10100 0#
b10000 8
b10000 U
b10000 i"
b1100 :
b1100 V
b1100 k"
bx =
bx X
bx y
bx m"
b10100 h"
b10100 u"
b10100 w"
b10000 j"
b10000 r"
b10000 x"
b10000 z"
b100 5
b100 &#
b100 4#
b100 -#
b1 0
b1 R
b1 ""
b1 ~"
b1 (#
b1 .#
1(
b1000 6
b1000 '"
b1000 %#
b1000 ;"
b10 .
b10 ,"
b10 ="
b10 {"
b10 '#
b10 ,
b10 N
b10 g
b10 }"
b1 -
b1 M
b1 f
b1 |"
b1100 7
b1100 I
b1100 &"
b1100 b
b1000 9
b1000 H
b1000 a
b1000 %"
b1000 ?"
b1100 /
b1100 L
b1100 +"
b1100 e
b1100 >
b1100 G
b1100 _
b1100 $"
b1100 A"
b1100 Y"
bx 2
bx J
bx c
bx )"
bx \"
b1 E
b1 F
b1 ^
b1 #"
b1 L"
1-"
1A
0D
0*
0h
b10000 p"
b1100 o"
bx n"
1!
#650
0!
#700
xN"
xT"
xM"
bx 1"
bx ["
bx d"
b0x @
b0x 6"
b0x ^"
b0x "#
bx P"
xQ"
bx O"
xR"
b0x ?
b0x 5"
b0x c"
b0x !#
bx 3"
bx X"
bx _"
b1100 3
b1100 ("
b1100 f"
b1100 s"
b1100 8"
b1100 H"
x4
xU"
bx 2"
bx W"
bx Z"
b0x1x00 g"
b0x1x00 t"
b0x1x00 y"
b10100 8
b10100 U
b10100 i"
b10000 :
b10000 V
b10000 k"
b1100 D"
b1100 E"
0F"
x0"
bx 7"
bx S"
xV"
bx C
bx 9"
bx ]"
bx b"
bx ##
bx 0#
b10100 $
b10100 O
b10100 }
b10100 4"
b10100 `"
b10100 e"
b10100 6#
b10100 9#
b11000 h"
b11000 u"
b11000 w"
b10100 j"
b10100 r"
b10100 x"
b10100 z"
b10100 p"
b10000 o"
bx ,
bx N
bx g
bx }"
bx -
bx M
bx f
bx |"
b10000 7
b10000 I
b10000 &"
b10000 b
b1100 9
b1100 H
b1100 a
b1100 %"
b1100 ?"
bx /
bx L
bx +"
bx e
b0 >
b0 G
b0 _
b0 $"
b0 A"
b0 Y"
bx E
bx F
bx ^
bx #"
bx L"
x-"
xA
x'
xi
x<
x`
xD
x*
xh
b10100 #
b10100 ."
b10100 *#
b10100 1#
b10100 <"
b1100 6
b1100 '"
b1100 %#
b1100 ;"
b1100 .
b1100 ,"
b1100 ="
b1100 {"
b1100 '#
0)
b10100 B
b10100 $#
b10100 ,#
b10100 3#
b10100 7#
b1000 5
b1000 &#
b1000 4#
b1000 -#
b10 0
b10 R
b10 ""
b10 ~"
b10 (#
b10 .#
1!
#750
0!
#800
bx0 @
bx0 6"
bx0 ^"
bx0 "#
bx0 ?
bx0 5"
bx0 c"
bx0 !#
b10000 3
b10000 ("
b10000 f"
b10000 s"
b10000 8"
b10000 H"
bx g"
bx t"
bx y"
bx $
bx O
bx }
bx 4"
bx `"
bx e"
bx 6#
bx 9#
b10000 D"
b10000 E"
b11000 8
b11000 U
b11000 i"
b10100 :
b10100 V
b10100 k"
bx h"
bx u"
bx w"
b0x1x00 j"
b0x1x00 r"
b0x1x00 x"
b0x1x00 z"
bx B
bx $#
bx ,#
bx 3#
bx 7#
b1100 5
b1100 &#
b1100 4#
b1100 -#
b1100 0
b1100 R
b1100 ""
b1100 ~"
b1100 (#
b1100 .#
0(
bx #
bx ."
bx *#
bx 1#
bx <"
b10000 6
b10000 '"
b10000 %#
b10000 ;"
bx .
bx ,"
bx ="
bx {"
bx '#
x&
x>"
x;
x:"
x)
b10100 7
b10100 I
b10100 &"
b10100 b
b10000 9
b10000 H
b10000 a
b10000 %"
b10000 ?"
b11000 p"
b10100 o"
1!
#850
0!
#900
bx ?
bx 5"
bx c"
bx !#
bx @
bx 6"
bx ^"
bx "#
b10100 3
b10100 ("
b10100 f"
b10100 s"
b10100 8"
b10100 H"
bx 8
bx U
bx i"
b0x1x00 :
b0x1x00 V
b0x1x00 k"
b10100 D"
b10100 E"
bx j"
bx r"
bx x"
bx z"
bx p"
b0x1x00 o"
b11000 7
b11000 I
b11000 &"
b11000 b
b10100 9
b10100 H
b10100 a
b10100 %"
b10100 ?"
b10100 6
b10100 '"
b10100 %#
b10100 ;"
b10000 5
b10000 &#
b10000 4#
b10000 -#
bx 0
bx R
bx ""
bx ~"
bx (#
bx .#
x%
x(
1!
#950
0!
#1000
xI"
xB"
xJ"
x/"
bx 3
bx ("
bx f"
bx s"
bx 8"
bx H"
xK"
bx D"
xG"
bx E"
xF"
bx :
bx V
bx k"
b10100 5
b10100 &#
b10100 4#
b10100 -#
b11000 6
b11000 '"
b11000 %#
b11000 ;"
bx 7
bx I
bx &"
bx b
b0x1x00 9
b0x1x00 H
b0x1x00 a
b0x1x00 %"
b0x1x00 ?"
bx o"
1!
#1050
0!
#1100
xC"
bx 9
bx H
bx a
bx %"
bx ?"
bx 6
bx '"
bx %#
bx ;"
b11000 5
b11000 &#
b11000 4#
b11000 -#
1!
#1150
0!
#1200
bx 5
bx &#
bx 4#
bx -#
1!
